CRUZBLANCA

Fecha,Open,High,Low,Close,Volume
20110623,530,530,495,497.81,288875300
20110624,497.81,501,485,486.05,2906070
20110628,498.5,499,481,488.09,10473690
20110629,490,492.1,480,483.02,5584368
20110630,483.02,501.43,488,493,3911285
20110701,493,500,493,499.67,4532229
20110704,499.67,502.5,495.01,497.89,785945
20110705,497.89,500,495,499,2537759
20110706,499,502,498,499,275488
20110707,500.99,505,497,498.6,493579
20110708,498.6,502.5,496,498.49,140081
20110711,498.49,497.5,485,497.5,173286
20110712,497.5,497.99,493,493,353513
20110713,493,496.99,493,495.5,1219764
20110714,495.5,499.7,496.51,498,462723
20110715,498,498,490,493.76,3069176
20110718,493.76,493,493,493,4626
20110719,493,492.8,488.99,488.99,55600
20110720,485,485,465,475,5649938
20110721,475,475,470,474.5,85013
20110722,474.5,475,470,470.52,92732
20110725,459,473,459,469,255246
20110726,469,460,450,459,705600
20110727,459,455,445,445,1566060
20110728,445,450,440,440,501550
20110729,440,435,430,435,1050904
20110801,435,445,436,440,66098
20110802,440,440,430,430.15,426345
20110803,430.15,431,400,426,3961390
20110804,426,426,394.99,399.99,3976630
20110805,399.99,400,385,395,4020546
20110808,394.7,394.7,350,350,1426997
20110809,348,400.1,348,385,3247014
20110810,385,395,380,395,241655
20110811,395,450,399,449.08,1081194
20110812,450,456,435,445,115392
20110816,445,453,441,445.49,493195
20110817,445.49,460,442,457.92,866900
20110818,457.92,448.5,444.9,445,1035722
20110819,445,450,435,441,1713047
20110822,441,450,430,438.9,64024
20110823,438.9,437.5,432,434,48704
20110824,434,445,435,439,319998
20110825,439,452,435,452,1076083
20110826,452,470,452,470,6327818
20110829,470,485,470,480,903193
20110830,480,495.01,475,490.33,1673791
20110831,490.33,503,491,495,1293387
20110901,495,495,485,489.8,160050
20110902,489.8,482,478,480,173405
20110905,480,470,461,461,23100
20110906,461,457,450,457,434820
20110907,457,470,457,461.51,606588
20110908,461.51,470,450,460,313787
20110909,460,450,450,450,128182
20110912,450,440.01,430,440,300895
20110913,440,441.01,440,441,254087
20110914,441,450,440,441,160991
20110915,441,445,440,440,330266
20110916,440,470,450,465.27,119590
20110920,465.27,470,460,470,215427
20110921,470,472,467,469,134624
20110922,469,463.99,440,443.74,614434
20110923,443.74,455,444,455,1489879
20110926,455,455.01,451,454,995921
20110927,454,455.01,450,455.01,878631
20110928,455.01,450.01,450,450.01,72519
20110929,450.01,470,450,470,940055
20110930,470,467,464,465.86,308935
20111003,465.86,465,450,450,190040
20111004,450,467,425,429.5,1141676
20111005,429.5,443,440.01,443,1149566
20111006,443,460,443,460,5029044
20111007,460,460,452,452.01,1007694
20111011,452.01,455,452.61,455,11235
20111012,455,470,464.9,470,2473493
20111013,470,455.01,455.01,455.01,426452
20111014,455.01,460,455,455,99039
20111017,455,455.01,444,444,2846472
20111018,444,450,438,450,252603
20111019,450,460,458,460,905375
20111020,460,460.1,460,460,135057
20111021,460,465,460.1,465,169617
20111024,465,480,465,480,232705
20111025,480,477.01,469.99,475,589548
20111026,475,474.8,470,470,131000
20111027,470,475,465,470,1604845
20111028,470,470,463,465,149758
20111102,465,460,455,455.1,39560
20111103,455.1,466,460,466,11801
20111104,466,466.1,466,466,90462
20111107,466,466,466,466,17520
20111108,466,460,460,460,16882
20111109,460,466,435,460,311805
20111110,460,475,450,459.71,72768
20111111,459.71,464,459,460.1,163935
20111114,460.1,465,430,449.22,110082
20111115,449.22,475,459,470,473828
20111116,470,490,470,480.21,248564
20111117,480.21,495,479.9,485,657991
20111118,485,492,485,492,69531
20111121,491,492,480,480,94415
20111122,480,490,471,472.5,80242
20111123,472.5,472.1,470,470,205629
20111124,470,465,460,465,64285
20111125,465,485,460,485,358387
20111128,485,492,482,485,410639
20111129,485,485,479.99,485,332055
20111130,485,515,480,507.73,4834052
20111201,507.73,506.1,498.99,498.99,109011
20111202,498.99,500,498.97,498.98,159949
20111205,498.98,504,495,500,204114
20111206,500,500,485,485.1,648980
20111207,485.1,500,485.1,500.06,95325
20111209,500.06,500,495,500,21893
20111212,500,490.02,483,490,141578
20111213,490,495,490,495,208805
20111214,495,495,494,494,87621
20111215,494,496,491,496,14166
20111216,496,500,495,497.9,2027234
20111219,497.9,495,491,493.91,80542
20111220,493.91,494,492,494,142530
20111221,494,494,485,489.51,106498
20111222,489.51,490,485,489.33,202030
20111223,489.33,498,485,488.66,235714
20111226,488.66,500,490.01,495,1095826
20111227,495,500,494.9,497.99,941139
20111228,497.99,502,498,501.92,349507
20111229,501.92,509.99,498,507.4,1159798
20111230,507.4,520,501,508.31,1029262
20120102,508.31,509,496,498,38394
20120103,498,498,496.1,496.1,322288
20120104,496.1,495,490.01,493.21,1148481
20120105,493.21,499.9,490,498.34,167856
20120106,498.34,498.99,493,496.97,187790
20120109,496.97,496,496,496,1173
20120110,496,487,485,485,51768
20120111,485,486,485,485,169928
20120112,485,488,485,485.01,409468
20120113,485.01,487,485,485,160089
20120116,485,487,484.99,487,58705
20120117,487,492.9,487,492.9,177204
20120118,492.9,492,490,490.01,765558
20120119,490.01,500,490,499.83,1544629
20120120,499.83,505,498.5,503.6,4006174
20120123,503.6,505,500,502.4,626187
20120124,502.4,500,495,495,93715
20120125,495,495,492,492,230600
20120126,492,502,492,502,69871
20120127,502,508,502,507.68,40677
20120130,507.68,510,499,505,212791
20120131,505,505,502,502,68803
20120201,502,505,502,505,710365
20120202,505,505,499.99,502.04,279432
20120203,502.04,510,499,510,653960
20120206,510,510,508,509,250176
20120207,509,510,505,508.56,242314
20120208,508.56,509,500,500,51590
20120209,500,503.9,500,503.9,111012
20120210,503.9,506,500,506,454539
20120213,506,512.05,508,512,521067
20120214,512,540,512,537,1059968
20120215,537,545.55,535,545.55,900269
20120216,545.55,548.9,535,546.78,698570
20120217,546.78,550,542.9,549.77,228855
20120220,549.77,540,530,530,69044
20120221,530,540,525,540,2147764
20120222,540,540,539,540,38095
20120223,540,540,537.99,538,122225
20120224,538,535,520,522,2776016
20120227,522,530,530,530,13095
20120228,530,532,524.4,526,269917
20120229,526,538,520,525.01,767016
20120301,525.01,540,525,540,38785060
20120302,540,559,540,559,940513
20120305,557,557,549.9,550,100791
20120306,550,550,525,550,303037
20120307,550,555,549,550,1482402
20120308,550,550,545,550,442548
20120309,550,548.9,545,547,1344042
20120312,547,551,547,551,190024
20120313,551,554.9,551,551.8,172090
20120314,550,551.1,550,554,171195
20120315,554,555,551,553.99,206259
20120316,553.99,555,540.02,540.02,1853727
20120319,540.02,549.95,540,545,820570
20120320,545,545,539,540.96,191158
20120321,540.96,545,541,544.5,311231
20120322,544.5,554.9,537.8,538,189065
20120323,538,545,538,544,280985
20120326,544,544,540,543.8,95384
20120327,543.8,543,540,540,18291
20120328,538.5,538.5,532,535,64780
20120329,535,540,535,540,28660
20120330,540,540,539,540,89221
20120402,540,540,538.7,538.98,265279
20120403,538.98,543,539,543,330385
20120404,543,545,540,540.24,64177
20120405,540.24,542,535,541,29557
20120409,541,542,538.99,538.99,66055
20120410,538.99,535.1,533,533,1385471
20120411,533,535,534,534,21283
20120412,534,535,533,535,60084
20120413,535,540,531,540,224875
20120416,540,543,540,543,418565
20120417,543,545,542.3,545,408234
20120418,545,546,544.9,544.84,410650
20120419,544.84,550,541,545.96,443857
20120420,545.96,547.4,545,547.4,186861
20120423,547.4,545,540,544.84,188460
20120424,544.84,544,535,539.2,181309
20120425,539.2,545.01,539,545,277410
20120426,545,545,545,545,5005027
20120427,545,546,540,540,74878
20120430,540,540,531,531,23508
20120502,531,540,530,530,137216
20120503,530,530,530,530.43,29149
20120504,530.43,528,528,528,9500
20120507,528,528,510,512.57,56997
20120508,512.57,521,510.4,521,62214
20120509,521,529,521,521,211692
20120510,521,525,521,521,666034
20120511,521,530,521.1,530,897272
20120514,530,530,520,520,196130
20120515,520,520,513.99,514,1486931
20120516,514,515.1,514,515,854077
20120517,515,515.02,515,515,1223633
20120518,515,520,515,515,442899
20120522,514,516,514,515,429921
20120523,515,515,500,504.35,401963
20120524,504.35,505,502,505,92138
20120525,505,505,505,505,4787
20120528,505,510,505,510,169582
20120529,510,515,510,510.1,18748
20120530,510.1,530,505,530,687179
20120531,530,540,520,537.74,2043044
20120601,537.74,537.74,529.99,529.99,4499492
20120604,529.99,519,500,515.82,47165
20120605,515.82,519,515,515,2341488
20120606,515,520,509,520,464400
20120607,520,511,500,511,225483
20120608,511,525,513.99,524.92,82349
20120611,524.92,530,524,525.65,54652
20120612,525.65,526,525,525,1504672
20120613,525,525,522,524,867169
20120614,524,524,522.9,522.9,26450
20120615,522.9,550,515,538.62,720756
20120618,538.62,538.6,520,520,13683
20120619,520,520,520,520,1371
20120620,520,525.1,524.5,525,659241
20120621,525,524,520,521.66,32445
20120622,521.66,521,520.5,521,7696
20120625,521,520,520,520,219410
20120626,520,521.1,519,521,837136
20120627,521,521,521,521,193
20120628,521,517,515,517,1030187
20120629,517,530,517,526,273079
20120703,526,530,526,530,216916
20120704,530,530,525,525,14407
20120705,525,530,529.99,530,507578
20120706,530,532.5,529,532.5,268058
20120709,532.5,535,530,535,1551546
20120710,535,530.01,530,530,1251030
20120711,530,530,525,525,1088924
20120713,525,525,524.9,524.9,495325
20120717,524.9,520,520,520,2182483
20120718,520,523,520,520,34231
20120719,520,515,515,515,50000
20120720,515,515,515,515,22720
20120723,515,514.95,514,514.93,14590
20120724,514.93,514,512,514,24366
20120725,514,520,512,520,92329
20120726,520,530,515,524.65,296613
20120727,524.65,520,515,520,66621
20120730,520,518,515,518,43085
20120731,518,530.2,517,530.05,212156
20120801,530.05,520,515,515.16,146288
20120802,515.16,507,490,490.21,53638
20120803,490.21,495.11,490.5,495.11,280922
20120806,495.11,495.11,495,495,516786
20120807,495,495,495,495,168027
20120810,495,497,495.5,497,86438
20120813,497,497,497,497,4084
20120814,497,520,497,518.58,221314
20120816,518.58,520,517,517,26714
20120817,517,517,515,515,134638
20120821,515,511,506,511.07,843316
20120822,511.07,514,510,513.3,326772
20120823,513.3,510.2,509,509,94008180
20120824,509,510.01,509,510,212014
20120827,510,510.2,509,509.92,663526
20120828,509.92,519,505,505.5,251412
20120829,505.5,506,505,505.22,477559
20120830,505.22,504.9,495,502.87,52524
20120831,502.87,510,505,506.79,628895
20120903,506.79,506.79,506.79,506.79,5529
20120904,506.79,506,505,505,335845
20120905,505,505,505,505,151295
20120906,505,510,505,510,581774
20120907,510,520,510,519.5,148760
20120910,519.5,516.9,516.9,516.9,6022
20120911,516.9,516,510,510,140278
20120912,510,510.1,509.99,510,564284
20120913,510,516,509,516,276938
20120914,516,520,516.01,520,112714
20120920,520,525,520,520,52925
20120921,520,535,525,535,1830544
20120924,535,535,530,531,773148
20120925,531,534.5,529,534.5,1843924
20120926,534.5,530,529.9,530,1199956
20120927,530,530.01,530,530,268215
20120928,530,529,516,524.56,212292
20121001,524.56,525,523,523,137505
20121002,523,523,520,520,35230
20121003,520,521,520,521,412873
20121004,521,522.1,521,522.69,20116
20121005,522.69,540,525,540,486116
20121008,540,539.9,529.8,539.87,1850598
20121009,539.87,545,535,545,3110728
20121010,545,558,545,557.95,9061374
20121011,557.95,580,558,575,1541229
20121012,575,585,574.9,575.14,655784
20121016,575.14,580,575,580,202498
20121017,580,580,575,580,709229
20121018,580,580.11,575,580,179947
20121019,580,585,580,585,278148
20121022,585,585,580,582.99,489482
20121023,582.99,590,580,583.26,514466
20121024,583.26,590,585,590,754198
20121025,590,595,589,590,1234176
20121026,590,605,590,602,751902
20121029,602,618,600,618,666229
20121030,618,615,613.5,613.99,737048
20121031,613.99,630,619.99,629.8,840087
20121105,629.8,637,625,637,1195351
20121106,637,640,625,630,2249913
20121107,630,629,625,625,1131032
20121108,625,630,625,628.59,1070317
20121109,628.59,625,621,624.3,331855
20121112,624.3,625,622,622,612915
20121113,622,624,612,615.96,2094644
20121114,615.96,614,610,610.52,260195
20121115,610.52,610,590,600,269549
20121116,600,600,590,590,368679
20121119,590,591,584.9,587.62,1160965
20121120,587.62,600,590,590,775532
20121121,590,600,590,600,3074111
20121122,600,595.6,590.01,590.01,1055869
20121123,590.01,595,593.9,594,16226
20121126,594,595,593.9,595,116881
20121127,595,595,595,595,43112
20121128,595,594.99,592.9,593,25446
20121129,593,592,580,585,1254768
20121130,585,582.5,580,580,2098846
20121203,580,581.9,577.9,578,653188
20121204,578,580,578,580,2092939
20121205,580,585,580.2,583.21,260509
20121206,583.21,587,579.98,579.98,2101276
20121207,579.98,580,575,580,373929
20121210,580,579,568,571.18,559724
20121211,571.18,575,568,574.01,613580
20121212,574.01,579,574,579,526923
20121213,579,593,580,590,4780077
20121214,590,610.01,595,610,1674518
20121217,610,615,600.1,610,373437
20121218,610,610,605,609.97,3978442
20121219,609.97,620,610,620,3975211
20121220,620,619.99,610,614,849538
20121221,614,618,613,617.76,201106
20121224,617.76,616,615.24,616,204080
20121226,616,616,608.5,608.5,204342
20121227,608.5,605.01,600,604,851748
20121228,604,610,604,610,685687
20130102,610,621.5,618,620,816272
20130103,620,625,617.99,623.15,1214929
20130104,623.15,621.01,618,618,514923
20130107,618,624,618,620,474053
20130108,620,620,605,606.52,1061204
20130109,606.52,606.5,600,600,307484
20130110,600,609,599.99,600.99,1654079
20130111,600.99,600.99,600,600,801374
20130114,600,600.01,595,600,1428825
20130115,600,600,590,590,90981
20130116,590,598,591,595,176480
20130117,595,596,595,595,4285451
20130118,595,595,594.9,594.9,318127
20130121,594.9,595,589.99,590,350892
20130122,590,590.1,580,590,1650097
20130123,590,591,589,589.95,224872
20130124,589.95,590,582.5,590,3741903
20130125,590,590,585,585.02,348491
20130128,585.02,590,583.9,585,182776
20130129,585,585,584,584,164037
20130130,584,595,581,585.01,6723313
20130131,585.01,595,584,590,7229976
20130201,590,595,580,589.99,1627361
20130204,589.99,590,584,585,4085363
20130205,585,590,585,589.39,2877410
20130206,589.39,590,583,589.35,1709112
20130207,589.35,590,583,589.83,3149435
20130208,589.83,590,587,589.99,151897
20130211,589.99,595,589,595,1335897
20130212,595,605,590,600,16833060
20130213,600,600,585,598.9,55545
20130214,598.9,600,594.8,594.8,157181
20130215,594.8,590,582,582,1264024
20130218,582,590,575,580,1199695
20130219,580,580,570.02,570.02,301997
20130220,570.02,575,571,574.65,838199
20130221,574.65,581,575,581,1795718
20130222,581,595,581,590,1218962
20130225,590,599,594,599,216085
20130226,599,600,595,599.3,378195
20130227,599.3,599,598,598,230648
20130228,598,606.98,598.99,601.66,953597
20130301,601.66,608,600,604,1380789
20130304,604,610,602,607,73129
20130305,607,608,607,607.72,301710
20130306,607.72,607,600,607,230634
20130307,607,606.9,600,600.26,187740
20130308,600.26,605,599,605,1055698
20130311,605,610.99,605,610,576685
20130312,610,610,604,609.88,1265680
20130313,609.88,610,606.01,609.99,938766
20130314,609.99,610,605,609,875795
20130315,609,610,609,609,374923
20130318,609,605,595,595.1,346062
20130319,595.1,605,590,603.99,1221807
20130320,603.99,604,594,594,205895
20130321,594,595,589.99,590.5,1919886
20130322,590.5,600,590.5,595.05,185896
20130325,595.05,604.5,595,595.2,256923
20130326,595.2,598,590,595.04,1093719
20130327,595.04,591,580.02,588.84,905488
20130328,588.84,597,588,591,293303
20130401,591,591,580,580,23110
20130402,580,585,580,583.43,1099325
20130403,583.43,582,570,580,2408277
20130404,580,590,579,590,2305740
20130405,590,590,580,580,649570
20130408,580,590,581,590,399723
20130409,590,590.11,585.01,585.01,1016881
20130410,585.01,590,585,589.41,204883
20130411,589.41,589.41,579.99,580,395155
20130412,580,580,579.8,579.8,179044
20130415,577.9,577.9,564.97,564.97,180160
20130416,564.97,565,545,549.99,1636645
20130417,549.99,549.99,542,545,3004974
20130418,545,554,544,544,345541
20130419,544,560,545,560,3470456
20130422,560,565,550,560,689409
20130423,560,560,555,558,619794
20130424,558,560,555,557,196326
20130425,557,557,550,551,157450
20130426,551,555,535,537.61,2641846
20130429,537.61,539,535,538.99,216944
20130430,538.99,544,537.99,540,709951
20130502,540,540,538.9,540,369628
20130503,540,550,539.9,540.18,581246
20130506,540.18,546,545,545,1296090
20130507,545,544.9,540,540,319559
20130508,540,542.21,539.77,539.77,655879
20130509,539.77,538.99,535,535,793093
20130510,535,534,518,520,1423750
20130513,520,519,510,515,1185423
20130514,515,527,515,515,877172
20130515,515,520,515,519.42,1259602
20130516,519.42,526,520,520,337202
20130517,520,519.9,510,517,360560
20130520,517,520,520,520,100845
20130522,520,520,510,510,193686
20130523,510,510,509.96,510,106693
20130524,510,515,509.99,510.64,711163
20130527,510.64,520,510.5,512.5,99808
20130528,512.5,511,505,505,119307
20130529,505,509,500,502.3,354074
20130530,502.3,502.3,500,501,395984
20130531,501,540,500,527.87,1158780
20130603,527.87,540,530,540,86016
20130604,540,530,502.7,517.99,188597
20130605,517.99,519,507,512.49,353710
20130606,512.49,510,508.9,509.99,515903
20130607,509.99,508.95,500,500.14,123953
20130610,500.14,509.9,500,509.9,180622
20130611,509.9,505,495,496.77,284758
20130612,496.77,495,485,485,425426
20130613,485,485.06,480,480,4384683
20130614,480,479.9,465,469.67,140195
20130617,469.67,485,466,470,821754
20130618,470,470,460,467,106741
20130619,467,470,460,461.17,1202830
20130620,461.17,470,448,468.15,459056
20130621,468.15,465,447,455.56,61893
20130624,455.56,449.88,434.9,438.75,258512

