ILC

Fecha,Open,High,Low,Close,Volume
20120720,7061,7301,7061,7238.4,41599580
20120723,7226,7230,7101,7190.7,1573063
20120724,7190.7,7350,7190,7292.8,922189
20120725,7292.8,7400,7300,7365.8,577856
20120726,7351,7400,7300,7301.3,592776
20120727,7301.3,7395,7310,7330.6,642702
20120730,7330.6,7350,7300,7300,265498
20120731,7300,7350,7295,7300,165257
20120801,7300,7300,7285,7290,227811
20120802,7290,7285,7200,7200,503560
20120803,7200,7300,7200,7292.9,249012
20120806,7292.9,7300,7285,7299.1,338118
20120807,7299.1,7311,7260,7290.8,375565
20120808,7290.8,7310,7260,7260,68402
20120809,7260,7290,7260,7265.5,175967
20120810,7265.5,7300,7260,7290,860505
20120813,7290,7320,7290,7300,180632
20120814,7300,7340,7300,7330,132653
20120816,7330,7351,7330,7330,342985
20120817,7330,7500,7300,7322.7,149975
20120820,7322.7,7420,7300,7400,192824
20120821,7400,7415,7395,7398.9,48538
20120822,7398.9,7390,7380,7390,192002
20120823,7390,7395,7383.9,7388,95972
20120824,7388,7400,7350,7360,61762
20120827,7360,7380,7300,7300,36914
20120828,7300,7305,7205,7250,260298
20120829,7250,7301,7295,7300,236061
20120830,7300,7350,7300,7320,55583
20120831,7320,7320,7313.8,7313.8,120646
20120903,7313.8,7320,7290,7311.3,17684
20120904,7311.3,7315,7295,7300,193410
20120905,7300,7303,7279.9,7300,275327
20120906,7300,7300,7270,7280.2,135914
20120907,7280.2,7380,7298,7300,72413
20120910,7300,7350,7320,7350,245943
20120911,7350,7380,7350.1,7358.2,212071
20120912,7358.2,7430,7400,7424.7,250964
20120913,7424.7,7420,7410,7410,111910
20120914,7410,7430,7400,7400,31317
20120920,7400,7350.1,7348.9,7350,13125
20120921,7350,7420,7340,7418.8,147897
20120924,7418.8,7450,7419,7449.3,49178
20120925,7450,7525,7450,7500,453557
20120926,7500,7525,7480,7520,64048
20120927,7520,7565,7521,7563.4,85662
20120928,7563.4,7700,7580,7660,110571
20121001,7660,7720,7675,7710,58480
20121002,7710,7899,7720,7849.9,186821
20121003,7850,7986,7850,7970,162102
20121004,7970,8119,7940,8056.8,171452
20121005,8100,8100,8050,8059,157619
20121008,8059,8060,8020,8047.3,124771
20121009,8306.1,8600,8250,8350.2,457414
20121010,8350.2,8350,8289.9,8313.6,138933
20121011,8313.6,8410,8300,8393.3,185898
20121012,8393.3,8505,8391,8500,74932
20121016,8500,8605,8550,8578.9,76219
20121017,8578.9,8650,8570,8646,248633
20121018,8646,8730,8640,8700,138266
20121019,8700,8725,8680,8725,284154
20121022,8725,8720,8669,8675,150284
20121023,8675,8675,8494,8531.2,81584
20121024,8531.2,8690,8600,8657.6,172720
20121025,8657.6,8670.1,8640,8649,100108
20121026,8649,8666,8467.5,8470,97799
20121029,8470,8500,8390,8500,47264
20121030,8502,8502,8490,8494.8,45961
20121031,8494.8,8608,8495,8505.5,98249
20121105,8505.5,8550,8480,8483.6,77972
20121106,8483.6,8550,8498,8513.5,89902
20121107,8513.5,8600,8500,8596.3,79037
20121108,8596.3,8700,8600,8700,158002
20121109,8700,8750,8700,8700,49511
20121112,8700,8730,8700,8729.9,90309
20121113,8729.9,8701,8650,8678.7,94422
20121114,8678.7,8690,8669.9,8670,21067
20121115,8670,8670,8638,8640,72887
20121116,8640,8640,8550,8550,27232
20121119,8550,8600,8550,8590,37367
20121120,8590,8650,8590,8610,153127
20121121,8610,8632,8610,8625,29079
20121122,8625,8650,8525,8578.3,9816
20121123,8578.3,8600,8550,8600,90689
20121126,8600,8650,8580,8648.1,168608
20121127,8648.1,8700,8650,8689.5,231986
20121128,8689.5,8750,8695,8749.2,126627
20121129,8749.2,8800,8701,8800,50900
20121130,8800,9050,8800,8973.9,908916
20121203,8973.9,8983,8961,8964.8,136709
20121204,8964.8,8980,8940,8947.3,157325
20121205,8947.3,8947.3,8820,8822,97433
20121206,8822,8820,8790,8800,85684
20121207,8800,8850,8800,8840,139747
20121210,8840,8900,8840,8894.1,52083
20121211,8894.1,8952,8895,8952,113475
20121212,8952,9010,8970,9005,355616
20121213,9005,9111,9005,9100,100609
20121214,9100,9329,9121,9329,155765
20121217,9329,9400,9329,9360,389757
20121218,9360,9420,9350,9400,162518
20121219,9400,9400,9350,9350,126155
20121220,9350,9410,9350,9404.4,121074
20121221,9404.4,9410,9345,9394,810186
20121224,9394,9520,9380,9381,557935
20121226,9381,9389,9330,9333.3,259410
20121227,9333.3,9340,9300,9330,47942
20121228,9330,9400,9300,9330.4,107977
20130102,9330.4,9450,9351,9430.4,86559
20130103,9430.4,9430,9400,9420,134003
20130104,9420,9450,9320,9320.1,166296
20130107,9320.1,9330,9089,9098.6,229959
20130108,9098.6,9130,8900,9040,321056
20130109,9040,9101,9040,9058.7,251230
20130110,9058.7,9100,8850,9082.4,234653
20130111,9082.4,9100,9048,9090.9,97320
20130114,9090.9,9050,9000,9050,48875
20130115,9050,9140,8950,9100,76318
20130116,9100,9140,9100,9132.8,146362
20130117,9100,9100,9050,9080,265360
20130118,9080,9160,9080,9150,48168
20130121,9150,9150,9125,9139,47502
20130122,9139,9150,9120,9150,49112
20130123,9150,9270,9150,9256.3,95788
20130124,9256.3,9260,9225,9249,32244
20130125,9249,9300,9199,9300,70004
20130128,9300,9300,9288,9300,39729
20130129,9300,9350,9275,9278.2,91117
20130130,9278.2,9299,9150,9150.1,75493
20130131,9150.1,9248,9130,9247.5,61515
20130201,9111,9161,9075,9109.4,231924
20130204,9109.4,9150,9110,9150,303953
20130205,9150,9230,9135,9230,239835
20130206,9230,9230,9120.1,9136.7,130243
20130207,9136.7,9150,9100,9150,101779
20130208,9150,9200,9120,9196.7,183181
20130211,9196.7,9211,9196.8,9200,11738
20130212,9200,9211,9150,9191.1,178630
20130213,9191.1,9205,9056,9180,100701
20130214,9180,9180,9150,9175,40407
20130215,9175,9175,9100,9115,100333
20130218,9115,9115,9000,9002.2,57911
20130219,9002.2,9050,9000,9025,158052
20130220,9025,9050,8800,8800.7,100893
20130221,8800.7,8805,8700,8777.1,25366
20130222,8777.1,9050,8780,9050,94666
20130225,9050,9050,8920,8950,43442
20130226,8950,9000,8900,9000,28908
20130227,9000,9000,8999,8999,50364
20130228,8999,9000,8880.1,9000,97222
20130301,9000,9049,9000,9035.2,83046
20130304,9035.2,9150,9045,9149.9,35951
20130305,9149.9,9250,9100,9125.8,35023
20130306,9125.8,9175,9129,9140,33289
20130307,9140,9140,9099,9099,120376
20130308,9140,9150,9128.9,9150,133057
20130311,9150,9310,9150,9298.9,133368
20130312,9300,9305,9290,9299.9,129950
20130313,9299.9,9300,9250,9290.7,75702
20130314,9290.7,9298,9200.1,9249.9,50074
20130315,9249.9,9300,9200,9241.5,63824
20130318,9241.5,9220,9150,9150,77018
20130319,9150,9250,9100,9100,85251
20130320,9100,9150,9100,9131.6,98341
20130321,9131.6,9130,9050,9088,70728
20130322,9088,9150,9050,9150,134740
20130325,9150,9149,9050,9050,28484
20130326,9050,9180,9050,9144.9,58831
20130327,9144.9,9150,9110,9126,65189
20130328,9126,9155,9120,9155,28872
20130401,9155,9220,9120,9220,19345
20130402,9220,9230,9200,9227.6,41940
20130403,9227.6,9225,9150,9161.9,53263
20130404,9162,9240,9162,9239.3,49633
20130405,9239.3,9320,9200,9292.5,35700
20130408,9292.5,9335,9201,9300,11114
20130409,9300,9305,9260,9285,50526
20130410,9285,9300,9150,9299.5,53507
20130411,9299.5,9300,9289.9,9290,55974
20130412,9290,9300,9070,9295,32124
20130415,9295,9295,9160,9205.2,31464
20130416,9205.2,9206,9150,9160,70784
20130417,9160,9150,8959,8960,18091
20130418,8960,9000,8930,8935,54694
20130419,8935,9067,8950,8980,74933
20130422,8980,9070,9000,9050,74074
20130423,9050,9052,9050,9051,28270
20130424,9051,9100,9020,9099.9,21655
20130425,9099.9,9090,9028,9050,18396
20130426,9050,9073,9050,9054.6,83308
20130429,9054.6,9100,9055,9073,23807
20130430,9073,9150,9000,9028.4,80888
20130502,9028.4,9051,9001,9020.6,124397
20130503,9020.6,9100,9025,9100,153773
20130506,9100,9200,9102,9169.5,45710
20130507,9169.5,9400,9200,9399,73446
20130508,9399,9390,9302,9351.1,84785
20130509,9351.1,9388,9340,9359.9,68170
20130510,9359.9,9401,9299,9400.1,184131
20130513,9400.1,9262,9000,9050,33160
20130514,9050,9130,9100,9130,59934
20130515,9130,9130,9050,9088,100586
20130516,9088,9100,8954,9050.7,81272
20130517,9050.7,9021,8950,8995.3,104637
20130520,8995.3,9110,8950,9000,26358
20130522,9000,9150,9010,9114.3,300215
20130523,9114.3,9150,9099,9099.8,109180
20130524,9099.8,9100.1,9000,9097,180098
20130527,9097,9100,9060,9090,63219
20130528,9090,9120,9080,9100,88345
20130529,9100,9120,9040,9104.1,117303
20130530,9104.1,9120,9040,9045.1,42256
20130531,9045.1,9050,8899,9048.8,56544
20130603,9048.8,9020,8950,8950,62176
20130604,8950,9100,8960,9100,49815
20130605,9100,9099,9000,9070.2,104055
20130606,9070.2,9081,9050,9060,112752
20130607,9060,9080,9000,9050,165312
20130610,9050,9000,8900,8950,35756
20130611,8950,8900,8700,8819.8,74081
20130612,8819.8,8879,8599,8599.8,76250
20130613,8599.8,8745,8600,8741.5,181924
20130614,8741.5,8871,8725,8860.5,109357
20130617,8860.5,8860,8759,8811.3,42379
20130618,8811.3,8875,8794.8,8863.4,76678
20130619,8863.4,8875,8840,8844,35574
20130620,8844,8800,8395,8396.7,88964
20130621,8396.7,8700,8148,8499.8,658261
20130624,8499.8,8500,8000,8240,150535

