PAZ

Fecha,Open,High,Low,Close,Volume
20061018,0,334.4816,334.4816,334.4816,46369040
20061019,385.01,351.8394,340.5542,341.6749,13597540
20061020,393.29,352.2825,343.1605,350.545,3019610
20061023,403.5,350.545,344.1161,346.6356,236894
20061024,399,347.5043,345.7668,345.7668,427875
20061025,398,345.7668,345.7668,345.7668,83339
20061026,398,344.898,344.0293,344.1161,488558
20061027,396.1,345.7668,344.898,344.898,431854
20061030,397,344.898,343.1605,344.0293,2569377
20061031,396,343.1605,342.2917,343.1605,434595
20061102,395,344.0293,343.1605,343.1605,245396
20061103,395,344.0293,343.1605,344.0293,291704
20061106,396,347.5043,343.1605,345.7668,263921
20061107,398,345.7668,345.7668,345.7668,164678
20061108,398,345.8537,344.0293,344.0293,40456
20061109,396,351.8481,344.0293,351.8481,470622
20061110,405,347.5043,347.5043,347.5043,2878
20061113,400,347.5043,347.5043,347.5043,345
20061114,400,347.5043,344.0293,347.5043,1587843
20061115,400,347.5043,347.5043,347.5043,128329
20061116,400,351.8481,347.5043,351.8481,704837
20061117,405,351.8481,351.8481,351.8481,31405
20061120,405,351.8481,351.8481,351.8481,109158
20061121,405,351.8481,351.8481,351.8481,10935
20061122,405,351.8481,351.8481,351.8481,573
20061123,405,350.9794,347.5043,347.5043,58045
20061127,400,344.0293,344.0293,344.0293,486647
20061128,396,344.0293,343.1605,343.1605,98426
20061129,395,343.1605,343.1605,343.1605,9564
20061130,395,344.898,341.423,344.898,65498
20061204,397,343.1605,343.1605,343.1605,28777
20061205,395,347.5043,343.1605,347.5043,1099543
20061206,400,347.5043,347.4956,347.5043,73668
20061207,400,347.5043,346.6356,347.5043,5755
20061211,400,347.5043,347.5043,347.5043,147619
20061212,400,347.5043,343.1605,347.5043,70241
20061214,400,347.5043,344.898,344.898,1707741
20061215,397,347.5043,347.5043,347.5043,7756
20061218,400,347.513,345.7668,347.5043,180203
20061219,400,347.5043,347.4956,347.5043,104681
20061220,400,347.5912,347.5912,347.5912,15290
20061221,400.1,350.1106,350.1106,350.1106,122252
20061222,403,350.1106,350.1106,350.1106,20385
20061226,403,352.2825,352.2825,352.2825,8403
20061227,405.5,347.5043,347.5043,347.5043,76840
20061228,400,353.5856,347.5043,353.5856,35543
20061229,407,357.0607,356.1919,356.1919,48804
20070102,410,357.9294,356.1919,357.9294,11291
20070103,412,368.3546,356.1919,368.3546,9425
20070104,424,377.0422,369.2233,377.0422,621644
20070105,434,383.9923,377.0596,383.9923,430890
20070109,442,384.8697,383.1235,383.1235,394502
20070111,441,384.0791,383.1235,383.9923,186003
20070112,442,383.9923,383.9923,383.9923,21058
20070115,442,383.9923,383.9923,383.9923,20072
20070116,442,395.2862,386.5985,395.2862,700558
20070117,455,392.6799,392.6799,392.6799,3453
20070118,452,399.63,395.2862,399.63,83276
20070119,460,410.9239,403.9738,410.9239,24630
20070122,473,425.6928,423.9553,425.6928,6638
20070123,490,425.7797,425.6928,425.7015,240190
20070124,490.01,443.068,425.6928,443.068,50253
20070125,510,443.068,434.3804,434.3804,873451
20070126,500,434.3804,434.3804,434.3804,54328
20070129,500,438.7242,434.3804,438.7242,26575
20070130,505,443.068,438.7242,443.068,400939
20070131,510,447.4118,446.543,447.4118,9609
20070201,515,476.9497,447.4118,460.4432,18937
20070202,530,486.506,466.5245,486.506,764663
20070205,560,495.1936,486.506,495.1936,9245
20070206,570,508.2251,499.5288,499.5375,212663
20070207,575,503.8813,500.4062,503.8813,12405
20070208,580,505.6188,503.8813,503.8899,80989
20070209,580.01,517.7814,503.9681,516.9995,689260
20070212,595.1,521.2565,516.9127,521.2565,612463
20070213,600,556.0069,521.2565,556.0069,331293
20070214,640,577.7259,547.3193,547.3193,6000113
20070215,630,542.9842,538.623,538.6317,34183
20070216,620,529.9441,503.8813,503.9681,222956
20070219,580.1,504.75,495.1936,495.1936,125399
20070220,570,490.8498,482.0754,482.1622,411545
20070221,555,486.506,473.4746,486.506,81970
20070222,560,490.8498,486.4974,490.8498,521544
20070223,565,491.7186,490.8498,490.8498,77087
20070226,565,495.1936,490.8498,490.8498,689503
20070227,565,469.1308,469.1308,469.1308,124869
20070228,540,486.506,477.8184,482.1622,84566
20070301,555,482.1622,482.1622,482.1622,52507
20070302,555,482.1622,482.1622,482.1622,230405
20070305,555,482.1622,482.1622,482.1622,53824
20070306,555,490.8498,482.1622,490.8498,112438
20070307,565,490.8672,490.8672,490.8672,8814
20070308,565.02,504.75,495.1936,504.6892,159177
20070309,580.93,508.2251,503.8813,503.8813,122454
20070312,580,509.1807,503.8899,509.1807,22911
20070313,585.5,512.5689,508.6594,508.6594,25930
20070314,585.5,529.9441,503.8813,529.9441,396891
20070315,610,538.6317,529.9441,537.7629,252781
20070316,619,531.6816,529.9441,531.6816,75438
20070319,612,529.9528,529.9354,529.9441,162332
20070320,610,529.9441,529.9441,529.9441,9669
20070321,610,529.9441,521.2565,529.9441,497068
20070322,610,534.3834,531.6816,534.2879,721172
20070323,615,538.6317,538.6317,538.6317,7896
20070326,620,538.6317,538.6317,538.6317,24126
20070327,620,556.0069,542.9842,556.0069,91380
20070328,640,569.9071,560.3507,569.9071,83469
20070329,656,573.3821,569.9071,573.3821,1433971
20070330,660,573.3908,573.3821,573.3821,1203749
20070402,660,574.2509,573.3821,574.2509,22483
20070403,661,573.3821,573.3821,573.3821,39332
20070404,660,573.469,573.3821,573.3821,72961
20070405,660,577.7259,573.469,573.5559,14218
20070409,660.2,582.0697,582.0697,582.0697,13755
20070410,670,590.7573,586.4135,586.9522,1917637
20070411,675.62,590.7573,590.7486,590.7486,451987
20070412,680.01,590.766,590.7573,590.7573,55655
20070413,680,590.766,590.7573,590.766,12065
20070416,680.01,595.9699,590.7573,595.9699,291633
20070417,686,595.9699,595.9699,595.9699,12975
20070418,686,603.7974,601.1825,603.7974,470574
20070419,695.01,629.8516,608.1325,621.164,1885863
20070420,715,625.5078,616.8202,621.164,71950
20070423,715,625.5078,621.1553,625.5078,394511
20070424,720,625.5078,621.1553,621.164,516010
20070425,715,621.164,618.5577,618.5577,17288
20070426,712,616.8202,616.8202,616.8202,19155
20070427,710,616.8202,616.8202,616.8202,502759
20070430,710,625.5078,617.7063,621.164,355232
20070502,715,621.164,616.8115,616.8115,733277
20070503,709.99,616.8202,615.9514,616.8202,164798
20070504,710,616.8202,616.8202,616.8202,10921
20070507,710,616.8202,616.8202,616.8202,7998
20070508,710,608.1325,608.1239,608.1239,105694
20070509,699.99,612.4764,608.1325,612.4764,548340
20070510,705,609.8701,609.8701,609.8701,16690
20070511,702,609.8788,609.8701,609.8701,1215836
20070514,702,609.8701,609.8701,609.8701,7620
20070515,702,609.0013,608.1325,608.1325,198823
20070516,700,608.1325,607.2638,608.1325,654827
20070517,700,608.1325,603.7887,603.7887,231095
20070518,695,609.8701,608.1239,608.1239,54441
20070522,699.99,603.7887,603.7887,603.7887,86725
20070524,695,603.7887,597.7074,597.7074,142472
20070528,688,603.7887,597.7074,600.3137,306508
20070529,691,600.3137,597.7074,597.7074,276602
20070530,688,590.7573,590.7573,590.7573,41164
20070601,680,590.7573,590.7573,590.7573,11718
20070604,680,590.766,590.7573,590.7573,68513
20070605,680,590.7573,589.0198,589.0198,25064
20070606,678,588.1511,577.7259,577.7259,24287
20070607,665,576.8572,576.8572,576.8572,11511
20070608,664,573.3821,567.3008,567.3008,293324
20070611,653,562.0882,562.0882,562.0882,157497
20070612,647,562.0882,556.0069,560.3507,162452
20070613,645,562.0882,560.2638,560.2638,506091
20070614,644.9,577.7259,564.6945,564.6945,122173
20070615,650,577.7259,564.6945,564.9551,111034
20070618,650.3,564.6945,560.3507,560.3507,23169
20070620,645,560.3507,560.3507,560.3507,138093
20070621,645,542.9755,529.9441,529.9441,58129
20070622,610,542.9755,542.9755,542.9755,139178
20070625,625,542.9668,538.6317,538.6317,5718
20070626,620,542.9755,529.9441,534.3748,63093
20070627,615.1,534.3834,534.3748,534.3748,23560
20070629,615.1,538.6404,538.6317,538.6404,28091
20070703,620.01,551.6631,539.5004,551.6631,1899
20070704,635,551.6631,551.6631,551.6631,14498
20070705,635,551.6631,551.6631,551.6631,5188
20070706,635,569.9071,564.6945,569.9071,6818
20070709,656,599.4449,576.8572,599.4449,1226151
20070710,690,603.7887,599.4449,603.7887,643538
20070711,695,608.1325,608.1325,608.1325,92397
20070712,700,608.1412,608.1325,608.1325,99475
20070713,700,608.1325,608.1239,608.1325,18616
20070717,700,608.1325,608.1325,608.1325,166062
20070718,700,608.1325,602.92,603.7887,43491
20070719,695,608.1325,602.92,608.1325,59076
20070720,700,608.2194,608.1325,608.1325,38807
20070723,700,612.4764,608.1325,612.4764,8940
20070724,705,638.6261,616.8202,634.1954,1362090
20070725,730,651.5706,642.883,647.2268,1308310
20070726,745,642.883,642.883,642.883,585998
20070727,740,655.9144,651.5706,655.0456,53101
20070730,754,651.5706,648.9643,651.5706,103607
20070731,750,642.883,642.4486,642.4486,12399
20070801,739.5,642.883,642.4486,642.883,20457
20070802,740,642.883,638.5392,638.5392,12831
20070803,735,638.5392,638.5392,638.5392,7313
20070807,735,638.5392,633.3266,634.1954,435839
20070808,730,625.5078,621.164,625.5078,390400
20070809,720,621.164,612.4764,612.4764,391944
20070810,705,599.4449,599.4449,599.4449,11387
20070813,690,582.0697,582.0697,582.0697,917328
20070816,670,564.7032,560.342,560.3507,409610
20070817,645,560.3507,560.3507,560.3507,2018
20070821,645,560.3507,560.3507,560.3507,180494
20070822,645,590.7573,590.7573,590.7573,1266
20070823,680,590.7573,586.4135,586.4135,48345
20070824,675,573.3821,569.0383,569.0383,14469
20070827,655,562.9657,562.957,562.957,3787
20070828,648,556.0069,547.3193,547.3193,33505
20070829,630,547.4062,547.3193,547.328,220402
20070830,630.01,548.1881,548.1881,548.1881,1975
20070831,631,547.3193,547.3193,547.3193,237162
20070903,630,547.3193,545.5905,547.2498,11511
20070904,629.92,538.6317,538.6317,538.6317,115106
20070905,620,556.8757,547.3193,556.0069,1081809
20070906,640,571.6446,564.6945,564.6945,10803
20070907,650,556.0069,556.0069,556.0069,35084
20070911,640,564.6945,564.6945,564.6945,38747
20070912,650,564.6945,564.6945,564.6945,141277
20070920,650,564.6858,564.6858,564.6858,2532
20070921,649.99,564.6945,564.6945,564.6945,6151
20070924,650,565.5633,564.6945,564.6945,59919
20070925,650,564.6945,564.6945,564.6945,176740
20070926,650,564.6945,556.0069,556.0069,47056
20070927,640,577.7259,564.6945,577.7259,2670
20070928,665,608.1325,590.4967,608.1325,80091
20071001,700,612.4764,612.4677,612.4677,10334
20071002,704.99,608.2194,608.1325,608.2194,161902
20071003,700.1,608.1325,608.1325,608.1325,4666
20071004,700,608.1325,608.1325,608.1325,5755
20071005,700,608.1325,608.1325,608.1325,3292
20071008,700,608.1325,608.1325,608.1325,460
20071009,700,608.1325,595.1011,608.1325,15029
20071011,700,616.8202,564.6945,600.7655,25800220
20071012,691.52,634.1954,599.4449,634.1954,2107036
20071016,730,660.2582,621.164,660.2582,2305832
20071017,750,651.5706,642.883,642.883,3284953
20071018,740,651.5706,642.883,648.9643,1300013
20071019,747,664.602,648.9643,658.4251,456004
20071022,757.89,660.2582,638.5392,638.8432,616092
20071023,735.35,651.8312,634.1954,634.1954,2573765
20071024,730,634.1954,629.8516,629.8516,88862
20071025,725,634.1954,634.1954,634.1954,15686
20071026,730,629.8516,625.5078,625.5078,743169
20071029,720,625.5078,612.4764,612.4764,547372
20071030,705,616.8202,612.4764,616.8202,1711553
20071031,710,634.1954,616.7333,634.1954,240805
20071102,730,634.1954,634.1085,634.1954,1739862
20071105,730,616.8202,616.8202,616.8202,5784
20071106,710,608.1325,608.1325,608.1325,7274
20071107,700,609.0013,608.1325,608.1325,774851
20071108,700,608.0457,599.4449,599.4449,25281
20071109,690,595.1011,573.3821,595.1011,387780
20071112,685,608.1325,582.0697,582.0697,224028
20071113,670,573.3821,564.6945,564.6945,1813084
20071114,650,590.7573,581.9828,590.7573,254229
20071115,680,594.2324,590.7573,590.7573,602694
20071119,680,590.7573,573.3821,573.3821,21870
20071120,660,569.0383,564.6945,564.6945,31287
20071121,650,564.6945,564.6945,564.6945,63309
20071122,650,564.6945,564.6945,564.6945,15827
20071123,650,573.3821,569.0383,573.3821,264560
20071126,660,582.0697,573.3821,573.3821,6241
20071127,660,573.3821,573.3821,573.3821,98
20071128,660,573.3821,573.3821,573.3821,172660
20071129,660,573.3821,573.3821,573.3821,1744
20071130,660,586.4135,551.6631,573.3821,430273
20071203,660,573.3821,573.3821,573.3821,1381
20071204,660,569.0383,569.0383,569.0383,11511
20071206,655,564.6945,556.0069,564.6945,707905
20071207,650,577.7259,563.8171,563.8171,138128
20071210,648.99,564.1646,534.9047,534.9047,30136
20071211,615.71,547.3193,547.3193,547.3193,46536
20071212,630,547.3106,529.9441,538.6317,50872
20071213,620,529.9441,525.6003,529.0753,236245
20071214,609,529.0753,529.0753,529.0753,2113
20071218,609,524.7315,524.7315,524.7315,762289
20071219,604,516.9127,499.5375,516.9127,19310
20071220,595,510.8313,510.8313,510.8313,771
20071221,588,521.2565,510.7879,510.7879,12806
20071224,587.95,538.6317,538.6317,510.7879,115780
20071227,587.95,496.9312,496.0624,496.0624,2580
20071228,571,521.2565,490.8498,503.8813,317529
20080102,580,498.66,498.66,498.66,41434
20080103,573.99,477.7316,469.1308,469.1308,42376
20080107,540,447.4118,434.2935,437.5079,55745
20080108,503.6,434.3804,434.3804,434.3804,193379
20080110,500,433.5116,433.5116,433.5116,2719
20080111,499,408.3176,408.3176,433.5116,278555
20080114,499,413.5301,401.3675,412.6614,82863
20080115,475,408.3176,395.2862,395.2948,504979
20080116,455.01,408.3176,408.3176,408.3176,3204490
20080117,470,395.2862,382.2547,382.2547,15484
20080118,440,382.2547,382.2461,382.2547,1423164
20080121,440,382.2547,382.2547,382.2547,535722
20080122,440,382.2547,373.5671,374.8182,967845
20080123,431.44,360.5357,359.667,359.667,532367
20080124,414,377.9109,360.5357,373.5671,1395340
20080125,430,373.5671,360.5357,360.5357,287104
20080128,415,357.0607,356.1919,356.1919,84028
20080129,410,356.1919,356.1919,356.1919,825121
20080130,410,364.8795,356.1919,364.8795,343767
20080131,420,390.9424,373.5671,390.9424,126715
20080201,450,390.9424,390.9424,390.9424,39365
20080204,450,390.9424,390.9424,390.9424,898
20080205,450,394.8518,390.9424,394.8518,3840307
20080206,454.5,394.8518,394.8518,394.8518,53907
20080207,454.5,395.2862,395.1993,395.2862,116557
20080208,455,395.2862,395.2862,395.2862,10418
20080213,455,397.8924,395.2862,397.8924,116093
20080214,458,397.8924,397.8924,397.8924,1726204
20080218,458,399.63,397.8924,399.63,46043
20080219,460,390.9424,390.9424,390.9424,14964
20080220,450,390.9424,390.9424,390.9424,5180
20080222,450,390.9424,390.9424,390.9424,307819
20080225,450,404.8425,404.8425,404.8425,2302
20080226,466,408.3176,408.3176,408.3176,15356
20080227,470,408.3176,408.3176,408.3176,35798
20080229,470,408.3176,408.3176,408.3176,4029
20080307,470,390.0736,389.2048,389.2048,8057
20080312,448,389.2048,389.2048,389.2048,2569340
20080317,448,371.8296,371.8296,371.8296,11511
20080319,428,373.5671,364.8795,364.8795,43165
20080320,420,360.5357,360.5357,360.5357,120862
20080324,415,360.5357,360.5357,360.5357,22907
20080327,415,356.1919,338.8167,356.1919,48920
20080328,410,357.9294,356.1919,356.1919,30484
20080401,410,355.3145,355.3145,355.3145,25669
20080402,408.99,355.3145,355.3145,355.3145,3687
20080403,408.99,356.1919,354.4544,356.1919,57553
20080409,410,347.5043,347.5043,347.5043,21314
20080414,400,351.8481,351.7612,351.8481,322609
20080415,405,356.1919,351.8481,351.8481,593974
20080416,405,360.5357,351.8481,360.5357,311547
20080417,415,364.8795,360.5357,364.8795,76454
20080418,420,390.9424,373.5671,390.9424,399784
20080421,450,391.8111,390.9424,390.9424,384116
20080422,450,390.9424,385.7298,385.7298,25727
20080423,444,399.63,395.2862,399.63,100061
20080424,460,399.63,399.63,399.63,41673
20080425,460,399.63,399.63,399.63,40359
20080428,460,395.2862,394.4174,395.2862,32956
20080430,455,395.2862,395.2862,395.2862,25300
20080506,455,395.2862,395.2862,395.2862,297
20080507,455,387.4673,387.4673,387.4673,3239
20080509,446,381.386,381.386,381.386,39778
20080513,439,377.9109,373.5671,373.5671,56916
20080515,430,373.5671,372.6984,372.6984,252848
20080516,429,372.6463,371.7427,371.7427,330029
20080519,427.9,364.8795,364.0021,364.0021,16575
20080522,418.99,356.1919,356.1832,356.1832,13816
20080523,409.99,357.0607,356.1919,356.1919,286362
20080526,410,356.6263,356.6263,356.1919,98238
20080527,410,351.8481,351.8481,351.8481,11511
20080529,405,351.8481,351.8481,351.8481,85
20080602,405,351.8481,351.8481,351.8481,2302
20080603,405,349.9368,349.9368,349.9368,13454
20080604,402.8,347.5043,343.1605,343.1605,330714
20080605,395,334.4729,334.4729,334.4729,4383
20080606,385,330.0422,312.7539,312.7539,635577
20080609,360,312.7539,312.7539,312.7539,5144
20080611,360,303.9794,295.3787,295.3787,101892
20080612,340,294.5099,286.6911,286.6911,97979
20080613,330,286.6911,282.3386,282.3473,258560
20080617,325,278.0035,278.0035,278.0035,1979
20080618,320,278.0035,278.0035,278.0035,35619
20080619,320,270.1846,268.0127,268.0127,98034
20080623,308.5,268.0127,268.0127,268.0127,1214
20080624,308.5,269.3158,264.972,264.972,57998
20080625,305,264.972,260.6282,264.972,74626
20080626,305,273.6596,273.651,273.651,13312
20080627,314.99,273.651,273.651,273.651,1151
20080630,314.99,260.7151,260.6195,260.6282,205869
20080701,300,264.972,264.972,264.972,1727
20080702,305,264.972,264.972,264.972,95653
20080703,305,264.972,264.972,264.972,57553
20080704,305,264.972,260.6282,264.972,201335
20080707,305,264.972,264.972,264.972,3221
20080708,305,264.972,260.6282,264.9634,59533
20080709,305,264.972,260.6282,260.6282,39889
20080710,300,264.972,260.6282,260.6369,67922
20080711,300.01,260.6282,260.6282,260.6282,35110
20080714,300,260.6282,260.6282,260.6282,6906
20080715,300,260.6282,260.6282,260.6282,22439
20080717,300,260.6282,260.6282,260.6282,582
20080718,300,260.6282,260.6282,260.6282,72110
20080721,300,251.9406,251.9406,251.9406,230213
20080723,290,245.8593,243.253,243.2617,1040156
20080724,280.01,252.8094,243.253,247.5099,349101
20080725,284.9,254.5469,254.5469,254.5469,2317
20080728,293,261.497,260.6282,260.6282,11493
20080730,300,260.6282,260.6282,260.6282,15855
20080731,300,256.2844,256.2844,256.2844,31559
20080807,295,256.2844,251.9406,256.2844,18993
20080808,295,256.2844,256.2844,256.2844,1174
20080812,295,247.5968,240.6467,247.5968,5175
20080813,285,247.5968,243.253,243.253,40489
20080814,280,243.253,243.253,243.253,13761
20080819,280,241.5155,241.5155,241.5155,2647
20080820,278,234.5654,233.688,233.688,116979
20080822,268.99,234.5654,234.5567,234.5567,34532
20080827,269.99,234.5654,234.5654,234.5654,217551
20080828,270,225.8778,225.7909,225.8691,216991
20080901,259.99,223.2715,217.1902,217.1902,20954
20080902,250,223.2715,223.2715,223.2715,3453
20080903,257,225.8778,225.8778,225.8778,10803
20080912,260,221.534,216.3214,219.7878,38809
20080915,252.99,212.8464,212.8464,212.8464,104056
20080916,245,212.8464,212.8464,212.8464,1727
20080924,245,212.8464,212.8464,212.8464,8300
20080925,245,208.5026,208.5026,208.5026,24748
20080926,240,198.9462,198.8593,198.8593,51395
20080929,228.9,173.7522,173.7522,173.7522,44316
20080930,200,172.0146,164.1958,164.1958,7607
20081001,189,156.3769,156.3683,156.3683,41694
20081002,179.99,156.3769,121.6265,125.9703,383785
20081003,149.5,156.3769,130.3141,147.6893,2049183
20081006,170,147.6893,143.3455,143.3455,36539
20081007,165,143.3455,138.993,138.993,86408
20081008,159.99,128.5766,121.6265,125.9703,320252
20081009,145,130.3141,125.9703,125.9703,87603
20081010,145,120.7577,120.7577,120.7577,58388
20081013,139,130.3141,121.6265,121.6265,141038
20081014,140,121.6265,120.7577,121.6265,154047
20081016,140,121.6265,121.6265,121.6265,372
20081017,140,121.6265,121.6265,121.6265,3429
20081020,140,121.6352,117.2827,121.6265,690322
20081021,140,121.6265,121.6265,121.6265,162132
20081022,140,121.6265,118.1515,118.1515,337359
20081024,136,121.6265,118.1515,118.1515,69257
20081028,136,121.6265,119.8369,119.8369,339564
20081029,137.94,121.6265,117.2827,117.2827,207417
20081030,135,117.2827,117.2827,117.2827,1842
20081103,135,121.6265,121.6265,121.6265,320596
20081104,140,134.6579,119.0202,119.5415,2331325
20081105,137.6,134.6579,121.6265,121.6265,224718
20081107,140,121.6265,121.6265,121.6265,1842
20081110,140,121.6265,121.6265,121.6265,109547
20081111,140,121.6265,117.2827,117.2827,234579
20081112,135,117.3001,117.2827,117.2827,154243
20081113,135,117.2827,117.2827,117.2827,7102
20081114,135,121.6265,117.1958,121.6265,161149
20081117,140,121.5396,121.5396,121.5396,17639
20081118,139.9,121.5396,121.5396,121.5396,1151
20081120,139.9,121.5396,121.5396,121.5396,3240
20081124,139.9,122.9297,122.9297,122.9297,39251
20081125,141.5,122.9297,121.6265,121.6265,180242
20081127,140,121.6265,121.6265,121.6265,741
20081128,140,117.2827,117.2827,117.2827,14798
20081201,135,121.6265,116.3271,121.6265,1822575
20081202,140,121.6265,121.6265,121.6265,100359
20081203,140,119.889,119.0202,119.0202,231364
20081204,137,119.889,119.889,119.889,19338
20081205,138,121.6265,119.0202,119.0202,137759
20081210,137,119.0202,112.852,112.8781,106727
20081211,129.93,112.9389,112.9389,112.9389,331507
20081212,130,115.5452,112.9389,115.5452,184012
20081215,133,115.5452,115.5452,115.5452,1730
20081219,0,115.5452,115.5452,115.5452,28777
20081222,133,115.5452,112.852,112.9389,625536
20081223,130,112.9389,112.9389,112.9389,23021
20081224,130,112.9389,112.9389,112.9389,139
20081230,130,104.2513,103.3738,104.2513,484550
20090102,120,102.5138,102.5138,102.5138,123608
20090105,118,99.9075,99.9075,99.9075,11511
20090106,115,102.5138,102.4964,102.4964,116744
20090107,117.98,101.645,97.7356,101.645,393968
20090108,117,99.9075,98.17,99.9075,118039
20090109,115,101.645,101.645,101.645,21985
20090112,117,101.645,99.9075,101.645,68178
20090113,117,113.8077,101.6363,112.9389,1858200
20090114,130,119.0724,112.0701,112.9389,1324779
20090115,130,121.6265,116.4139,121.6265,1302923
20090116,140,125.9703,121.6265,121.6265,387387
20090119,140,121.1921,120.7577,121.1921,94385
20090120,140,121.6265,118.1515,118.1515,100077
20090121,136,117.2827,112.9389,112.9389,25323
20090122,130,115.9796,112.9389,115.9796,73795
20090123,133.5,115.9796,112.9389,115.9796,54900
20090126,133.5,112.9389,112.9389,112.9389,4150
20090127,130,112.9389,112.5045,112.9389,127899
20090128,130,114.6764,114.6764,114.6764,5814
20090129,132,112.9389,112.0701,112.9389,151770
20090202,130,112.9389,112.9389,112.9389,3453
20090204,130,112.9302,108.5951,112.9302,13157
20090206,129.99,109.5507,107.7263,107.7263,368206
20090209,124,108.5951,108.4213,108.4213,74819
20090210,124.8,108.5951,108.5951,108.5951,4945
20090211,125,108.5951,108.5864,108.5864,40829
20090213,124,112.0701,104.2513,108.5951,7544378
20090216,125,112.0701,108.682,112.0701,61881
20090217,129,111.2014,107.7263,107.7263,94567
20090218,124,107.7263,107.7263,107.7263,29692
20090219,124,108.5951,105.9888,105.9888,105364
20090220,122,112.5045,105.9888,112.5045,300118
20090223,129.5,112.5045,112.5045,112.5045,584
20090224,129.5,108.5951,108.5951,108.5951,398995
20090225,125,109.4639,106.8576,109.4639,1084600
20090226,126,112.9389,110.3326,110.3326,63520
20090227,127,104.3382,104.2513,104.2513,21129
20090302,120,104.2513,104.2513,104.2513,28895
20090303,120,104.2513,104.2426,104.2513,263258
20090304,120,104.2513,104.2513,104.2513,47745
20090305,120,104.2513,104.2513,104.2513,4809
20090309,120,108.5951,107.7263,107.7263,12662
20090310,124,108.5951,103.3825,108.5951,33521
20090312,125,103.3825,103.3825,103.3825,138128
20090313,119,100.3419,99.9075,100.3419,112616
20090318,115.5,99.9162,99.9075,99.9075,54215
20090319,115,99.9075,95.5637,97.4663,254709
20090320,112.19,99.9075,99.9075,99.9075,118910
20090323,115,102.0794,99.9075,99.9075,18035
20090324,115,99.9075,99.9075,99.9075,62438
20090325,114,99.0387,99.0387,99.0387,19781
20090326,120,102.5138,102.4269,102.4269,29047
20090327,117.9,101.645,99.9075,99.9075,131917
20090330,115,99.9075,92.9574,94.6949,5804120
20090331,109,95.5637,95.5637,95.5637,7687
20090402,110,99.9075,95.5637,99.9075,157280
20090403,115,99.9075,97.3012,97.3012,67779
20090406,112,100.7763,99.8988,99.9075,822534
20090407,115,100.7763,99.9075,100.7763,471964
20090408,116,106.8576,102.5138,106.8576,481728
20090409,123,119.0202,108.5951,117.2827,3181679
20090413,135,121.6265,117.2827,120.2365,2361704
20090414,138.4,127.7947,119.889,126.8391,1655044
20090415,146,137.2642,130.3141,134.9707,2017809
20090416,155.36,143.3455,137.2642,142.4768,2681715
20090417,168,147.6893,138.9148,139.0017,739827
20090420,160,134.6579,128.5766,128.5766,35695
20090421,148,132.9204,129.4454,132.9204,310149
20090422,153,139.0017,134.6579,136.3954,363190
20090423,157,139.0017,135.5267,135.5267,206559
20090424,156,139.0017,135.5267,138.9148,1691157
20090427,159.9,138.133,133.7892,136.3954,391138
20090428,157,142.4768,136.3954,139.0017,722117
20090429,160,147.6893,142.4768,147.6893,2227811
20090430,170,155.5082,150.2869,150.2956,1120967
20090504,173,156.3769,151.1644,156.2727,2106321
20090505,190,165.0645,159.852,160.8424,935882
20090506,190,164.1958,161.5895,161.5895,1277276
20090507,186,167.6708,164.1958,165.0559,749441
20090508,189.99,172.0146,163.327,167.6708,1261925
20090511,193,169.4084,163.1533,165.0732,414533
20090512,190.01,165.0645,162.4583,163.7006,979872
20090513,188.43,163.327,157.2457,158.9832,916688
20090514,183,166.8021,158.9832,165.9333,1477410
20090515,191,167.6708,165.0645,165.9333,974730
20090518,191,172.0146,167.6708,167.6708,1572025
20090519,193.01,178.096,167.6795,176.3584,2023414
20090520,203,191.1274,178.9647,185.8714,2580972
20090522,215,187.6523,182.4398,186.3492,5300549
20090525,214.5,197.0349,186.7836,196.8873,3269760
20090526,226.63,231.0904,200.6837,230.3606,3703788
20090527,265.16,252.8094,217.1902,218.363,3396192
20090528,253,231.9504,219.7965,228.6926,2593173
20090529,263.24,234.5654,218.9277,222.8545,1353778
20090601,256.52,235.4342,225.8778,235.4342,1085924
20090602,271,239.778,228.4841,234.6175,620891
20090603,270.06,235.4342,228.4841,231.9591,1046036
20090604,267,241.5155,231.9591,240.6467,609755
20090605,277,246.7281,240.6467,244.9905,710324
20090608,282,248.4656,238.9092,248.3787,264804
20090609,285.9,250.2031,241.5155,244.9905,510288
20090610,282,250.2031,243.253,244.5475,668624
20090611,281.49,245.8593,240.6467,244.9297,505942
20090612,282,246.2937,234.5654,237.2846,671170
20090615,273.13,246.2937,225.8778,232.7845,737846
20090616,267.95,243.2443,225.7909,229.8915,550547
20090617,264.62,229.3528,217.1902,220.6652,1699530
20090618,254,220.2309,212.8464,217.9895,1185810
20090619,250.92,225.8778,221.534,224.0013,909375
20090622,264.5,230.2216,212.9333,215.5917,1113491
20090623,248.16,216.7558,204.1588,208.4157,195292
20090624,239.9,212.8464,211.5433,211.9776,410497
20090625,245,212.8464,208.5026,210.7092,72842
20090626,242.54,219.7965,208.5026,214.5144,233458
20090630,246.92,221.534,215.8871,215.8871,296680
20090701,248.5,225.8778,215.8871,217.1902,515600
20090702,250,222.4028,217.1902,222.4028,164097
20090703,256,221.534,217.6333,221.534,55402
20090706,255,225.8778,217.1902,222.6808,432347
20090707,261.5,227.1809,221.534,225.8778,277679
20090708,259,224.1403,208.5895,217.1902,164335
20090709,250,221.534,216.3214,216.3214,96068
20090710,249,216.3214,212.8464,212.8551,197374
20090713,245.01,217.1902,212.8464,217.1902,463217
20090714,250,217.1902,212.8464,217.1815,733293
20090715,249.99,217.1902,213.7152,213.7152,72163
20090717,246,217.1902,213.7152,216.7558,176671
20090720,249.5,216.3214,213.7152,215.4527,114644
20090721,248,217.1902,215.0183,217.1641,889310
20090722,249.97,217.1902,212.8551,215.4527,1972240
20090723,249.9,217.1033,215.0183,216.3214,61174
20090724,249,217.1815,215.4527,217.1815,227378
20090727,249.99,213.8889,210.2401,210.5876,4030219
20090728,242.4,213.2808,211.1089,212.8464,543912
20090729,245,211.5433,211.5433,211.5433,27577
20090730,243.5,213.802,208.5026,212.3164,289698
20090731,244.39,212.8377,209.3713,211.5867,66892
20090803,243.55,217.1033,209.3713,213.5414,166214
20090804,245.8,221.534,212.9333,219.5358,1983116
20090805,252.7,219.7009,217.2771,219.7009,67602
20090806,252.89,218.059,217.1902,217.1902,144574
20090807,250,217.1989,217.0164,217.1468,322715
20090810,249.95,215.0183,212.8464,212.8464,64830
20090811,245,214.5839,210.2401,211.9776,364046
20090812,244,217.2771,211.9776,215.4527,776989
20090813,248,217.1989,217.1902,217.1902,522867
20090814,250,217.1902,214.5839,216.7471,34484
20090817,249.49,217.0164,214.1495,217.0164,28810
20090818,249.8,213.7152,213.7152,213.7152,348980
20090819,248,215.4527,211.9776,212.8377,121526
20090820,244.99,214.4102,212.8464,214.4102,16929
20090821,246.8,212.8464,211.9776,211.9776,1004849
20090824,244,212.8464,210.2401,211.7952,443479
20090825,245,212.8464,211.1089,211.856,177293
20090826,243.86,213.2808,210.2401,212.8811,673863
20090827,245.04,213.2808,211.9776,211.9776,281184
20090828,244,215.4527,211.9776,215.4527,675852
20090831,248,212.8464,210.4139,210.4139,2060351
20090901,242.2,212.8464,209.8057,210.2401,304921
20090902,242,210.6745,210.2401,210.6745,46043
20090903,242.5,210.6745,209.38,210.6745,1420855
20090904,242.5,215.4527,212.8464,215.4353,883996
20090907,247.98,218.9277,215.4527,218.059,603635
20090908,251,219.7965,217.1902,218.059,380109
20090909,251,220.5784,217.1902,219.7965,860447
20090910,253,233.6967,220.2309,232.8105,1962211
20090911,267.98,242.3843,230.2216,234.5393,1203734
20090914,270,241.9499,233.6967,239.6911,2169955
20090915,276.25,247.5881,239.9952,245.8854,1937023
20090916,283.03,260.6282,247.5968,258.8038,2291721
20090917,299.99,260.6282,254.5469,255.4157,531302
20090921,294,254.5469,250.2031,252.375,377242
20090922,290.5,253.6781,248.4656,248.8218,380711
20090923,286.41,251.1587,247.6055,251.0719,662853
20090924,289,251.9406,249.3343,251.0719,448464
20090925,289,269.3158,250.2031,269.2377,1578344
20090928,309.91,293.6411,280.6097,289.9315,2889283
20090929,340,304.0663,292.338,302.3288,1911453
20090930,349,307.5413,292.7724,294.1711,1884503
20091001,337,292.7724,282.3473,284.9535,507161
20091002,325,292.7724,279.741,291.9036,1480386
20091005,336,297.1162,291.0349,294.5099,610593
20091006,339,297.1162,290.1661,291.8776,473162
20091007,335.97,291.0349,281.4785,285.97,519062
20091008,330,291.1217,285.8223,285.8223,641953
20091009,329,287.5598,282.3473,282.3733,604378
20091013,325,293.6411,282.3473,290.4615,922718
20091014,342,297.1162,291.9036,291.9036,405719
20091015,336,293.6411,291.0349,291.0349,591257
20091016,335,295.3787,293.5543,293.6411,56790
20091019,340,295.3787,292.7724,292.7724,63739
20091020,337,292.7724,284.9535,285.9265,176533
20091021,329.12,297.1162,286.6911,294.5186,1062393
20091022,339.01,301.46,295.3613,301.4513,973490
20091023,346.99,311.0164,304.0576,308.3927,805764
20091026,354.98,311.8851,296.2474,298.1413,375159
20091027,343.18,296.2474,289.2973,289.7925,337066
20091028,333.57,291.0349,278.0035,287.7944,536645
20091029,331.27,295.3787,289.2973,295.3787,260449
20091030,340,295.3787,290.948,291.0349,538262
20091102,325.1,299.7225,282.4341,289.306,1568284
20091103,335,291.0349,269.3158,286.6911,740306
20091104,330,294.5099,282.3473,292.06,2101351
20091105,292.06,305,280,280.12,609539
20091106,280.12,280,276,279,202388
20091109,279,285,279,280,169878
20091110,280,280,265,267.1,354934
20091111,267.1,270,250,260.94,851169
20091112,260.94,260,250.02,259,120614
20091113,259,265,262,264.93,1003035
20091116,264.93,270,265,267,781072
20091117,267,267,260,265,258054
20091118,265,265,259.8,260,238443
20091119,260,265,260,264.67,263948
20091120,264.67,269.9,260,265,214766
20091123,265,266.5,262,265,151035
20091124,265,260,256,260,233310
20091125,260,265,260,260,50400
20091126,260,260,250,250,108862
20091127,250,260,250,253,249208
20091130,253,251,250,250,65900
20091201,250,251,240,240,274297
20091202,240,245,240,240,649315
20091203,240,240.2,240,240,863170
20091204,240,260,240,259,2052224
20091207,259,270,260,262.03,1876132
20091209,262.03,267,262,263,401382
20091210,263,265,260,260.15,926634
20091211,260.15,262,255,256.56,977573
20091214,256.56,261,257,258,1050793
20091215,258,259.99,254,254,809934
20091216,254,260,254,254,698293
20091217,254,255,253,255,380891
20091218,255,256,253.99,254,113124
20091221,254,254,250,250,1185357
20091222,250,255,244.9,245.15,424494
20091223,245,249,245,249,433986
20091224,249,249,240.1,248.99,409878
20091228,248.99,260,247,256.99,1058455
20091229,256.99,267,260,266.9,1523345
20091230,266.9,267,263,264.92,305770
20100104,264.92,265,260,260,271861
20100105,260,261,255,259,179411
20100106,259,259.1,256,258,222874
20100107,258,258,255,257,253689
20100108,257,271.99,260,269.75,2141410
20100111,280,285,270,273,1782928
20100112,274,280.01,268,276.9,785967
20100113,276.9,280,277,277.69,332764
20100114,277.69,290,276,288.87,1514411
20100115,288.87,292,283,289,1748730
20100118,289,295,288.99,293.34,1656798
20100119,294,298,289,291.6,1756702
20100120,291.6,295,285,290.08,241187
20100121,290.08,291,281,281.5,553825
20100122,281.5,283,275,282.1,582164
20100125,282.1,292,285,289.99,847868
20100126,289.99,290,285,288,740418
20100127,288,289,284,287.54,530302
20100128,287.54,290,286,289.95,8213560
20100129,289.95,295,289,289,600747
20100201,289,290,286,286,309719
20100202,286,290,286,290,372225
20100203,290,288,283.9,287.99,499155
20100204,287.99,285,276,276,574688
20100205,276,280,270,275,963420
20100208,275,276.01,275,275,130098
20100209,275,284,275.01,283,165152
20100210,283,284.5,280,283,465504
20100211,283,290,280,290,419900
20100212,290,285,284,284,52069
20100215,284,287,281,287,142772
20100216,287,289.6,281,286.66,320051
20100217,286.66,297,286,290.25,1214442
20100218,290.25,293,287.1,292,744442
20100219,292,295,285.1,285.16,471773
20100222,285.16,286.5,284.99,285,947250
20100223,285,285.01,285,285,91359
20100224,285,285,283,283,39238
20100225,283,280,278,280,80393
20100226,280,290,280,290,75568
20100301,275,275,240,262.61,5279882
20100302,262.61,269,254,258.52,2845883
20100303,250,246.1,200,211,9492860
20100304,218,238,208.1,234.77,8688281
20100305,235.5,244,234,241.93,2372667
20100308,241.93,250,234,235,1429307
20100309,235,235,222,234,528425
20100310,234,233,225.11,225.83,1700407
20100311,225.83,231,222,230,1452937
20100312,230,235,230,233,318448
20100315,233,233,227,227,93911
20100316,227,231,225.01,228,596442
20100317,228,229,223,226,2029017
20100318,226,226,224,224,41001
20100319,224,227,221,225,419946
20100322,229.45,229.45,220,225,2048353
20100323,225,232,228,230,1380915
20100324,230,235,230,234.42,1891169
20100325,235,244,235,240,2523486
20100326,240,240,232.5,234.32,723874
20100329,234.32,235,230,235,370449
20100330,235,239.99,235,235,134227
20100331,235,230,227,230,346380
20100401,230,230,229.89,229.89,586339
20100405,229.89,239,230,238,1174015
20100406,238,245,237,244,1573439
20100407,244,240,240,240,148900
20100408,240,239.99,238,239.48,1547367
20100409,239.48,242,238,239,521427
20100413,239,240,237.99,238,622746
20100414,238,235,230,231.34,736898
20100415,231.34,232,231,232,476360
20100416,232,230,230,230,116230
20100419,230,230,228,230,235177
20100420,230,237.5,230,234.46,150347
20100421,234.46,235,234.6,234.9,83665
20100422,234.9,231,230,230,1180607
20100423,230,235,225,235,220996
20100426,235,235,230,230,181752
20100427,230,230.01,230,230,1175018
20100428,230,230,230,230,56741
20100429,230,227.5,227.5,227.5,60102
20100430,227.5,227.5,225,225,1537825
20100503,225,233,227,233,117129
20100504,233,231,227,227,172295
20100505,227,230,227,229,74784
20100506,229,230,227,227,313991
20100507,227,227,225,226.56,961255
20100510,226.56,238,227,233.68,1803455
20100511,233.68,235,230,235,5392260
20100512,235,239.8,232,232,451906
20100513,232,233,230,233,308414
20100514,233,232.9,228,228.5,182179
20100517,228.5,228.5,226,226,95867
20100518,226,230,228,228.9,68582
20100519,228.9,229,228,229,154690
20100520,229,228,226,228,782708
20100524,228,228,227,227,175261
20100525,227,225,225,225,127293
20100526,225,226.01,225.01,226,153109
20100527,226,229.95,226,229.86,228259
20100528,229.86,229.95,227,227,71461
20100531,227,228,224.5,224.5,126845
20100601,224.5,226.5,223,224,68988
20100602,224,224.01,224,224.01,73268
20100603,224.01,226,224,225.01,5334605
20100604,225.01,226,224.99,225.69,573380
20100607,225.69,228.95,226,228,733911
20100608,228,233,230,233,267899
20100609,233,237,233,233,1129330
20100610,233,235,232,233,690972
20100611,233,233,231,231,87001
20100614,231,234,233,233,622386
20100615,233,235,233,235,758057
20100616,235,237,235,237,429600
20100617,237,237.9,235,237,516304
20100618,237,245,237.2,242,956729
20100621,242,246,242,245,1688272
20100622,245,245,242,242,251070
20100623,242,242,242,242,417555
20100624,242,244,241.99,244,1262882
20100625,244,249,244,249,814777
20100629,249,245,240,242,131146
20100630,242,250,242,242,1207448
20100701,242,241,238,238,941911
20100702,238,245,238,240,870814
20100705,240,246,240,242,417315
20100706,242,245,242,245,2232980
20100707,245,248,244.99,248,5569608
20100708,248,264,249,263.7,5003003
20100709,263.7,275,265.5,266.3,3223462
20100712,266.3,268,263.01,263.74,529568
20100713,263.74,275,266,274.88,4259567
20100714,275.01,278.5,273.5,274,2739018
20100715,274,274,270,273,1227891
20100719,273,278,270.51,274,232968
20100720,274,272,270.1,271,892945
20100721,271,275,270,273.9,2709120
20100722,273.9,282,274.5,280,3741623
20100723,280,294,280,293.01,2595950
20100726,293.01,300,290.5,294.97,2344741
20100727,294.97,310,296,296,1012397
20100728,296,296,290,294,706574
20100729,294,300,290,290.01,861844
20100730,290,294.9,289.9,294.4,4994644
20100802,294.4,299.99,293.5,295,1543516
20100803,297,298,295,297,1821574
20100804,297,319.5,297,318.88,6890237
20100805,318.88,330,320,328.6,6706016
20100806,328.6,334,321,324.96,3240767
20100809,324.96,326.5,313,316,2161745
20100810,316,320,312,319,1504922
20100811,319,320,310,314.87,1033113
20100812,314.87,320,310,316,1559894
20100813,316,320,316,318.27,1360161
20100816,320,320,314,315,735358
20100817,315,325,313.6,316,578617
20100818,316,324,318,323,1547005
20100819,323,340,323,339,4994087
20100820,339,348,334,344.99,1970736
20100823,344.99,360,344.99,347.2,770713
20100824,347.2,349,342,343.91,940765
20100825,343.91,343,331.1,334.94,922415
20100826,334.94,338,332,333,1099862
20100827,333,333,329,330,3145947
20100830,331.01,335,330.01,331,914737
20100831,332,338,331.5,337,3522107
20100901,337,342,325,335.02,1425701
20100902,350,360,338,343.89,4323418
20100903,343.89,350,337,339.64,5342229
20100906,339.64,345,341,344.97,1708416
20100907,346,348,338.5,340,1111268
20100908,340,344,332,337.95,3042889
20100909,345,345,335,338,1427719
20100910,338,350,337.8,340,1779423
20100913,340,349.9,345,347,2097165
20100914,347,348,343,347,576107
20100915,347,348,340,346,504229
20100916,346,348,344.5,347.99,417912
20100921,360,360,347.5,350,1167649
20100922,350,353.5,349.9,351.5,1019001
20100923,351.5,353,349,352.08,1602372
20100924,352.08,368,356,367.27,3903509
20100927,372,380,372,375.46,2089826
20100928,377,378.98,368,369.91,2278247
20100929,369.91,370,361.5,367.78,3049801
20100930,367.78,378,368,371.24,907352
20101001,375,394,375,387.71,5400350
20101004,387.71,395,390,393.26,2891707
20101005,393.26,398,394,395.18,1331141
20101006,395.18,404.5,395,399.9,3348582
20101007,401,406,400,400,911241
20101008,400,405,390,394,1546890
20101012,394,395,387,393,647585
20101013,393,394.99,387,387.01,895268
20101014,387.01,388.5,385.5,387,708153
20101015,387,390,380,380,768921
20101018,380,388,380,386,1070393
20101019,386,389,385,389,1441415
20101020,389,397.5,389,397.5,724847
20101021,397.5,410,398,404.62,2558873
20101022,406.5,414,406.5,413.16,2624370
20101025,415,419.9,414,417.1,1875322
20101026,418,419,409.5,410.52,877609
20101027,411,415,411,415,1522901
20101028,415,420,415,416.83,1089022
20101029,416.83,424.8,414,419,1605830
20101102,419,423,415,419.93,343509
20101103,419.93,422,415,416.5,480896
20101104,417,423,417,422.38,891756
20101105,422.38,423,419,422,321393
20101108,422,422,414.9,414.95,171892
20101109,414.95,421,414,419,400319
20101110,419,424,419.99,420.48,403157
20101111,420.48,424,418,424,430358
20101112,424,428,420,424.72,440774
20101115,424.72,444.9,428,443.64,2141845
20101116,443.64,447,424,431,2775618
20101117,431,437,430,436,787508
20101118,436,448,436,447.69,1446100
20101119,449,454,446,448.2,989003
20101122,448.2,448,442,442,590107
20101123,442,446,440,443.88,1243192
20101124,443.88,449,445,448.57,1009041
20101125,449,460,447.9,458,1772573
20101126,458,458,452,454.07,1440613
20101129,454.07,457.9,450,453.34,826210
20101130,453.34,455,443,449.03,1915236
20101201,450,462,445,460.27,4220911
20101202,460.5,475,460.5,473.68,3114980
20101203,474,488.9,472,482.11,1347985
20101206,480,512,480,510.11,2808483
20101207,516,537,516,533.99,2758909
20101209,535,550,510,515.47,2425694
20101210,515.1,518,504,510,1325329
20101213,510,525,512,512,2759296
20101214,515,522,514,514,492976
20101215,515,525,511,519.76,1774820
20101216,519.76,525,517,524,553656
20101217,524,525,522,524,299938
20101220,524,525,520,520,252581
20101221,520,530,512,517,715469
20101222,523,523,500,504.99,796001
20101223,504.99,514,500,514,351300
20101224,514,523,519.99,523,128731
20101227,523,523,510,510.72,276134
20101228,510.72,518,510,514.2,837641
20101229,514.2,519,514,518.87,736530
20101230,518.87,525.1,521.1,523.98,876023
20110103,523.98,525,510,524.15,1188189
20110104,524.15,535,524,531,808124
20110105,531,536,529.1,534,981105
20110106,540,560,540,555.26,1398636
20110107,556,580,556,580,1558496
20110110,580,592,566,567.63,1225701
20110111,567.63,570,550,550.37,1395021
20110112,550.37,568.9,551.2,552.5,982944
20110113,552.5,582.99,552.5,582.57,1690123
20110114,585,585.5,570,580,627564
20110117,580,599,585,590.12,867898
20110118,590.12,596,576,579.36,578987
20110119,579.36,590,580,589.89,1659075
20110120,590,597,580,589.53,587950
20110121,589.53,599,591,594.23,694523
20110124,594.23,594,591.5,592.98,515379
20110125,593,593,580.5,582,564780
20110126,582,587,577,583,149910
20110127,583,583,561.1,569.51,452543
20110128,568,568,540,559.18,990279
20110131,559.18,576,555,571,447614
20110201,571,585,575,579.99,334326
20110202,579.99,586,565,568.97,292261
20110203,568.97,566,545,560,886772
20110204,560,570,538,554.94,754166
20110207,554.94,559.99,553,553.18,102260
20110208,553.18,564.99,539.9,539.9,202245
20110209,539.9,539,490,507.34,1016841
20110210,507.34,525,480,524.99,1750159
20110211,524.99,535,525,531,1505081
20110214,531,542,531,538,658966
20110215,538,550,540,543.76,225680
20110216,543.76,548,542,545,531815
20110217,545,545,515,516.72,287356
20110218,516.72,521,507.5,507.5,360914
20110221,507.8,508,492,492.05,246638
20110222,492.05,500,470,499.49,842220
20110223,499.49,495,471.2,480,836989
20110224,480,490,469,472,1015300
20110225,472,498.99,483,488.82,507143
20110228,488.82,496.5,493,493,449781
20110301,493,493,471,480,412251
20110302,480,484,465,476.75,563232
20110303,476.75,505,475,504.87,1678130
20110304,513,525,503,509.99,1046432
20110307,509,509,495,497,172734
20110308,497,501.1,489.9,493,94515
20110309,493,491,475,482.2,304085
20110310,482.2,475,467,473.68,1077216
20110311,472,472,458,458,406893
20110314,458,457.99,430,445,3820140
20110315,425,440,411,430.01,1469251
20110316,435,435,413,416,1208242
20110317,416,427,416,425,567234
20110318,425,423.9,412,423.9,155367
20110321,423.9,460,423.9,458.19,378022
20110322,459,459,440,448.44,832058
20110323,448.44,475,442,468.92,1872389
20110324,468.92,497,474.9,494.79,2269392
20110325,500,510,476.1,484.19,1202155
20110328,484.19,513,490,508.61,686478
20110329,512,517.9,496,505.35,830449
20110330,507,517,503,508.1,710553
20110331,508.1,520,500,514.63,771339
20110401,514.63,528,516,525.93,3362511
20110404,525.93,537,528,533.61,416592
20110405,533.61,533.51,526,527.63,332376
20110406,527.63,534,526,526,684846
20110407,526,524,514,521,422118
20110408,521,524,521,521,173011
20110411,521,515,510,515,60031
20110412,515,515,500,504.56,290213
20110413,504.56,510,500,500.68,273075
20110414,500.68,496,485,489,129440
20110415,489,510,488,510,418655
20110418,510,510,505,510,153449
20110419,509.9,514,497,505,116884
20110420,510,515,506,508.54,124757
20110421,510,511,505,508,134915
20110425,508,518,508.99,515.92,197754
20110426,515.92,525,509,524.91,550124
20110427,530,530,524,524,224228
20110428,524,525,518,522.43,237038
20110429,522.43,525,520.9,524.58,247211
20110502,524.58,525.1,514,514.9,433532
20110503,514.9,514.9,505,506,323912
20110504,506,505,492,492,292419
20110505,492,495,485,493.04,563094
20110506,493.04,505,493.04,494.23,206753
20110509,494.23,494.23,485,485,131858
20110510,485,489,483.1,485,522162
20110511,485,486,482,482,222637
20110512,482,500,481,495,190450
20110513,495,499.99,491.1,499.89,393631
20110516,499.89,505,494,504.82,250263
20110517,504.82,504.99,496,503,242837
20110518,503,506,500,502,490851
20110519,502,500,496,497,88358
20110520,497,491,486,488,72461
20110523,488,490,480,490,263147
20110524,490,490,477.26,481.59,48987
20110525,481.59,490,485,490,161899
20110526,490,502,490,499.52,164270
20110527,499.52,510,502,503.94,481068
20110530,503.94,504,491,497,159589
20110531,497,500,493,498.11,1527722
20110601,498.11,495,485.5,488,421803
20110602,486,490,476,478.41,667095
20110603,478.41,480.1,469,470.53,675803
20110606,470.53,459,450,455.01,881785
20110607,455.01,465,455,455.66,477140
20110608,455.66,457.1,440,445,361335
20110609,445,448.2,440,440,228882
20110610,440,430,418,427,346851
20110613,427,427,418,418.57,381350
20110614,418.57,425,398,399.43,495850
20110615,396.4,396.4,375,381.5,997302
20110616,381.5,389.99,365,369,1054664
20110617,369,380,357,358.34,837036
20110620,358.34,394,345,374.18,1843325
20110621,374.18,397.9,371,394.82,1711923
20110622,394.82,425,398,423.61,1216776
20110623,423.61,425,405,416.29,709521
20110624,416.29,420,410,410.58,538920
20110628,410.58,419,409,414.8,548791
20110629,414.8,415,402,403,827315
20110630,403,402.5,389.9,390.18,657258
20110701,390.18,393.5,385,385.06,202149
20110704,385.06,385,376,383.03,399114
20110705,383.03,394,384,393,423963
20110706,393,395,381,386.23,1388120
20110707,386.23,389,384,387.5,639619
20110708,387.5,387,382,386.06,1114541
20110711,386.06,386,382,383.6,252394
20110712,379.99,390,374,385,457462
20110713,385,398,390,392.8,487460
20110714,392.8,398,380,384,380753
20110715,384,395,377.1,379,188958
20110718,379,379,370,375.66,235914
20110719,375.66,395,370,372.61,142009
20110720,372.61,373.9,365.01,365.01,244126
20110721,365.01,373.6,365,370,351422
20110722,370,380,361,374.1,1052358
20110725,374.1,372,369,370.09,44956
20110726,365,365,351.1,354.52,236582
20110727,354.52,355,330,341,544124
20110728,341,370,335,340,538077
20110729,340,340,330,340,267743
20110801,345,360,342,350,657750
20110802,350,350,340,340,45889
20110803,340,340,320,328.14,600467
20110804,328.14,330,305,310,765684
20110805,314.1,320,290,305.62,1223252
20110808,297,297,255,255.94,1304536
20110809,257.01,289,257.01,278.53,824993
20110810,279,299,268.01,291,813274
20110811,291,315,291,305.83,773943
20110812,305.83,320,306,320,813944
20110816,320,335,315,316.88,471337
20110817,316.88,325,310,317.93,430769
20110818,317.93,310,291,307,328765
20110819,307,307,293,296,803469
20110822,296,303,290,294.26,237045
20110823,294.26,294.26,289,292.51,491062
20110824,292.51,294,280,282,280308
20110825,282,289,274,275.17,138792
20110826,275.17,280,270,278.08,487789
20110829,278.08,290,280,281.94,541627
20110830,281.94,289,280,289,621615
20110831,289,295,283,286.96,640106
20110901,286.96,290,282.02,286.46,366010
20110902,286.46,290,280,285.99,76648
20110905,285.99,278,265,276.87,159144
20110906,276.87,275,270,270,62846
20110907,270.01,274,265.5,265.78,288924
20110908,265.78,263,258.5,260.42,215252
20110909,260.42,257.5,243.1,245.56,482232
20110912,238.99,239,222,230,1793840
20110913,230,240,221,231,744576
20110914,231,239,224.1,226.43,253882
20110915,226.43,235,227.5,228,1246872
20110916,228,232,228.6,232,163756
20110920,232,230,224.5,225.58,419090
20110921,225.58,228,215,218.31,280544
20110922,218.31,205,200,202.17,1480114
20110923,200,203,200,203,368951
20110926,203,206.1,195.1,197.94,1852750
20110927,200.1,204.99,199,203.73,864476
20110928,206,206,200,203.6,796622
20110929,203.6,204.9,196.1,204.9,163739
20110930,204.9,198,190,193.45,815746
20111003,193.45,184.1,170,171.66,1464275
20111004,172,192,165,174.46,581293
20111005,180.1,190,170,170,702918
20111006,170,178.2,165.1,178,349659
20111007,178,190,174,179.8,328077
20111011,179.8,210,185,202.67,1443787
20111012,202.67,240,211.8,239.26,3161654
20111013,241,252.5,233,251.63,3089267
20111014,252,273,252,260,2110518
20111017,260,271,255,259,1309936
20111018,259,254,248,252.5,1202384
20111019,252.5,262,250.1,251.27,446564
20111020,251.27,270.25,253,260.06,932675
20111021,260.06,283,270,280.37,2098492
20111024,283.1,312,283.1,311.94,4137952
20111025,315,330,290,295.64,3421276
20111026,296,309,289,297.81,1656486
20111027,316,320,312,312.57,3444281
20111028,318,318,300.2,312.44,1106307
20111102,295,314.9,290.8,309.34,1726670
20111103,309.34,318,307,310.63,1417849
20111104,314,314,303,307.99,394370
20111107,307.99,307,294,299.11,1185211
20111108,299.11,304,298.9,301,807385
20111109,298,298,291,291.01,1301468
20111110,291.01,302,285,287.58,917886
20111111,287.01,295,287.01,291,389533
20111114,291,290,285,285.48,650420
20111115,285.48,288,281,287.46,216617
20111116,287.46,284,279.9,280.73,715900
20111117,280.73,282,280.5,280.8,1141568
20111118,280.8,283,273.7,275.83,639231
20111121,275.83,266,260,262.37,1009631
20111122,262.37,271.1,265,269,1070479
20111123,269,263,253,259.19,405949
20111124,259.19,270,258,258,373770
20111125,258,260,250,252.03,340827
20111128,252.03,271.1,260,263.94,880293
20111129,263.94,270,258,259.38,564190
20111130,265.1,269.9,263,264.8,1862885
20111201,264.8,264.9,257.9,260,319319
20111202,260,260,256,256.15,213860
20111205,256.15,257,245,245.36,369193
20111206,245.36,244,235,238,611751
20111207,238,242,234,236.63,391543
20111209,236.63,240,236,240,72223
20111212,240,233,232,232.9,84247
20111213,232.9,235,232.2,235,372388
20111214,235,231.2,223,224.81,596851
20111215,224.81,226.5,215,215.89,442623
20111216,215.89,218,208,210.49,449479
20111219,210.49,213,202.6,207.07,568651
20111220,207.07,214,202,211.99,13624680
20111221,211.99,227,210,224.92,2338986
20111222,227,236,227,232.45,3253390
20111223,232.45,238,225,230.99,1397216
20111226,230.99,236.5,223,225.94,1193917
20111227,225.94,224,217.5,221.34,732953
20111228,221.34,222,212,213.44,513412
20111229,213.44,213,207,207.37,999442
20111230,210,210,203,203.08,2247952
20120102,203.08,220.99,203.1,219.52,3232672
20120103,224.01,229,220,226.94,2536159
20120104,226.94,230,221,228.9,941095
20120105,228.9,229.9,226,227,428313
20120106,227,227.5,222,223.2,85521
20120109,223.2,226,216,216,180157
20120110,216,220,210.5,211.33,500593
20120111,211.33,212,206.5,210.99,483589
20120112,210.99,220,207.99,208.5,694909
20120113,208.5,214,210,211.5,742950
20120116,211.5,212,208,209.8,212846
20120117,209.8,215,211,211,264734
20120118,211,212.9,209.1,209.1,308328
20120119,209.1,225,211,222.75,1832819
20120120,222.75,227,222.3,226.92,296238
20120123,226.92,227,220,226.25,497019
20120124,227,227,223,223,264336
20120125,223,223,220,220,302918
20120126,220,221,213.1,213.47,189681
20120127,214.99,216,211.01,215.19,402983
20120130,215.19,215.19,207,215.24,150299
20120131,215.24,221.9,210,217.9,187064
20120201,217.9,218.99,213,215.36,430095
20120202,215.36,220,214.01,215,257277
20120203,215,223.99,216,223.95,577149
20120206,224,224.5,221,224.5,186278
20120207,224.5,223.99,220,220.5,217286
20120208,220.5,220,216.89,217.26,207046
20120209,217.26,228,220,225.42,1118613
20120210,217.99,227,217.99,225.11,301884
20120213,225.11,229,220,223,550868
20120214,223,223,220,221.48,379179
20120215,221.48,225.49,220,223.9,508425
20120216,225,225,220,223.93,714026
20120217,224,244,224,243.39,3583851
20120220,246.03,255,246,246.55,2307519
20120221,250,250,238,241.25,997832
20120222,241.25,243,235.5,241.99,1462905
20120223,241.99,244.2,240,241.33,315197
20120224,241.33,249.5,243.5,249.28,946382
20120227,250,254.7,245,252.69,977140
20120228,257,269,256,267.82,2534078
20120229,269.9,275,260,261.56,2312742
20120301,265,270,255,269.82,993675
20120302,269.82,270,266.5,267,696031
20120305,266.99,266.99,256,257.38,717683
20120306,250,254,247,247.67,2447079
20120307,248,252.5,245,246.54,718235
20120308,250,264,250,262.82,1953160
20120309,268,270.2,261.95,268,1982468
20120312,268,269.99,266,266.38,369693
20120313,267.31,272.9,264,264,575635
20120314,264,265,260.5,262.16,1340649
20120315,263,269.9,262,267.92,1085623
20120316,269,270,266,266.96,424394
20120319,266.96,267,264,264.78,551612
20120320,264.78,264,260,262,522614
20120321,262,268,262,265,1393508
20120322,265,289.9,263,282.19,5406876
20120323,277.5,277.5,266.51,273.18,4912479
20120326,274,288.9,274,287.29,1667857
20120327,287.29,296,288,291.06,2309127
20120328,291,291,285,287.07,558070
20120329,287.07,287,284,285,680545
20120330,285,294,285,288,912007
20120402,288,287.7,285,285,1845765
20120403,285,290,285,286.2,500447
20120404,286.2,287.01,280.01,284,571462
20120405,284,288,283,288,1056978
20120409,288,283,280.1,282.16,194717
20120410,282.16,282.5,268,274.48,1736352
20120411,274.48,280,275,275.82,151296
20120412,275.82,276,270.5,275,2792423
20120413,275,273,268.03,269.14,13026
20120416,269.14,272,266,266,922726
20120417,266,276,265,275.48,1711055
20120418,275.48,275,270,273,49688
20120419,273,275,270.2,273,658550
20120420,273,274,268,268.3,465165
20120423,268.3,266.7,258,266.7,334215
20120424,266.7,267,264,264,331950
20120425,264,270,260,263.04,774761
20120426,263.04,263,261,261.99,199372
20120427,261.99,268,260,265,63719
20120430,265,265,258,261.69,37208
20120502,261.69,270,261.69,267.84,291891
20120503,267.84,270,267.99,268,133197
20120504,267,267,263,263,47950
20120507,263,270,255,261.87,179832
20120508,261.87,268,262,265.5,135298
20120509,265.5,266,260,264.78,74263
20120510,264.78,270,265,269.68,363628
20120511,266,275,266,272.56,1522887
20120514,272.56,276,265,265,172167
20120515,265,258,255,255.2,303105
20120516,255.2,258,243,244.26,285685
20120517,244.26,245,236.1,239.07,588783
20120518,239.07,249.89,236.01,239,125975
20120522,245,255,244.5,245.07,387713
20120523,245.07,247,235,243.26,566669
20120524,243.26,248,245,248,192158
20120525,248,250,245,245.11,88148
20120528,245.11,259.9,246.5,255.8,165242
20120529,255.8,264,257,260,358021
20120530,260,258.9,254.9,258.96,233948
20120531,258.96,254,249,254,347059
20120601,254,254,245,250,398506
20120604,250,244,241,241.92,201416
20120605,241.92,250,242,250,216122
20120606,250,260,254,259,271071
20120607,259,263,255,258.57,239154
20120608,258.57,258,255,257.58,13011
20120611,257.58,258.9,254.9,258.9,1359275
20120612,258.9,262,257,261,3353547
20120613,261,259.9,254.9,259.9,56113
20120615,259.9,255.1,250,255,276571
20120618,255,255,255,255,1176
20120619,255,255,250,250,666878
20120620,250,259,245,250.04,397071
20120621,250.04,250,247.1,250,39356
20120622,250,254,247,253.92,75091
20120625,253.92,250.12,250,250.12,233507
20120626,250.12,259,250,250,146132
20120628,250,250,239,249.92,325461
20120629,254,263,249,249,236820
20120703,249,248,246.99,247,93088
20120704,246.4,246.4,240,240.35,91178
20120705,240.35,245,238,240,252718
20120706,240,237.3,236.5,237,167505
20120709,237,236,235.5,235.5,36200
20120710,235.5,238,230,236,149000
20120711,236,236,231,236,537384
20120712,236,232,229.5,230,101812
20120713,230,235,230,230,1255002
20120717,230,228,228,228,23238
20120718,228,227.4,217,226,99799
20120719,226,223.9,217,217.12,22993
20120720,217.12,217.1,210,216,473055
20120723,216,215,210,211.46,138602
20120724,211.46,214,212,213.13,118522
20120725,213.13,211,210,211,1640677
20120726,211,225.9,215,225.09,458086
20120727,225.09,229.9,217.7,225.19,158829
20120730,225.19,230.1,225,230,246486
20120731,230,240,229,229,365597
20120801,229,223,222,223,60875
20120802,223,234,211,223.21,214729
20120803,223.21,229.5,225,225,15248
20120806,225,225,225,225,1000
20120807,225,225,225,225,1089
20120808,225,225,215,225,154635
20120809,225,230,228,230,20067
20120810,230,225,220,225,82227
20120813,225,229.99,220,229.99,15027
20120814,229.99,235,225,234,78602
20120816,234,250,235,235,62840
20120817,235,243,235,240,275034
20120820,240,255,244,244,595444
20120821,244,255,243,243,315466
20120822,243,240,230,239.34,177363
20120823,239.34,239.34,239.34,239.34,2529
20120824,239.34,233,233,233,21500
20120827,233,239.95,227,236.9,105245
20120828,236.9,236.9,236.9,236.9,838
20120829,236.9,230,227.9,230,76284
20120830,230,230,220,228.8,130379
20120831,228.8,230,225,225.55,505358
20120903,225.55,230,230,230,11529
20120904,230,230,230,230,48600
20120905,230,232,229.9,229.9,74090
20120906,229.9,235,227.9,233,332091
20120907,233,240,233,234.92,323254
20120910,234.92,235,230.99,235,310026
20120911,235,242,233.9,240,806315
20120912,240,248,243,247,377139
20120913,247,255,247,253,1925105
20120914,253,270,255,267.65,1435337
20120920,267,282,261.5,274.9,931459
20120921,274.9,278,272.1,275,843718
20120924,275,275.5,271,275,210225
20120925,275,280,270,274,875884
20120926,274,270,263,270,258165
20120927,270,265,250,264,361421
20120928,264,263,261.99,263,67623
20121001,263,270,263,265,80280
20121002,265,275,265,272.46,376416
20121003,272.46,290,273,282,1353345
20121004,282,283,279,279,210263
20121005,279,285,278,280,112736
20121008,280,280,275,278,139778
20121009,278,275,270,273.16,240339
20121010,273.16,280,269,271.26,425399
20121011,271.26,275,272,275,202700
20121012,275,274,269,271,92963
20121016,271,274,274,274,4222
20121017,274,274.9,270,274.9,309966
20121018,274.9,274.99,274.5,274.99,72000
20121019,274.99,273.9,272,273.9,14494
20121022,273.9,270.99,266.01,270.99,20350
20121023,270.99,276.75,258,269.9,138501
20121024,269.9,272.99,261,261.48,190840
20121025,261.48,275,262,274.8,3805817
20121026,274.8,289.9,274.8,284.1,1776838
20121029,284.1,289,281,286.59,5145169
20121030,286.59,294,287,292.98,1968385
20121031,292.98,305,294,303.65,1907704
20121105,303.65,314.9,300.1,313.34,1644270
20121106,313.34,319,309.99,310,1603917
20121107,310,314.99,295,300.19,1297092
20121108,300.19,300,294.99,297,1111907
20121109,297,329,290,309.85,1216984
20121112,309.85,318.8,304.01,304.83,523442
20121113,304.83,309.99,300,306.06,688381
20121114,306.06,312,299.89,299.96,315484
20121115,299.96,300,293,293.15,635028
20121116,293.15,300,293,295.4,825975
20121119,295.4,309.99,300,308.99,513429
20121120,321,325,255,294.97,43536760
20121121,294.97,313,296,311.67,4177333
20121122,311.67,319,311,315,1265014
20121123,315,318.5,314.97,318,760067
20121126,318,318,311,311,737804
20121127,312,312,302,302,738036
20121128,302,300,293.01,299.99,379970
20121129,299.99,305,300,303,220444
20121130,303,304,300,301,25263
20121203,301,305,293,293.36,932747
20121204,293.36,299,290,298.96,659987
20121205,298.96,299,292,292.24,227215
20121206,292.24,293,291,293,46045
20121207,293,296.9,293,295.62,513515
20121210,295.62,290,285,289.86,510600
20121211,289.86,296,289,292.1,755235
20121212,292.1,299.9,294.99,294.99,217382
20121213,294.99,304,295,304,2447935
20121214,304,305,301,303.83,890315
20121217,303.83,305.8,301,302.98,693385
20121218,302.98,307,300,306.76,3421851
20121219,307,310,300,308,477592
20121220,308,309,306.5,307,213485
20121221,307,306,305.99,305.99,11094970
20121224,305.99,320,305,317.78,2248692
20121226,317.78,335,317.8,333.47,4852310
20121227,333.47,345,334.9,340.74,23462350
20121228,340.74,343,337,342.63,28079530
20130102,342.63,342,336,341.76,722279
20130103,341.5,341.5,335,337.92,300536
20130104,337.92,345,339,340.04,549228
20130107,340,344.49,330,332.26,617899
20130108,332.26,335,323,328.75,566330
20130109,328.75,335,329,335,355006
20130110,335,340,324,328.55,1547929
20130111,328.55,335,325,330,472187
20130114,330,334.89,329,334,89464
20130115,334,333,322,329.46,460884
20130116,329.46,333,329.46,329.46,124668
20130117,329.46,329.9,322.01,327.99,199079
20130118,327.99,328,322,327.05,60159
20130121,327.05,324,320.02,321.64,361666
20130122,321.64,333,320,333,1341156
20130123,333,340,334,334,794723
20130124,334,334,331,333.99,167519
20130125,333.99,339,331,338,251173
20130128,338,340,330,337.99,141680
20130129,337.99,332.51,331.8,332.49,119598
20130130,332.49,331,328,328.4,252095
20130131,328.4,328,327,327,147107
20130201,327,338,325,327.48,725570
20130204,327.48,330.1,327,327,295488
20130205,327,330,327,330,440254
20130206,330,330,329.01,330,915105
20130207,330,331,330,330,45274
20130208,330,334.99,327.2,334.98,461426
20130211,334.98,337,334.58,337,418959
20130212,337,337,336.58,336.58,80318
20130213,336.58,339.9,335.9,338.76,777581
20130214,338.76,340,333,340,463215
20130215,340,344.5,338,340,1658372
20130218,340,342.5,339.1,340.46,412141
20130219,340.46,343,340,342.95,1506035
20130220,342.95,342.91,340,340,342863
20130221,340,337,330.12,332.84,343495
20130222,332.84,340,334,337,644893
20130225,337,343.7,337.5,337.51,1398234
20130226,337.51,338,330,337,1319840
20130227,337,339,337,337.02,564871
20130228,337.02,339,338,339,388883
20130301,339,354.5,339,344,3556755
20130304,344,346.9,344,346.12,1652303
20130305,346.12,352,345,345,2180647
20130306,345,349,344,346,950723
20130307,346,349,341,342.55,1128373
20130308,341,348.9,341,348,492020
20130311,348,348,342,342.5,156361
20130312,342.5,343,340,341.9,278065
20130313,341.9,345,338,344.41,883285
20130314,344.41,355,344.9,348.5,6347818
20130315,348.5,349.99,343.2,345,1678618
20130318,345,344,340.1,343.2,1096185
20130319,343.2,347,344,345.98,3989849
20130320,345.98,347.9,341.2,342.94,207653
20130321,342.94,345.24,336.01,337,2042481
20130322,337,340,335,339.9,551058
20130325,339.9,338,338,338,1646
20130326,338,343,335,335.01,1754702
20130327,335.01,337,330,336,109805
20130328,336,336,335.9,336,150057
20130401,336,338,338,338,5356
20130402,338,334.6,328,330,1134164
20130403,330,330,320,326.29,3433893
20130404,326.5,335,326.5,331,638624
20130405,331,333,321.9,329.38,345019
20130408,329.38,332,325,331.03,191824
20130409,331.03,335.99,328.5,328.99,182437
20130410,328.99,335.99,330,333.99,78473
20130411,333.99,336,332.5,333.78,188431
20130412,333.78,335,331,331.27,230063
20130415,331.27,331,322,329,185975
20130416,329,328.9,323.9,323.9,141001
20130417,323.9,323,301,322.99,1945666
20130418,322.99,322.99,320,320,542850
20130419,320,322.99,320,322.9,66110
20130422,322.9,325,315,325,254727
20130423,325,323,317.1,317.1,126125
20130424,317.1,326,320,325.33,1977648
20130425,325.33,332,328,328,91133
20130426,328,325,325,325,86337
20130429,325,324,324,325,29000
20130502,325,325,325,325,150
20130503,325,323.7,320,323,57540
20130506,323,323,323,323,1885
20130507,323,324.99,320,321,144911
20130508,321,325,319,324,522156
20130509,324,323,322,322,52330
20130510,322,322,315,320,493205
20130513,320,320,320,320,5415
20130514,320,320,315,315.57,427025
20130515,315.57,320,315,315,175207
20130516,315,324,310,315.67,554972
20130517,315.67,315,308,314.03,111088
20130520,314.03,326,302.2,302.7,434043
20130522,302.7,312,302.7,305.18,140423
20130523,305.18,305,305,305,102864
20130524,305,305,298,302.5,142267
20130527,302.5,301,290,296.58,301511
20130528,296.58,300,293.3,293.69,40445
20130529,293.69,290,281,282.75,588943
20130530,282.75,304,288.8,301.6,199955
20130531,301.6,305,291,296.79,121167
20130603,296.79,305,290,303,21150
20130604,303,307,304.87,304.87,155482
20130605,304.87,310,302,310,78255
20130606,310,314,300,301.38,49885
20130607,301.38,304.99,295,304.99,68517
20130610,304.99,291,289.99,290,87636
20130611,290,289,285,288,122084
20130612,288,288,275,284.66,382167
20130613,284.66,300,289.99,295,300444
20130614,295,295,294,295,33065
20130617,295,299,288,288,61283
20130618,288,288.12,281,285,676335
20130619,285,285,278,284,595223
20130620,284,281,273.1,280.46,219689
20130621,280.46,281.89,276,281.4,124317
20130624,281.4,278,265,277.47,1064522

