SK

Fecha,Open,High,Low,Close,Volume
20051020,0,426.92,397.6789,397.6789,230170600
20051021,0,410.3501,397.6789,409.7555,6315992
20051024,0,410.3501,404.4824,405.613,1467366
20051025,0,405.9639,399.6284,399.6284,2187440
20051026,0,397.6887,395.7295,397.6789,1196882
20051027,0,399.6284,392.8054,393.7314,1627101
20051028,0,398.6536,393.6827,396.4021,1197017
20051031,0,396.6945,389.8813,390.856,672616
20051102,0,392.9029,391.8307,392.3181,1168481
20051103,0,392.3181,384.0331,384.0331,1233293
20051104,0,383.0584,371.362,375.2608,2935018
20051107,0,375.2608,360.6402,367.2,2171266
20051108,0,370.3873,365.5137,370.3873,1178293
20051109,0,380.1343,365.5137,375.2705,1573105
20051110,0,380.1343,374.2861,378.3408,455269
20051111,0,384.0331,379.1596,384.0331,331232
20051114,0,384.0331,380.1343,380.1343,1440617
20051115,0,380.1343,378.1849,379.1596,829666
20051116,0,380.1343,376.2355,380.1343,739771
20051117,0,385.0175,380.1343,385.0175,848424
20051118,0,386.9572,380.1343,380.1343,685216
20051121,0,385.0078,380.0368,380.1343,900846
20051122,0,380.1343,380.1343,380.1343,1231266
20051123,0,380.1343,380.0368,380.1343,637391
20051124,0,385.0078,370.3873,380.1343,995988
20051125,0,380.1343,375.2608,375.2608,268799
20051128,0,375.2608,375.2608,375.2608,309652
20051129,0,380.261,375.2608,380.1343,1639264
20051130,0,380.1343,375.2608,380.1343,1075847
20051201,0,381.109,380.1343,380.1343,576399
20051202,0,380.1343,375.2608,375.2608,87053
20051205,0,380.1343,375.2608,380.1343,963322
20051206,0,375.2608,375.2608,375.2608,222757
20051207,0,370.3873,370.3873,370.3873,175346
20051209,0,375.1633,370.3873,370.3873,456987
20051212,0,370.4847,365.5137,370.3873,328138
20051213,0,370.3873,365.5137,366.4884,6685057
20051214,0,369.8999,365.5137,369.4125,2431800
20051215,0,365.5137,359.6655,365.5137,1183922
20051216,0,367.4631,366.4982,367.4631,179761
20051219,0,367.5606,367.4631,367.4631,302044
20051220,0,365.5137,355.7667,361.0204,428384
20051221,0,360.6402,356.7414,357.7161,239139
20051222,0,351.8679,350.8932,351.8679,242950
20051223,0,353.9148,351.8679,353.9148,161966
20051226,0,356.0591,353.8173,353.8173,3430861
20051227,0,350.8932,350.8932,350.8932,481139
20051228,0,351.3805,350.8932,350.8932,480688
20051229,0,350.9029,346.0197,350.8932,302079
20051230,0,350.9907,350.8932,350.8932,258514
20060102,0,351.8679,350.8932,350.8932,3185582
20060103,0,350.8932,350.8932,350.8932,487491
20060104,0,355.7667,346.9944,355.7667,791809
20060105,0,360.6402,354.792,360.6402,430320
20060106,0,360.6402,350.8932,350.8932,157445
20060109,0,352.8426,350.8932,351.8679,268865
20060110,0,355.7667,350.8932,355.7667,339026
20060111,0,355.7667,355.6692,355.7667,505661
20060112,0,355.7667,348.9438,348.9438,373080
20060113,0,349.9282,347.9691,349.9185,356202
20060116,0,348.9438,347.9691,348.9438,134610
20060117,0,346.9944,346.0099,346.0197,320177
20060118,0,350.8932,345.045,346.0197,352067
20060119,0,346.0392,346.0197,346.0197,99650
20060120,0,349.9185,341.1462,341.1462,461989
20060123,0,336.2824,329.4497,329.4497,333827
20060124,0,329.6447,321.6521,329.6447,573848
20060125,0,341.1462,325.5509,341.1462,397046
20060126,0,350.9907,341.1559,346.7604,675907
20060127,0,346.0197,331.4089,332.3738,344972
20060130,0,336.4676,332.3738,336.2921,94766
20060131,0,341.2436,336.2726,339.2065,567234
20060201,0,341.0487,339.1967,340.1715,672538
20060202,349,339.6841,334.3232,334.3232,499534
20060203,343,333.3485,329.4497,329.4497,780475
20060206,338,328.475,325.5509,326.5256,765252
20060207,335,333.3485,328.475,333.3485,544491
20060208,342,333.3485,328.475,328.475,325457
20060209,337,336.2726,326.5256,326.6328,732290
20060210,335.11,329.4497,326.5256,329.4497,207831
20060213,338,331.3991,326.5256,327.5003,426282
20060214,336,327.5003,326.5256,326.5256,232266
20060215,335,326.5256,321.6521,326.5256,82496
20060216,335,322.6268,322.6268,322.6268,54617
20060217,331,331.3991,322.6268,331.3991,271811
20060220,340,337.2473,330.4244,337.2473,579416
20060221,346,341.1462,337.2473,340.8732,524669
20060222,349.72,346.9944,340.8732,346.9944,474545
20060223,356,350.8932,346.9944,350.8932,571254
20060224,360,351.8679,350.8932,350.8932,150742
20060227,360,346.0197,346.0197,346.0197,131035
20060228,355,346.0197,331.3991,340.1715,299464
20060301,349,336.2726,331.3991,331.3991,252994
20060302,340,336.2726,330.3269,336.2726,208236
20060303,345,343.0956,331.4966,341.1462,502552
20060306,350,350.8932,341.1462,350.8932,849136
20060307,360,346.0294,339.1967,339.1967,304962
20060308,348,341.2436,337.3448,341.2436,84667
20060309,350.1,346.0197,341.1462,341.1462,157761
20060310,350,346.0197,341.1559,346.0197,124602
20060313,355,360.65,346.0197,360.65,914679
20060314,370.01,370.3873,357.7064,365.5137,1407177
20060315,375,365.5137,355.7667,359.6655,548654
20060316,369,365.5137,355.7667,360.6402,81791
20060317,370,360.7377,355.7667,360.6402,466329
20060320,370,360.6402,356.7414,356.7414,325871
20060321,366,354.792,350.8932,351.8679,259424
20060322,361,351.8679,350.8932,350.9907,34240
20060323,360.1,360.6402,350.8932,360.6402,349252
20060324,370,361.6149,360.6402,360.6402,177408
20060327,370,360.6402,360.6402,360.6402,248416
20060328,370,361.6149,360.6402,360.6402,334613
20060329,370,361.1276,360.6402,360.6402,1759851
20060330,370,360.7377,360.6402,360.6402,341740
20060331,370,365.5137,360.6402,362.5896,129637
20060403,372,370.3873,360.6402,365.6112,3927500
20060404,375.1,360.65,360.6402,360.6402,2006203
20060405,370,364.9289,358.6908,359.568,116502
20060406,368.9,355.7667,350.8932,353.8173,1079319
20060407,363,353.8173,348.9438,349.1777,301441
20060410,358.24,348.9438,344.0703,346.0197,818186
20060411,355,346.0197,341.1462,345.045,862288
20060412,354,355.7667,342.1209,346.0197,339348
20060413,355,350.8932,346.0197,350.8932,230790
20060417,360,350.8932,341.1462,344.5576,489880
20060418,353.5,351.8679,344.5576,350.9907,1262619
20060419,360.1,354.3144,351.9654,351.9654,459654
20060420,361.1,350.8932,346.0197,346.0197,684953
20060421,355,346.0197,342.1209,346.0197,397768
20060424,355,347.9691,346.0197,347.9691,676456
20060425,357,350.8932,346.0294,350.8932,964759
20060426,360,357.7161,349.9185,355.7667,322172
20060427,365,360.6402,350.8932,351.2733,580718
20060428,360.39,355.7667,350.8932,354.792,1101228
20060502,364,360.6402,355.7667,355.7667,493943
20060503,365,363.5643,356.7414,362.5994,1507128
20060504,372.01,362.5896,355.7667,355.7667,1101096
20060505,365,359.6655,350.9907,359.568,107369
20060508,368.9,365.5137,355.7765,364.539,764852
20060509,374,365.5137,360.6402,360.65,6893794
20060510,370.01,355.7667,352.8426,355.7667,389919
20060511,365,355.7667,350.8932,351.8679,258198
20060512,361,350.8932,347.9691,347.9691,96788
20060515,357,347.9691,341.1462,341.1462,1125913
20060516,350,346.0197,344.0703,345.9612,535482
20060517,354.94,347.9691,341.1656,343.4659,408198
20060518,352.38,345.045,341.1462,345.045,530297
20060519,354,346.1171,343.0956,346.1171,394678
20060522,355.1,344.0703,341.1364,341.1462,67908
20060523,350,346.0197,341.1462,341.1462,589773
20060524,350,344.0703,339.2065,339.7816,555457
20060525,348.6,343.0956,341.1462,343.0956,35494
20060526,352,346.0197,341.1462,346.0197,234184
20060529,355,346.0197,341.1462,341.1462,787950
20060530,350,339.1967,339.1967,339.1967,31805
20060531,345,341.1462,336.2726,341.1462,487680
20060601,350,346.0197,341.1462,342.2086,657789
20060602,351.09,343.0858,341.1462,341.1462,255658
20060605,350,341.1656,341.1462,341.1462,270852
20060606,350,338.222,338.1246,338.222,100650
20060607,347,338.222,333.3485,336.0874,1603943
20060608,344.81,336.2726,331.3991,336.2726,237854
20060609,345,336.2726,333.3485,333.3485,106804
20060613,342,331.3991,322.6268,322.6268,82512
20060614,331,329.401,319.7027,329.401,894423
20060615,337.95,336.2726,331.3991,336.2726,755370
20060616,345,341.1462,336.2726,341.1462,325149
20060619,350,343.0956,341.1462,343.0956,48531
20060620,352,346.1171,343.0956,344.5576,5266981
20060621,354,346.0197,345.045,345.0547,189358
20060622,354.01,342.1209,341.1462,342.1209,350557
20060623,351,343.0956,342.1209,343.0956,24601
20060627,352,343.0956,343.0956,343.0956,34265
20060628,352,341.6335,339.1967,341.6335,147345
20060629,350.5,347.9691,342.1209,347.9691,77414
20060630,357,345.045,345.045,345.045,38884
20060703,354,341.1462,341.1462,341.1462,342586
20060704,350,343.5829,338.222,341.1462,379473
20060705,350,341.1462,340.1715,340.1715,403280
20060706,349,340.1715,336.2726,339.1967,117032
20060707,348,341.1462,339.1967,339.2065,369127
20060710,348.01,339.2942,339.1967,339.1967,146842
20060711,348,346.0197,338.222,346.0197,38722
20060712,355,346.0197,338.222,338.222,525764
20060713,347,338.222,336.2726,336.2726,66100
20060714,345,336.2726,331.3991,336.1752,94296
20060717,344.9,333.3485,333.3485,333.3485,139318
20060718,342,341.1462,333.3485,341.1462,66833
20060719,350,341.0487,336.2726,341.0487,701252
20060720,349.9,341.2436,341.1462,341.1462,189801
20060721,350,341.1462,336.2726,336.2726,178865
20060724,345,341.1462,335.7853,341.1462,194825
20060725,350,340.1715,336.2726,336.2726,57777
20060726,345,337.2473,336.2726,336.2726,193656
20060727,345,336.2726,331.3991,336.2726,413502
20060728,345,336.2726,336.2726,336.2726,117525
20060731,345,345.045,341.1462,345.045,184467
20060801,354,338.222,338.222,338.222,20968
20060802,347,350.8932,336.2726,350.8932,609357
20060803,360,350.8932,341.1462,341.1462,29342
20060804,350,346.8969,341.1462,341.1462,80321
20060807,350,346.0197,336.2726,341.1462,103163
20060808,350,346.0197,341.1462,341.1462,193102
20060809,350,342.1209,341.0487,341.1462,293474
20060810,350,360.6402,346.0197,360.6402,1953295
20060811,370,360.6402,350.8932,355.7667,484642
20060814,365,355.7667,350.8932,350.8932,136452
20060816,360,360.6402,350.8932,360.6402,2332473
20060817,370,370.397,355.7667,370.3873,3593043
20060818,380,370.3873,370.3873,370.3873,1128503
20060821,380,370.3873,362.5896,364.2076,495060
20060822,373.66,370.2898,360.7377,366.9563,109974
20060823,376.48,365.5235,360.6402,360.6402,704650
20060824,370,360.6402,360.6305,360.6402,1794600
20060825,370,364.539,360.6402,364.539,166161
20060828,374,370.3873,364.539,370.3873,977792
20060829,380,375.2608,365.5137,375.2608,1661319
20060830,385,375.2608,373.3114,373.3114,425800
20060831,383,375.2608,373.3114,375.2608,179862
20060901,385,380.1343,375.2608,380.0563,1034421
20060904,389.92,380.1343,375.1633,375.251,312978
20060905,384.99,375.2608,375.2608,375.2608,137398
20060906,385,376.2355,375.2608,375.2705,453791
20060907,385.01,375.2705,375.2608,375.2608,429945
20060908,385,370.3873,367.7068,370.3873,181034
20060911,380,370.1923,370.1923,370.1923,46804
20060912,379.8,365.5137,360.6402,365.5137,195847
20060913,375,370.3873,365.5137,370.3873,314165
20060914,380,372.3367,370.3873,371.362,637570
20060915,381,371.362,370.3873,370.9721,462984
20060920,380.6,371.362,370.3873,371.362,319442
20060921,381,371.362,369.4125,370.3873,5105030
20060922,380,370.3873,368.4378,368.4378,145034
20060925,378,368.4378,363.5643,363.5643,125929
20060926,373,370.4067,363.5643,370.4067,882061
20060927,380.02,372.3367,370.3873,372.3367,141482
20060928,382,375.2608,370.3873,371.362,421991
20060929,381,375.2608,371.362,375.2608,7065
20061002,385,371.362,371.362,371.362,43085
20061003,381,371.3522,363.5643,363.5643,17538
20061004,373,371.5764,365.5137,371.5764,251756
20061005,381.22,376.2355,371.6056,376.2355,857798
20061006,386,381.109,376.2355,381.109,156847
20061010,391,387.4446,382.0837,387.4446,2701612
20061011,397.5,385.9825,385.0078,385.9825,1373552
20061012,396,385.0078,380.1343,383.5457,254662
20061013,393.5,383.5457,383.5457,383.5457,777825
20061016,393.5,387.4446,383.5457,387.4446,137669
20061017,397.5,387.4251,385.0078,387.4251,10260
20061018,397.48,387.4446,385.0078,385.2027,462735
20061019,395.2,385.0078,383.5457,383.5457,143554
20061020,393.5,385.9825,383.5457,385.9825,1005112
20061023,396,389.8813,386.7623,387.9319,902611
20061024,398,389.8813,386.9572,389.8813,1462371
20061025,400,389.8911,387.9319,387.9319,1359840
20061026,398,389.8813,387.9319,387.9319,748235
20061027,398,387.9319,382.0837,387.9319,33935
20061030,398,385.0078,375.2608,375.2608,228299
20061031,385,380.1343,372.3367,380.1343,686169
20061102,390,380.1343,375.2608,375.2608,554824
20061103,385,380.1343,370.3873,375.8066,42758
20061106,385.56,380.1343,360.6402,380.1343,918768
20061107,390,389.9788,380.1343,389.9203,1359125
20061108,400.04,389.8813,388.9066,389.8326,1516075
20061109,399.95,393.7801,389.8813,389.8813,617946
20061110,400,393.7801,389.8813,389.8813,82369
20061113,400,388.8091,385.3002,385.9825,51336
20061114,396,393.7801,388.9066,389.8813,616477
20061115,400,393.7704,389.8813,389.8813,233194
20061116,400,389.8813,389.7838,389.8813,262183
20061117,400,389.8813,389.8813,389.8813,4575
20061120,400,385.0078,382.0837,382.0837,208736
20061121,392,389.8813,380.1343,382.1812,501860
20061122,392.1,382.0837,380.1343,381.3039,124196
20061123,391.2,394.7548,385.0078,394.7548,442290
20061124,405,392.708,389.7838,392.708,152280
20061127,402.9,389.9885,389.8813,389.9301,950982
20061128,400.05,390.2712,384.0331,387.9319,125744
20061129,398,395.7295,387.9319,395.7295,385010
20061130,406,405.4766,395.7295,404.5019,715743
20061201,415,403.5272,403.0398,403.5272,60165
20061204,414,401.5778,389.8813,401.5778,175444
20061205,412,401.5778,399.6284,399.6284,213765
20061206,410,402.5525,399.6284,402.5525,382054
20061207,413,399.6284,394.7548,397.4743,207810
20061211,407.79,396.6068,394.7548,396.6068,1132196
20061212,406.9,392.8054,389.8813,392.8054,178170
20061213,403,390.9535,389.8813,390.856,63977
20061214,401,389.9885,389.8813,389.9885,1193971
20061215,400.11,404.5019,391.8307,397.7179,965486
20061218,408.04,404.5019,399.6284,399.6284,716602
20061219,410,399.6284,396.7042,398.6536,805249
20061220,409,398.6536,397.6789,397.6789,2147639
20061221,408,404.5019,397.6789,404.4336,1354264
20061222,414.93,403.5272,396.7042,401.6362,517636
20061226,412.06,404.5019,398.6536,398.6536,1493284
20061227,409,403.5272,397.6789,403.5077,1080782
20061228,413.98,403.5272,399.6284,401.7337,4619477
20061229,412.16,403.5272,401.5778,401.5778,532189
20070102,412,406.4513,402.5525,406.4513,4291181
20070103,417,419.1224,406.4513,419.1224,971791
20070104,430,419.1224,414.2489,414.3366,553547
20070105,425.09,420.0971,414.2489,414.2489,662347
20070108,425,419.1224,413.2742,419.1224,119867
20070109,430,423.9959,417.173,423.9959,875932
20070110,435,423.9959,414.2489,414.2489,556689
20070111,425,417.173,414.2489,417.173,274995
20070112,428,418.1477,417.173,417.173,161009
20070115,428,424.9706,419.0249,423.9959,996142
20070116,435,431.7936,423.9959,431.7936,1021838
20070117,443,448.3635,431.7936,448.3635,2017641
20070118,460,452.3598,443.49,443.49,449157
20070119,455,449.3382,446.4141,449.153,368339
20070122,460.81,465.9082,446.4141,458.1105,406247
20070123,470,458.1105,449.8256,450.8003,735081
20070124,462.5,453.237,449.3382,450.3129,158991
20070125,462,450.3129,443.4803,443.49,453638
20070126,455,453.237,437.6418,453.237,140417
20070129,465,448.3635,438.6165,448.3635,250739
20070130,460,448.3635,437.5443,446.4141,162179
20070131,458,447.3888,447.3791,447.3888,70766
20070201,459,451.2876,447.3888,448.3635,600795
20070202,460,453.237,451.2291,451.2291,11836
20070205,462.94,451.2876,450.3129,450.3129,95195
20070206,462,448.3635,444.4647,448.3635,76157
20070207,460,453.237,448.3635,453.237,981962
20070208,465,458.0131,453.237,454.6211,316990
20070209,466.42,458.1105,453.237,453.237,275188
20070212,465,453.237,448.3635,451.2876,129319
20070213,463,453.237,443.49,448.3635,73615
20070214,460,448.3635,440.5659,443.49,397526
20070215,455,445.4394,438.6165,445.4394,281845
20070216,457,450.3129,445.4394,450.3129,243350
20070219,462,450.3129,446.4141,446.4141,83791
20070220,458,446.4141,433.743,440.293,320651
20070221,451.72,438.6165,423.9959,432.7683,342363
20070222,444,438.6165,428.8695,433.743,166259
20070223,445,438.6165,423.9959,423.9959,387887
20070226,435,423.9959,419.1224,419.1224,338550
20070227,430,419.1224,409.3754,409.3754,212897
20070228,420,414.3464,406.4513,409.3754,760661
20070301,420,423.9959,409.3754,423.9959,429353
20070302,435,423.9959,414.2489,414.2489,707381
20070305,425,414.2489,404.7943,404.7943,88663
20070306,415.3,414.2489,409.3754,414.2489,234058
20070307,425,419.1224,414.2489,414.2489,401914
20070308,425,421.1693,415.2236,421.0718,678682
20070309,432,426.92,421.0718,424.0154,569024
20070312,435.02,423.9959,423.9959,423.9959,10367
20070313,435,425.0779,423.9959,424.9901,994861
20070314,436.02,424.9706,419.1224,419.1224,710809
20070315,430,423.9959,419.6098,423.9959,1276741
20070316,435,423.9959,419.1224,423.9959,613638
20070319,435,428.8695,423.8985,428.8695,1248453
20070320,440,426.92,423.9959,424.0057,332186
20070321,435.01,431.7936,423.9959,428.8695,749333
20070322,440,428.8695,424.9804,424.9804,610883
20070323,436.01,429.8442,428.772,429.8442,181777
20070326,441,430.8189,430.8091,430.8189,14007
20070327,442,430.8189,426.92,428.8695,55895
20070328,440,430.8189,428.8695,430.8189,144948
20070329,442,430.8189,426.92,430.8189,310812
20070330,442,433.743,429.8442,429.8442,139813
20070402,441,428.8695,426.92,428.8695,63461
20070403,440,433.743,426.92,426.9395,280781
20070404,438.02,426.9395,424.9706,424.9706,173375
20070405,436,424.9901,423.9959,424.9901,74877
20070409,436.02,424.9706,423.9959,424.2494,205716
20070410,435.26,427.8947,423.9959,427.8947,168327
20070411,439,428.9669,426.92,428.8695,665957
20070412,440,433.743,426.92,433.743,403682
20070413,445,429.4055,428.8695,429.4055,88075
20070416,440.55,448.3635,428.8695,448.3635,235208
20070417,460,443.4997,438.6165,438.6165,1106371
20070418,450,438.6652,433.7527,438.6165,434450
20070419,450,448.3635,433.743,438.6165,675751
20070420,450,448.3635,444.4647,444.4647,417788
20070423,456,445.4394,443.49,443.49,15905
20070424,455,443.49,438.6165,438.6165,94285
20070425,450,438.6262,437.6418,438.6262,96627
20070426,450.01,462.9841,438.6165,460.2062,1976035
20070427,472.15,479.554,458.1105,466.0056,332840
20070430,478.1,466.8829,462.9841,462.9841,707354
20070502,475,461.0347,453.237,461.0347,225604
20070503,473,467.8576,460.9372,467.8576,4439320
20070504,480,477.6046,467.8478,477.283,2020028
20070507,489.67,477.6046,467.8576,472.7214,214907
20070508,484.99,470.7719,462.9841,467.8576,488901
20070509,480,472.7311,462.9841,469.7875,538564
20070510,481.98,467.8576,465.9082,467.8576,532099
20070511,480,497.0987,467.8478,490.3147,777122
20070514,503.04,497.0987,482.4781,482.4781,17193
20070515,495,482.5756,472.7311,477.6046,512461
20070516,490,501.9722,477.6046,497.0889,1163409
20070517,509.99,501.9722,496.124,499.8279,405299
20070518,512.8,516.5927,500.0228,515.618,589002
20070522,529,505.871,492.2252,504.8963,11391
20070523,518,511.7192,497.0987,508.8634,414238
20070524,525,516.5927,511.7192,513.6686,313846
20070525,527,516.4953,509.7698,512.4795,467894
20070528,525.78,526.3398,515.618,515.618,648633
20070529,529,516.5927,506.8457,507.4403,549227
20070530,520.61,511.6218,505.871,510.6471,314442
20070531,523.9,506.9529,506.8457,506.9529,360734
20070601,520.11,506.9529,506.8457,506.8457,20286
20070604,520,508.7951,506.8457,506.8457,169351
20070605,520,506.8457,506.8457,506.8457,201436
20070606,520,508.7951,501.9722,508.7951,48035
20070607,522,506.8457,492.2252,492.3226,394647
20070608,505.1,497.0987,487.3516,492.888,631571
20070611,505.68,501.9722,499.0481,501.9722,5418
20070612,515,501.9722,494.1746,499.0383,315614
20070613,511.99,501.9819,499.0481,501.9722,1585679
20070614,515,506.8457,504.409,504.5064,678155
20070615,517.6,511.7192,505.871,506.8457,3028835
20070618,520,511.7192,506.8457,506.8555,90799
20070619,520.01,511.7192,506.8457,511.7192,454959
20070620,525,521.4663,511.7192,519.0295,745749
20070621,532.5,519.0295,516.5927,516.5927,4079020
20070622,530,521.4663,516.583,521.4663,3248451
20070625,535,516.5927,516.5927,516.5927,7542
20070626,530,515.4231,511.7192,511.7192,141361
20070627,525,508.0154,507.8204,507.8204,424023
20070628,521,511.7192,507.8204,511.7192,76671
20070629,525,516.5927,511.7192,516.5927,38739
20070703,530,518.5422,516.5927,518.5422,249740
20070704,532,520.4916,516.5927,516.6025,676954
20070705,530.01,516.5927,516.5927,516.5927,13550
20070706,530,516.5927,506.8457,511.7192,297947
20070709,525,516.5927,515.618,515.6083,94668
20070710,528.99,518.5422,515.618,516.5927,190414
20070711,530,516.5927,511.7192,511.7192,16908
20070712,523,515.618,509.7698,515.618,171204
20070713,529,512.6939,509.7698,509.7698,107850
20070717,523,509.7698,506.8457,508.7951,471529
20070718,522,506.8457,506.7482,506.8457,81945
20070719,520,511.7192,506.8457,506.8457,333669
20070720,520,506.8457,506.8457,506.8457,13320
20070723,520,506.8457,506.8457,506.8457,67097
20070724,520,507.0407,501.9722,501.9722,480431
20070725,515,501.9722,501.9722,501.9722,68142
20070726,515,497.0987,497.0987,497.0987,10260
20070727,510,497.0987,497.0987,497.0987,61557
20070730,510,501.9722,497.0987,497.0987,160148
20070731,510,497.0987,492.2252,492.2252,74717
20070801,505,492.2252,487.3516,492.2252,57317
20070802,505,492.2252,492.2252,492.2252,38367
20070803,505,497.0987,492.2252,492.2252,123183
20070806,505,492.2252,487.3516,487.3516,51298
20070807,500,485.4022,481.406,481.406,85087
20070808,493.9,482.4781,482.3709,482.3709,308232
20070809,494.89,477.6046,472.7311,472.7311,138603
20070810,485,467.8576,458.1105,462.9841,42218
20070813,475,468.8323,467.8478,467.8576,1122847
20070814,480,453.237,453.237,453.237,54737
20070816,465,448.3635,426.92,436.6671,164499
20070817,448,448.3635,437.6418,448.3635,385211
20070820,460,453.237,453.237,453.237,17049
20070821,465,453.237,448.3635,453.237,168615
20070822,465,462.9841,453.237,461.0347,818198
20070823,473,459.0853,459.0853,459.0853,20404
20070824,471,462.9841,453.237,462.9841,632685
20070827,475,467.8576,462.9841,462.9841,344061
20070828,475,462.9841,448.3635,458.1105,335768
20070829,470,467.8576,452.2623,467.8576,466809
20070830,480,472.7311,458.1105,467.8576,921826
20070831,480,477.6046,467.8576,469.807,841180
20070903,482,473.7058,469.807,473.7058,35124
20070904,486,473.6961,467.8576,472.7311,605497
20070905,485,469.807,469.807,469.807,61032
20070906,482,469.807,469.807,469.807,20829
20070907,482,462.9841,458.1105,462.8866,135879
20070910,474.9,458.1105,453.237,458.1105,105966
20070911,470,458.1105,456.1611,458.1105,104616
20070912,470,467.8576,458.1105,458.1105,1306998
20070913,470,467.8576,462.8866,462.8866,335218
20070914,474.9,466.8829,458.1105,465.9082,575957
20070920,478,472.7311,462.9841,467.8576,5852518
20070921,480,477.6046,467.7601,467.7601,769760
20070924,479.9,467.8576,462.9841,465.9082,1403504
20070925,478,462.9841,460.06,462.9841,54376
20070926,475,465.9082,462.9841,463.5494,673046
20070927,475.58,467.8576,463.9588,466.8829,84889
20070928,479,466.8829,462.9841,466.8829,21695
20071001,479,472.7311,462.9841,462.9841,200928
20071002,475,467.8576,462.9841,462.9841,113913
20071003,475,462.9841,458.1105,462.9841,9629
20071004,475,467.8576,462.9841,465.6158,423549
20071005,477.7,472.7311,467.8576,472.7311,518304
20071008,485,467.8576,464.9335,465.0894,66061
20071009,477.16,477.6046,467.3702,476.9516,1078282
20071010,489.33,476.9223,471.7564,472.7311,531367
20071011,485,473.7058,472.7311,472.7311,220779
20071012,485,477.6046,472.7311,477.6046,101593
20071016,490,477.6046,472.7214,477.3025,280070
20071017,489.69,482.4781,477.3025,481.9908,114757
20071018,494.5,477.6046,477.6046,477.6046,60788
20071019,490,477.6046,471.5615,473.7058,106580
20071022,486,472.7311,467.8576,472.7311,140679
20071023,485,472.7311,467.8576,467.8868,331545
20071024,480.03,467.8576,462.9743,462.9743,26713
20071025,474.99,462.9841,458.1105,458.1105,71623
20071026,470,458.208,453.237,453.237,209044
20071029,465,453.237,448.3635,453.237,282040
20071030,465,473.7058,453.237,467.8576,1433019
20071031,480,472.7311,467.8576,469.9142,85466
20071102,482.11,470.7817,467.8576,470.7817,116452
20071105,483,470.7817,462.9841,462.9841,208116
20071106,475,463.9588,462.9841,462.9841,32831
20071107,475,458.1105,458.1008,458.1008,10260
20071108,469.99,458.1105,448.3635,458.0131,237464
20071109,469.9,458.1105,448.3538,457.4478,179833
20071112,469.32,456.1611,456.1514,456.1514,28435
20071113,467.99,456.1611,453.2273,453.2273,346914
20071114,464.99,453.237,438.6165,448.3635,2252682
20071115,460,448.3635,443.49,445.9268,1085482
20071116,457.5,445.4394,443.49,445.4394,1842861
20071119,457,445.8293,445.4394,445.8293,1283057
20071120,457.4,445.4394,438.6165,445.3907,1213436
20071121,456.95,438.6165,437.6418,438.0317,1058107
20071122,449.4,437.9244,433.743,437.9244,1085557
20071123,449.29,439.5912,438.0317,439.5912,1047794
20071126,451,439.5912,419.1224,419.1224,440787
20071127,430,428.8695,409.3754,428.8695,261449
20071128,440,438.6165,426.92,427.8947,1026806
20071129,439,427.8947,416.1983,420.0971,1001182
20071130,431,423.9959,418.1477,419.1224,1329392
20071203,430,419.1712,419.1224,419.1224,1035449
20071204,430,419.1322,419.0249,419.1224,1090567
20071205,430,421.0718,419.1127,421.0718,955127
20071206,432,422.0465,421.0718,422.0465,890297
20071207,433,423.9959,421.0718,423.9959,1222684
20071210,435,420.0971,419.1224,420.0971,512001
20071211,431,423.9959,414.2489,423.0115,1031083
20071212,433.99,423.9959,421.0718,421.0718,996184
20071213,432,422.0465,409.3754,414.2489,998642
20071214,425,409.3754,409.3656,409.3656,1345356
20071217,419.99,409.3754,399.6284,399.6284,1578741
20071218,410,400.5933,389.8813,399.6284,2859448
20071219,410,399.6284,394.7548,399.6284,1130940
20071220,410,407.426,399.6284,404.5019,978554
20071221,415,406.4513,402.5525,404.5019,1275679
20071224,415,404.9892,404.5019,404.9892,1097380
20071226,415.5,407.426,404.5019,407.426,1055500
20071227,418,409.3754,406.4513,409.1804,1456545
20071228,419.8,414.2489,406.4513,414.2489,1570262
20080102,425,414.2489,409.3754,409.3754,306562
20080103,420,399.6284,397.6789,397.6789,78485
20080104,408,397.6789,389.8813,389.8813,278959
20080107,400,385.0078,383.0584,385.0078,61408
20080108,395,385.0078,383.614,385.0078,189750
20080109,395,380.1343,365.4163,370.3873,154072
20080110,380,385.0078,370.3873,385.0078,358250
20080111,395,394.7548,385.0078,391.665,150116
20080114,401.83,389.8813,389.8813,389.8813,71463
20080115,400,389.8813,380.1343,389.8813,18596
20080116,400,389.8813,375.2608,389.8813,63415
20080117,400,394.7548,380.1343,380.1343,489143
20080118,390,389.8813,389.8813,389.8813,5364
20080121,400,380.1343,375.2608,375.2608,229947
20080122,385,389.8813,375.2608,389.8813,294087
20080123,400,377.2102,375.2608,375.2705,790035
20080124,385.01,380.1343,370.3873,380.1343,2546712
20080125,390,380.1343,376.2355,376.2355,623715
20080128,386,375.2608,370.3873,375.2608,56919
20080129,385,385.0078,384.9103,385.0078,63053
20080130,395,389.8813,380.1343,389.8813,562082
20080131,400,389.8813,380.1343,389.8813,17184
20080201,400,389.8813,385.0078,385.0078,466863
20080204,395,385.0078,380.1343,385.0078,630179
20080205,395,385.0078,385.0078,385.0078,642699
20080206,395,389.8813,389.8813,389.8813,16205
20080207,400,389.8813,389.8813,389.8813,113498
20080208,400,389.8911,389.8813,389.8911,14942
20080211,400.01,389.8813,389.8813,389.8813,67918
20080212,400,389.8813,389.8813,389.8813,5130
20080213,400,394.7548,389.8813,394.7548,92360
20080214,405,394.7548,394.7548,394.7548,194931
20080215,405,385.0078,385.0078,385.0078,12285
20080218,395,385.0078,385.0078,385.0078,1736
20080219,395,380.1343,380.1343,380.1343,199615
20080220,390,380.1343,375.2608,375.2608,174973
20080221,385,375.2608,375.2608,375.2608,12379
20080222,385,370.3873,370.3873,370.3873,32054
20080225,380,380.1343,370.3873,380.1343,29187
20080226,390,389.8911,389.8813,389.8911,31033
20080227,400.01,389.8813,389.8813,389.8813,547210
20080228,400,389.8813,389.8813,389.8813,258678
20080229,400,389.8813,389.8813,389.8813,3719
20080303,400,389.8813,389.8813,389.8813,593
20080304,400,370.3873,370.3873,370.3873,19994
20080305,380,370.397,369.4125,369.4125,702386
20080306,379,369.4125,369.4125,369.4125,256
20080307,379,380.1245,370.3873,380.1245,28743
20080310,389.99,387.9319,380.0368,380.1343,372309
20080311,390,389.8813,370.3873,380.1245,52909
20080312,389.99,394.7548,385.0078,389.8813,42301
20080313,400,389.8813,389.7838,389.8813,571405
20080314,400,399.6284,389.8813,389.8813,104100
20080317,400,385.0078,378.1849,380.1343,680032
20080318,390,389.8813,377.2102,388.9066,25418
20080319,399,388.8091,388.4193,388.8091,61781
20080320,398.9,389.8813,370.3873,388.8969,61538
20080324,398.99,389.8813,385.9825,385.9825,1849974
20080325,396,387.9319,386.9572,387.5908,32257
20080326,397.65,387.9319,387.9319,387.9319,74791
20080327,398,387.9319,387.9319,387.9319,33532
20080401,398,387.9319,387.9319,387.9319,45971
20080402,398,387.9319,387.9319,387.9319,53350
20080403,398,389.8813,389.8813,389.8813,51636
20080404,400,389.8813,387.9319,387.9319,74382
20080407,398,389.8813,388.9066,389.8813,101894
20080408,400,389.8813,388.9066,389.8813,97701
20080409,400,389.8813,389.6376,389.8813,690362
20080410,400,389.8813,389.8813,389.8813,12784
20080411,400,390.856,390.3589,390.3589,815319
20080414,400.49,389.8813,389.8716,389.8813,153482
20080415,400,394.7548,389.8813,394.7548,102701
20080416,405,403.5272,398.6536,400.72,594807
20080417,411.12,404.5019,404.5019,404.5019,218413
20080418,415,422.0465,409.3754,419.1224,1071160
20080421,430,419.1224,414.2489,419.1224,29672
20080422,430,419.1224,409.3754,409.3754,40848
20080423,420,409.3754,409.3754,409.3754,22669
20080424,420,409.3754,409.3754,409.3754,2549
20080425,420,409.3754,409.3754,409.3754,2955
20080428,420,409.3754,404.5019,404.5019,27065
20080429,415,404.4824,404.3947,404.3947,10192
20080430,414.89,404.3947,402.5525,402.5525,3315191
20080502,413,402.5525,399.6186,399.6186,70232
20080505,409.99,399.6186,399.6186,399.6186,104
20080506,409.99,399.6186,397.5815,397.5815,104988
20080507,407.9,394.7451,387.9319,389.8813,40671
20080509,400,388.9066,388.9066,388.9066,10185
20080513,399,388.9066,388.9066,388.9066,363
20080514,399,380.1343,380.1343,380.1343,10709
20080515,390,380.1343,380.0368,380.1343,41178
20080516,390,375.2608,375.2608,375.2608,292659
20080519,385,375.2608,375.2608,375.2608,3950
20080520,385,375.2608,375.2608,375.2608,269433
20080522,385,375.2608,375.251,375.2608,1085615
20080523,385,375.2608,374.2861,375.2608,115333
20080526,385,375.2608,375.251,375.251,15389
20080527,384.99,383.0584,375.2608,380.1343,612127
20080528,390,389.8813,375.2608,380.0368,305761
20080529,389.9,382.0837,375.2608,375.2608,161594
20080602,385,375.2608,375.2608,375.2608,164153
20080603,385,375.2608,375.2608,375.2608,103826
20080604,385,375.2608,370.3873,370.3873,92143
20080605,380,385.0078,372.3367,372.3367,183902
20080606,382,372.3367,372.3367,372.3367,585
20080609,382,375.2608,360.6402,370.3873,56598
20080610,380,371.362,370.3873,370.3873,145243
20080611,380,370.3873,370.3775,370.3775,113270
20080612,379.99,375.2608,370.3873,370.3873,780622
20080613,380,384.9103,371.4594,384.9103,27226
20080616,394.9,375.2608,373.7987,373.7987,76331
20080617,383.5,375.3582,370.3873,370.3873,541987
20080618,380,361.6149,360.6402,361.6149,13034
20080619,371,371.362,366.4884,370.3873,1104795
20080620,380,374.2861,370.3873,374.2861,46334
20080623,384,374.2861,365.5137,369.4125,106047
20080624,379,361.1373,360.6402,361.1373,38497
20080625,370.51,375.251,361.1276,375.251,195344
20080626,384.99,375.2608,375.2608,375.2608,11798
20080627,385,375.251,370.3873,370.3873,687485
20080630,380,370.3873,370.3873,370.3873,23749
20080702,380,331.3991,331.3991,331.3991,5130
20080703,340,370.3873,370.3873,370.3873,2052
20080709,380,365.5137,365.5137,365.5137,1539
20080710,375,360.6402,360.6402,360.6402,590941
20080714,370,355.7667,355.7667,355.7667,8325
20080715,365,350.8932,350.8932,350.8932,227989
20080717,360,370.3873,350.8932,350.8932,108367
20080718,360,350.8932,346.0197,346.0197,872060
20080721,355,350.8932,346.0197,350.8932,81107
20080722,360,355.7667,346.0197,355.7667,271802
20080723,365,355.7667,354.6945,355.7667,30539
20080724,365,360.65,355.7667,355.7667,154006
20080725,365,360.6402,360.6402,360.6402,5261
20080728,370,359.6655,355.7667,355.7667,1151190
20080729,365,355.2794,350.8932,352.8426,73057
20080730,362,360.6402,352.8426,360.6402,266473
20080731,370,360.6402,360.6402,360.6402,45655
20080801,370,360.6402,355.7667,357.2093,12589
20080804,366.48,354.792,354.792,354.792,50177
20080805,364,360.6402,360.6402,360.6402,2617
20080806,370,365.5137,365.5137,365.5137,104769
20080808,375,365.504,365.4942,365.4942,7528
20080811,374.98,364.539,355.8642,360.6207,128244
20080812,369.98,365.5137,355.7667,365.5137,1088122
20080813,375,355.7667,355.7667,355.7667,44160
20080814,365,375.2608,355.7667,370.3873,879234
20080818,380,389.8813,370.3873,380.144,530430
20080819,390.01,399.6284,380.1343,381.0505,549799
20080820,390.94,381.109,381.109,381.0505,168097
20080821,390.94,389.8813,389.8813,389.8813,10030
20080822,400,399.6284,389.7838,394.7548,685224
20080825,405,397.6789,397.6789,397.6789,7747
20080826,408,397.6789,394.7548,397.6789,108534
20080827,408,409.3754,394.7548,394.7548,467370
20080828,405,394.7646,394.7548,394.7646,287030
20080829,405.01,394.7646,394.7646,394.7646,16171
20080901,405.01,394.7548,394.7548,394.7548,7695
20080902,405,409.3754,394.7548,399.6284,232481
20080903,410,409.3754,394.7548,409.3754,368933
20080904,420,399.6284,399.6284,399.6284,411097
20080905,410,399.6284,389.8813,389.8813,359345
20080908,400,399.6284,399.5211,399.5309,362526
20080909,409.9,399.6284,388.9066,389.6766,171405
20080910,399.79,389.8813,385.0078,385.0078,16383
20080911,395,385.9825,385.0078,385.1053,277126
20080912,395.1,389.8813,389.8813,389.8813,164528
20080915,400,386.4699,385.0078,386.4699,172486
20080916,396.5,386.4699,385.0078,385.0078,1299444
20080917,395,385.0078,385.0078,385.0078,513
20080922,395,387.4446,385.0078,387.4348,545013
20080923,397.49,387.4446,385.0078,385.1053,338519
20080924,395.1,386.9572,384.5205,386.9572,338574
20080925,397,387.1521,384.0331,384.0331,353200
20080926,394,384.0331,380.1245,380.1343,732764
20080929,390,383.0584,350.8932,350.8932,186355
20080930,360,355.7667,351.8679,352.3747,235216
20081001,361.52,355.7667,352.3552,354.792,629744
20081002,364,353.8173,331.3991,342.4425,53292
20081003,351.33,360.6402,331.3991,360.6402,311237
20081006,370,341.1462,331.3991,341.1462,726981
20081007,350,331.3991,307.0315,327.8609,319033
20081008,336.37,321.6521,292.411,302.158,40663
20081009,310,302.158,292.411,301.9436,534966
20081010,309.78,292.411,263.1699,292.411,799439
20081013,300,321.6521,292.411,310.9791,1592307
20081014,350,341.1462,302.1483,311.9051,610921
20081015,320,311.9148,302.158,311.9051,4971487
20081016,320,314.8292,292.411,297.1773,25041
20081017,304.89,302.158,302.158,302.158,1488
20081020,310,307.129,307.129,307.129,307786
20081021,315.1,311.9051,307.0315,311.9051,380355
20081022,320,307.0315,302.158,307.0315,392575
20081023,315,311.9051,311.9051,311.9051,2573
20081024,320,311.9051,310.9206,311.9051,91733
20081027,320,310.443,307.0315,307.0315,78574
20081029,315,307.0315,307.0315,307.0315,7565
20081030,315,307.0315,307.0315,307.0315,1200
20081103,315,313.8545,307.0315,311.9051,775280
20081104,320,341.1462,311.9051,341.1462,2680608
20081105,350,342.1209,341.1462,341.1462,106487
20081106,350,341.1462,341.1462,341.1462,649131
20081107,350,351.8679,350.9907,351.8679,71663
20081110,361,351.8679,350.8932,350.8932,329722
20081111,360,350.8932,350.8932,350.8932,883979
20081112,360,350.8932,350.8932,350.8932,24346
20081113,360,351.3805,350.8932,351.3805,916276
20081114,360.5,351.478,351.478,351.478,18068
20081117,360.6,351.478,351.478,351.478,103
20081118,360.6,351.8776,351.478,351.8776,947981
20081119,361.01,360.65,360.6402,360.6402,138878
20081120,370,369.4125,360.6402,360.6402,333736
20081121,370,360.6402,360.6402,360.6402,41038
20081124,370,360.6402,360.6402,341.1462,213082
20081125,350,341.1462,341.1462,341.1462,353095
20081126,350,341.1559,341.1462,341.1559,1608632
20081127,350.01,341.1656,341.1656,341.1656,36934
20081128,350.02,350.8932,345.045,350.8932,340126
20081201,360,341.1462,341.1462,341.1462,29957
20081202,350,355.7765,341.1462,355.7765,2147724
20081204,365.01,355.7667,355.7667,355.7667,2501
20081209,365,350.9029,350.8932,350.8932,1258165
20081210,360,350.9029,350.8932,350.8932,395251
20081211,360,353.8173,353.8173,353.8173,8357
20081215,363,350.8932,350.8932,350.8932,166097
20081216,360,355.7667,331.3991,346.0197,39443
20081218,355,355.6692,346.0197,355.6692,40234
20081219,0,354.792,350.8932,350.8932,238171
20081222,360,355.7667,350.8932,350.8932,833737
20081223,360,351.8776,350.8932,351.8679,869344
20081226,361,351.8679,351.8679,351.8679,1044645
20081229,361,357.2288,351.8679,355.7667,1227749
20081230,365,365.5137,356.7414,365.5137,1778609
20090102,375,361.6149,351.8679,360.6402,2688485
20090105,370,355.7667,350.8932,350.8932,69532
20090106,360,350.8932,350.8932,350.8932,1055
20090108,360,350.8932,350.8932,350.8932,4348
20090109,360,350.8932,350.8932,350.8932,3023
20090112,360,350.9029,350.8932,350.8932,228800
20090113,360,354.792,354.792,354.792,19767
20090115,364,370.3873,359.1782,370.3873,67832
20090116,380,389.8813,380.1343,380.1343,30799
20090119,390,389.8813,380.1245,389.8813,221263
20090120,400,389.8813,382.0837,385.0078,327385
20090121,395,380.1343,380.1343,380.1343,269426
20090122,390,385.0078,380.1343,385.0078,156141
20090123,395,385.0078,385.0078,385.0078,1038
20090127,395,385.0078,385.0078,385.0078,25649
20090129,395,389.8813,385.0078,389.8813,111014
20090130,400,399.6284,385.1053,399.6284,59360
20090203,410,409.3754,399.6284,399.6284,362245
20090205,410,409.3754,399.6284,409.3754,30796
20090206,420,407.426,407.426,407.426,6433
20090209,418,409.3754,407.426,409.3754,41185
20090210,420,414.2489,409.3754,414.2489,9016
20090211,425,414.2489,413.2742,414.2489,20198
20090213,425,414.2489,414.1514,414.2489,26921
20090216,425,414.2489,414.2489,414.2489,1212072
20090217,425,414.2489,414.2489,414.2489,12743
20090218,425,413.2742,413.2742,413.2742,14759
20090219,424,404.5019,404.5019,404.5019,54564
20090223,415,404.5019,404.5019,404.5019,87
20090224,415,409.3754,403.5272,409.3754,63273
20090225,420,404.5019,404.5019,404.5019,41552
20090226,415,404.5019,404.5019,404.5019,4561
20090227,415,409.3754,404.5019,409.2779,564331
20090304,419.9,404.5019,399.6284,404.5019,543530
20090305,415,399.6284,394.7548,394.7548,622656
20090309,405,386.9572,370.3873,386.9572,7091
20090310,397,385.0078,385.0078,385.0078,9127
20090311,395,389.8813,385.0078,389.8813,98696
20090312,400,385.9825,385.9825,385.9825,6091
20090313,396,385.9825,385.9825,385.9825,20353
20090316,396,385.9825,385.9825,385.9825,12743
20090317,396,385.9825,385.9825,385.9825,831
20090318,396,385.9825,385.9825,385.9825,31575
20090319,396,399.6284,393.7801,399.6284,25487
20090324,410,399.6284,399.6284,399.6284,45975
20090325,410,409.3754,409.1804,409.3754,68579
20090326,420,412.2995,409.3754,412.2995,262627
20090327,423,419.1224,414.2489,418.1477,318463
20090330,429,419.1224,419.1224,419.1224,12743
20090331,430,419.1224,416.1983,416.1983,56514
20090401,427,419.1224,416.1983,419.1224,81506
20090402,430,417.173,417.173,417.173,359563
20090406,428,418.1477,418.1477,418.1477,6301
20090407,429,419.0249,419.0249,419.0249,25487
20090409,429.9,419.1224,418.1477,419.1224,797579
20090413,430,418.1477,418.0502,418.0502,44499
20090415,428.9,409.3754,409.3754,409.3754,101569
20090416,420,409.3754,409.3754,409.3754,37822
20090417,420,399.6284,399.6284,399.6284,16251
20090420,410,399.6284,399.6284,399.6284,36183
20090421,410,399.6284,399.6284,399.6284,26461
20090423,410,399.6284,399.6284,399.6284,1626
20090427,410,394.7548,380.1343,391.3336,44070
20090428,401.49,391.3336,391.3336,391.3336,1026
20090429,401.49,389.8813,385.0078,389.8813,2078160
20090430,400,389.8813,389.8813,389.8813,607113
20090504,400,385.0078,380.6216,380.7289,123149
20090505,390.61,380.6216,375.2608,375.2608,175355
20090506,385,385.0078,375.2608,385.0078,685250
20090507,395,389.8813,385.0078,389.8813,138832
20090508,400,394.8523,392.8054,394.7548,223332
20090511,405,404.5019,404.5019,404.5019,17832
20090512,415,404.5019,404.5019,404.5019,7182
20090513,415,404.5116,404.5019,404.5019,129114
20090514,415,404.5019,404.5019,404.5019,269532
20090515,415,419.1224,408.4007,409.3754,354282
20090518,420,414.2489,409.3754,414.2489,152934
20090519,425,419.1224,410.3501,419.1224,102985
20090520,430,423.9959,409.3754,410.1454,107269
20090522,420.79,399.6284,399.6186,399.6186,54183
20090525,409.99,399.6284,397.6789,399.6284,334647
20090526,410,419.1224,408.4007,414.2489,468655
20090527,425,421.0718,419.1224,419.1224,108986
20090528,430,423.9862,414.2489,414.2489,528817
20090529,425,414.3464,404.5019,414.3464,786155
20090601,425.1,428.8695,414.2489,428.8695,126112
20090602,440,427.8947,427.8947,427.8947,10087
20090603,439,427.8947,423.9959,427.885,29636
20090604,438.99,428.8792,426.92,428.8695,263045
20090605,440,433.743,428.8695,428.8695,711178
20090608,440,428.772,423.9959,423.9959,11904
20090609,435,428.8695,425.9453,426.8421,805160
20090610,437.92,438.6165,426.8713,438.6165,168323
20090611,450,448.3635,439.5912,448.3635,37257
20090612,460,453.237,439.5912,453.237,281448
20090615,465,453.237,453.237,453.237,1490674
20090616,465,458.1105,453.237,458.1105,24044
20090617,470,460.06,453.237,453.2468,44662
20090618,465.01,451.2876,448.3635,451.2876,128191
20090619,463,458.1105,453.237,453.2468,230475
20090622,465.01,454.2117,433.743,433.743,3027206
20090623,440.1,448.3635,428.8695,433.743,417744
20090624,445,447.3888,433.743,433.743,1330779
20090625,440,433.743,428.8695,433.743,717684
20090626,445,433.743,428.8695,433.743,30217
20090630,445,433.743,423.0212,423.9959,182118
20090701,435,428.8695,428.8695,428.8695,5934
20090702,440,427.8947,427.8947,427.8947,2995
20090707,439,426.92,424.9706,426.92,1125189
20090708,438,419.1224,419.1127,419.1127,647534
20090709,429.99,419.1127,417.6604,419.1127,138763
20090710,429.99,423.9959,419.1224,423.9959,211910
20090713,435,428.8695,423.9959,428.8695,161509
20090714,440,434.2303,434.2303,434.2303,3066
20090715,445.5,441.5406,433.743,441.5406,40256
20090720,453,442.0767,441.4431,442.0767,40108
20090721,453.55,443.49,442.0279,443.49,36845
20090722,455,448.3635,448.3635,448.3635,1539
20090723,460,453.237,448.3635,453.237,481138
20090727,465,448.3635,448.3635,448.3635,39228
20090728,460,443.49,443.4803,443.4803,14045
20090730,454.99,453.237,446.4141,446.4531,15677
20090731,458.04,452.2623,446.4141,452.2623,4932
20090803,464,452.2623,451.2779,451.2876,45339
20090804,463,458.1105,453.237,453.237,31061
20090805,465,453.237,453.237,453.237,1088
20090806,465,458.1203,453.237,458.1203,94899
20090807,470.01,462.9841,462.0094,462.9061,38053
20090810,474.92,477.6046,462.9841,477.6046,136856
20090811,490,487.3516,477.6046,487.3516,409133
20090812,500,501.9722,487.3516,501.9722,455148
20090813,515,506.8457,501.9722,506.8457,1111348
20090814,520,497.0987,497.0987,497.0987,8824
20090817,510,497.0987,497.0987,497.0987,6505
20090818,510,497.0987,497.0889,497.0987,1482867
20090819,510,497.0889,487.4491,487.4491,1591229
20090820,500.1,487.3516,486.2795,486.3769,30779
20090821,499,487.3614,487.3516,487.3516,852088
20090824,500,487.3516,477.6046,485.9091,22405
20090825,498.52,485.4022,482.4781,485.3827,93626
20090826,497.98,485.4022,485.4022,485.4022,21754
20090827,498,487.3516,482.4781,487.3516,834776
20090828,500,487.3516,482.4781,487.3516,93942
20090901,500,487.3516,487.3516,487.3516,11178
20090903,500,487.3516,487.3516,487.3516,153893
20090909,500,486.3769,486.3769,486.3769,1732
20090910,499,486.3769,485.4022,486.3769,4386
20090911,499,487.3516,486.3769,487.3516,6897
20090914,500,487.3516,487.3516,487.3516,5130
20090915,500,486.3769,486.3769,486.3769,11325
20090916,499,487.3516,470.7817,477.7898,1778121
20090917,490.19,477.6046,477.6046,477.6046,2155
20090921,490,482.5756,467.8576,482.4781,1862830
20090922,495,482.4684,481.4937,481.4937,5062563
20090923,493.99,476.4545,476.4545,481.4937,178885
20090924,493.99,481.4937,481.4937,481.4937,522
20090925,488,475.6552,467.8576,467.8576,18252
20090928,480,467.8576,458.1105,458.1398,4919145
20090929,470.03,462.9841,459.5824,460.06,1133212
20090930,472,460.06,458.1105,460.06,75387
20091001,472,460.06,459.9625,460.0502,1055418
20091002,471.99,460.5473,460.06,460.06,53049
20091005,472,460.06,458.1105,458.1105,131534
20091006,470,458.1105,458.1008,458.1105,2881124
20091007,470,458.1105,453.237,458.1105,706272
20091008,470,460.06,458.1105,460.06,1588256
20091009,472,460.1574,460.0502,460.06,194481
20091013,472,460.06,458.1105,460.06,99990
20091014,472,459.5726,458.5979,458.5979,56895
20091015,470.5,460.06,459.0853,459.0853,24733
20091016,471,458.1105,453.237,453.237,1558619
20091019,465,453.237,453.237,453.237,275257
20091020,465,453.237,453.237,453.237,194124
20091021,465,453.237,448.3635,448.3635,123663
20091022,460,448.3635,448.3538,448.3635,1236757
20091023,460,462.9841,452.7497,452.7497,33738
20091026,464.5,459.0853,457.5257,457.6232,78927
20091027,469.5,459.0853,457.6232,457.6232,35831
20091028,469.5,458.1105,450.3129,450.3129,103693
20091029,462,457.1358,453.1396,457.1358,249672
20091030,469,453.237,453.237,453.237,122584
20091102,465,453.2565,453.237,453.2565,1350249
20091103,465.02,458.1105,453.237,453.237,374361
20091104,465,453.237,453.237,453.237,441
20091105,465,453.7244,453.237,453.2468,861448
20091106,465.01,453.237,453.237,453.237,30594
20091109,465,453.237,453.237,453.237,20913
20091110,465,453.237,453.237,453.237,2257
20091111,465,456.1611,453.237,456.1514,1228250
20091112,467.99,456.1611,453.237,453.237,198359
20091113,465,453.237,447.3888,447.3888,18602
20091116,459,447.3888,438.6165,438.6165,242868
20091117,450,438.1291,428.8695,438.1291,156830
20091118,449.5,438.6165,436.6573,436.6573,823649
20091119,447.99,436.6671,436.6671,436.6671,19349
20091120,448,428.8695,428.8695,428.8695,3593
20091123,440,428.8695,423.9959,423.9959,42846
20091124,435,428.8695,423.9959,428.8695,300802
20091125,440,433.743,428.8695,433.743,1620163
20091126,445,424.9706,424.9706,424.9706,18355
20091127,436,424.9706,424.9706,424.9706,16928
20091130,436,424.9706,424.9706,424.9706,40494
20091202,436,428.8695,424.9706,428.772,459967
20091203,439.9,428.8695,428.772,428.8695,1001577
20091204,440,433.743,428.8695,433.743,246571
20091209,445,433.7527,433.743,433.7527,1593839
20091210,445.01,436.6671,436.6671,436.6671,458361
20091211,448,443.49,436.6671,443.49,1447553
20091214,455,452.2623,438.6165,452.2623,56235
20091215,464,448.3635,443.4997,448.3635,940322
20091216,460,448.461,443.49,443.49,212586
20091217,455,443.49,438.6165,443.49,1244827
20091218,455,443.4803,438.714,441.4431,1140905
20091221,452.9,440.5659,440.4684,440.4684,2545870
20091222,451.9,436.6671,436.6671,436.6671,341247
20091223,448,438.6165,436.6671,436.6671,1023012
20091224,448,436.6671,436.6573,436.6573,1034841
20091228,447.99,438.6165,436.6671,438.6165,464667
20091229,450,438.6165,438.6165,438.6165,15977
20091230,450,452.2623,438.6165,451.4143,19149
20100104,463.13,452.2623,448.3635,452.2623,113729
20100105,464,458.1105,448.3635,458.1105,225679
20100106,470,467.8576,467.8576,467.8576,26184
20100107,480,477.6046,467.8576,477.6046,180410
20100108,490,477.6046,476.6299,477.6046,166400
20100111,490,477.6046,477.6046,477.6046,18024
20100112,490,476.6299,476.6299,476.6299,16928
20100113,489,477.6046,476.6299,477.6046,64910
20100114,490,476.6299,472.7311,472.7311,226223
20100115,485,472.2437,472.2437,472.2437,63109
20100118,484.5,471.7564,462.9841,467.7601,86248
20100119,479.9,467.7601,458.1105,467.7601,76095
20100120,480,467.8576,467.7601,467.7601,76481
20100125,479.9,467.9551,462.9841,467.7601,173564
20100128,479.9,466.8829,462.9841,466.8829,3111
20100129,479,466.8829,466.8829,466.8829,3078
20100201,479,458.1105,458.1105,458.1105,44419
20100202,470,458.1105,458.1105,458.1105,23151
20100204,470,453.237,453.237,453.237,24197
20100205,465,448.3635,448.3635,448.3635,3289
20100208,460,446.4141,446.4141,446.4141,1103
20100209,455,453.3345,438.6165,453.237,37108
20100210,465,462.9841,462.9841,462.9841,4767
20100212,475,453.237,453.237,453.237,23568
20100215,465,453.237,453.237,453.237,4513
20100216,465,453.237,453.237,453.237,242
20100217,465,453.237,453.1396,453.237,45945
20100218,465,453.237,448.3635,453.237,184163
20100219,465,448.3635,448.3635,448.3635,10260
20100222,460,443.49,443.49,443.49,63437
20100223,455,443.49,443.49,443.49,4442
20100225,455,448.3635,443.49,448.3148,26978
20100226,459.95,461.0347,448.3635,461.0347,847357
20100301,473,467.8576,458.1105,467.8576,28076
20100302,480,511.7192,472.8286,497.0987,475006
20100303,500.05,487.4004,472.7311,486.3769,114508
20100304,499,485.4022,485.4022,485.4022,22619
20100305,498,487.3516,486.3769,487.3516,76167
20100308,500,487.3516,487.3419,487.3516,683650
20100309,500,488.3264,487.3516,487.3516,470687
20100310,500,497.0987,487.3516,487.3614,1139751
20100311,500.01,492.2252,487.3516,487.3516,771896
20100312,500,500.0228,487.3516,497.0987,1569373
20100315,510,497.0987,497.0987,497.0987,11182
20100316,510,496.124,490.2758,495.1493,129150
20100317,508,492.2252,490.2758,492.2252,947451
20100318,505,497.0987,492.2252,495.1493,211364
20100319,508,495.1493,495.1493,495.1493,6341
20100322,508,495.1493,495.1493,495.1493,25597
20100323,508,495.1493,495.1493,495.1493,30779
20100324,508,501.9722,495.1493,501.9722,215219
20100325,515,501.9722,501.9722,501.9722,14303
20100326,515,497.0987,495.1493,497.0987,372137
20100329,510,497.0987,492.2252,497.0987,274232
20100330,510,497.0987,492.2252,497.0987,32393
20100331,510,497.0987,497.0987,497.0987,583
20100401,510,497.0889,496.124,497.0889,124877
20100405,509.99,496.124,496.1142,496.124,2821
20100406,509,496.124,496.124,496.124,242
20100407,509,496.124,492.2252,492.2252,75918
20100408,505,492.2252,492.2252,492.2252,1103
20100409,505,496.124,487.3516,496.124,25846
20100412,509,492.2252,492.2252,492.2252,8208
20100413,505,492.2252,492.2252,492.2252,282137
20100414,505,501.9722,491.2505,501.9722,100907
20100415,515,492.2252,477.6046,477.7021,68948
20100416,490.1,477.7021,477.7021,477.7021,817
20100419,490.1,467.8576,467.8576,467.8576,1840
20100420,480,472.7311,472.7311,472.7311,20519
20100421,485,472.7311,471.7564,471.7564,84022
20100422,484,467.7601,467.7601,467.7601,8004
20100423,479.9,467.8576,467.8576,467.8576,18264
20100428,480,467.8576,466.8829,466.8829,519767
20100429,479,467.8576,466.8829,467.8576,24590
20100430,480,482.4781,467.8576,482.4781,5335
20100503,495,469.807,468.8323,468.8323,12842
20100505,481,474.6805,467.8576,474.6805,93759
20100506,487,482.4781,477.5071,482.4781,1418659
20100507,495,485.4022,484.4275,484.4275,1598458
20100510,497,484.4275,484.4275,484.4275,2105
20100511,497,477.6826,477.6046,477.6339,10394
20100512,490.03,477.6046,477.6046,477.6046,1038552
20100513,490,477.6144,477.6046,477.6144,213475
20100514,490.01,477.6241,477.6046,477.6144,470456
20100517,490.01,477.6144,477.6046,477.6046,248170
20100518,490,482.4781,482.4781,482.4781,3607
20100519,495,487.3516,486.3769,487.3516,128620
20100520,500,493.1999,490.2758,490.2758,2002353
20100524,503,497.0987,492.2252,497.0987,52835
20100525,510,497.0987,492.2252,492.2252,448705
20100527,505,501.9722,492.2252,501.9722,48712
20100528,515,506.8457,501.9722,501.9722,7596
20100531,515,506.8457,501.9722,506.8457,47553
20100601,520,516.5927,497.0987,516.5927,132023
20100602,530,534.1374,521.4663,534.1374,167136
20100603,548,545.8338,531.2133,545.8338,123705
20100604,560,545.8338,540.9603,540.9603,70418
20100607,555,545.8338,536.0868,545.8338,68586
20100608,560,555.5809,545.8338,555.5809,106812
20100609,570,570.2014,555.5809,560.4544,764354
20100610,575,566.3026,562.4038,562.4038,296853
20100611,577,562.4038,560.4544,560.4544,483519
20100614,575,559.4797,559.3822,559.3822,18032
20100615,573.9,565.3279,554.6062,565.3279,122709
20100616,580,565.3279,565.3182,565.3279,35313
20100617,580,579.9582,565.3279,579.9582,323618
20100618,595.01,600.5147,581.4105,600.5147,426713
20100621,616.1,609.1896,601.5869,609.1896,272074
20100622,625,623.8101,604.316,618.1178,4550551
20100623,634.16,618.9366,609.1896,614.0631,710833
20100624,630,614.0631,614.0533,614.0533,121373
20100625,629.99,614.0631,609.1896,614.0631,80460
20100629,630,604.316,604.316,604.316,30830
20100630,620,604.316,604.316,604.316,92876
20100701,620,609.1896,594.4715,609.1896,110432
20100702,625,612.1234,612.1137,612.1137,617310
20100705,628,612.1137,612.1137,612.1137,401
20100706,628,614.0728,614.0631,614.0631,30788
20100707,630,615.0378,614.0631,615.0378,2330
20100708,631,632.5727,616.0125,622.8354,25302
20100709,639,622.8354,620.886,620.886,45120
20100712,637,627.7089,620.886,623.8101,98677
20100713,640,624.7848,614.0631,624.7848,18801
20100714,641,628.6836,628.6836,628.6836,22760
20100715,645,634.6293,628.6836,633.5571,40091
20100719,650,633.5571,633.5571,633.5571,10619
20100720,650,638.4307,634.5318,638.4307,36574
20100721,655,692.0393,639.4054,687.5655,622950
20100722,705.41,716.4069,693.014,701.7864,470442
20100723,720,706.6599,701.7864,701.9813,125077
20100726,720.2,711.5334,711.0461,711.5334,71736
20100727,730,737.8504,711.4359,737.8504,281944
20100728,757,765.1323,750.4241,765.1323,395646
20100729,784.99,770.0156,760.1711,760.1711,722330
20100730,779.9,760.2686,750.4241,750.5215,44825
20100802,770,750.4241,721.2804,721.2804,56859
20100803,740,757.3347,722.2551,725.6666,400633
20100804,744.5,724.2045,721.2804,722.2551,169421
20100805,741,725.1793,716.4069,721.2804,142904
20100806,740,725.1793,711.6309,725.1793,1173227
20100809,744,725.2767,716.4069,725.2767,1089997
20100810,744.1,725.1793,717.3816,725.1793,180164
20100811,744,719.3408,711.5334,711.5334,993653
20100812,730,708.6093,708.6093,708.6093,60364
20100813,727,708.6093,708.6093,708.6093,1056448
20100816,727,696.9129,696.9129,696.9129,4887
20100817,715,702.7611,689.1152,702.7611,1126877
20100818,721,721.2804,711.5334,721.2804,118116
20100819,741,740.7745,722.2551,739.7998,818527
20100820,759,750.5215,731.0275,734.9165,1282206
20100823,753.99,750.5215,736.8757,750.5215,93463
20100824,770,750.5215,729.0781,734.0003,225367
20100825,750,731.0275,721.2804,726.154,994547
20100826,745,739.7998,726.154,726.154,86049
20100827,745,735.901,726.154,726.154,12541
20100830,745,725.6666,725.1793,725.6666,15644
20100831,744.5,726.154,726.154,726.154,32034
20100901,745,731.0275,721.2804,726.154,131806
20100902,745,731.0275,726.154,731.0275,145012
20100903,750,731.0275,716.4069,725.3742,83885
20100906,744.2,770.0156,731.0275,740.7745,25221
20100907,760.5,745.648,740.7745,740.872,214186
20100908,760.1,742.7239,736.8757,741.7492,633565
20100909,761,770.0156,740.7745,761.9451,494986
20100910,781.72,808.029,770.0156,806.0309,555294
20100913,826.95,833.3713,813.8773,833.3616,983572
20100914,855,955.2092,833.3713,886.8825,471388
20100915,910,943.5128,886.0053,940.5887,301506
20100916,970,945.4622,899.6511,899.6511,311775
20100921,923,935.7152,906.5715,916.2211,6454528
20100922,940,917.1958,894.7776,894.7776,234729
20100923,910,886.98,869.4353,869.5328,197118
20100924,892.1,896.727,877.233,877.233,174919
20100927,900,895.6451,877.233,894.2805,141056
20100928,917.49,921.0946,893.8029,920.3441,55271
20100929,944.23,940.5887,935.7152,940.5887,224851
20100930,965,972.7539,946.4369,960.0535,390124
20101001,984.97,975.678,964.9563,974.7033,142644
20101004,1000,1003.944,984.4503,999.1683,2875925
20101005,1025.1,1023.438,1013.691,1016.518,1812864
20101006,1042.9,1025.388,975.678,989.3238,402830
20101007,1015,994.1974,945.4622,954.7706,295510
20101008,979.55,973.7286,950.3357,956.2619,68459
20101012,981.08,963.0069,956.1742,960.0827,43572
20101013,985,974.7033,964.9563,969.8298,2767486
20101014,995,989.3238,969.8298,969.8298,156832
20101015,995,969.8298,965.931,969.8298,971444
20101018,995,972.0716,949.361,950.3357,1629217
20101019,975,969.82,950.3357,964.9563,978358
20101020,990,989.3238,967.8804,967.8804,175112
20101021,993,974.7033,967.8804,968.8551,1124227
20101022,994,968.8551,964.9563,964.9563,176450
20101025,990,967.8804,964.9563,967.8804,321133
20101026,993,966.9057,965.931,966.0284,43911
20101027,991.1,969.8298,966.0284,967.8804,616581
20101028,993,967.8804,950.3357,962.4513,82472
20101029,980,970.3171,955.2092,970.3171,1166054
20101102,995.5,974.7033,969.8298,974.7033,163192
20101103,1006,989.3238,974.7033,989.2264,181376
20101104,1015,1023.438,989.3238,1023.438,97074
20101105,1049,1023.438,991.2733,1003.944,168683
20101108,1030,1003.944,1001.02,1001.995,91835
20101109,1028,1001.995,992.248,992.248,40456
20101110,1018,989.3238,975.678,975.678,29331
20101111,1001,985.5225,973.7286,974.8982,743842
20101112,1000.2,1003.944,969.8298,1003.944,96014
20101115,1030,984.4503,955.2092,976.7502,1028267
20101116,1002.1,974.7033,964.9563,969.8298,26955
20101117,995,1013.691,969.8298,1013.691,1992326
20101118,1040,1038.059,1023.438,1036.207,1274452
20101119,1063.1,1072.174,1043.03,1062.232,1387026
20101122,1089.8,1072.174,1063.401,1072.174,262463
20101123,1100,1081.921,1028.312,1049.755,106842
20101124,1077,1052.68,1047.319,1052.68,158586
20101125,1080,1052.68,1038.059,1038.059,3193210
20101126,1065,1057.553,1038.059,1057.553,21360
20101129,1085,1060.477,1033.283,1042.932,5839257
20101130,1070,1042.932,1042.932,1042.932,640450
20101201,1070,1067.3,1034.16,1040.983,1837498
20101202,1068,1047.806,1040.983,1043.225,3075711
20101203,1070.3,1044.882,1040.983,1042.64,3636080
20101206,1069.7,1057.553,1038.059,1057.553,265512
20101207,1085,1140.403,1067.3,1133.97,1006286
20101209,1163.4,1218.379,1139.428,1139.428,998053
20101210,1169,1159.897,1137.479,1145.276,650229
20101213,1175,1163.796,1116.035,1127.342,3264825
20101214,1156.6,1125.782,1111.162,1112.916,3123782
20101215,1141.8,1120.909,1106.288,1106.288,387083
20101216,1135,1116.035,1101.415,1111.162,3372665
20101217,1140,1111.162,1107.263,1108.238,1827381
20101220,1137,1111.162,1072.174,1075.877,122455
20101221,1103.8,1072.174,1034.16,1041.47,140790
20101222,1068.5,1052.68,1003.944,1012.717,3088969
20101223,1039,1042.932,994.1974,1041.958,380935
20101224,1069,1052.68,1042.932,1051.9,70104
20101227,1079.2,1052.68,1033.186,1036.012,54504
20101228,1062.9,1038.059,1023.438,1023.438,119717
20101229,1050,1052.68,1008.915,1042.932,2967810
20101230,1070,1062.427,1023.438,1040.301,219016
20110103,1067.3,1044.005,1038.059,1038.059,3085146
20110104,1065,1038.059,1033.186,1038.059,106487
20110105,1065,1081.921,1062.427,1081.433,274893
20110106,1109.5,1132.8,1086.794,1127.927,191043
20110107,1157.2,1155.023,1132.605,1155.023,648176
20110110,1185,1194.011,1159.897,1180.366,619047
20110111,1211,1213.506,1189.138,1196.643,751708
20110112,1227.7,1218.379,1198.885,1200.932,1050056
20110113,1232.1,1203.759,1159.897,1165.94,231831
20110114,1196.2,1169.644,1159.897,1169.644,53431
20110117,1200,1184.265,1150.15,1169.449,136560
20110118,1199.8,1179.391,1164.77,1168.669,265476
20110119,1199,1169.644,1159.897,1160.774,135204
20110120,1190.9,1159.897,1120.909,1150.15,39403
20110121,1180,1140.403,1135.529,1135.529,45089
20110124,1165,1135.529,1109.212,1113.111,95494
20110125,1142,1113.111,1109.115,1109.212,183391
20110126,1138,1132.605,1081.921,1081.921,66413
20110127,1110,1091.668,1072.174,1077.34,66888
20110128,1105.3,1072.174,1003.944,1071.394,72868
20110131,1099.2,1062.427,1051.705,1052.582,78934
20110201,1076,1067.3,1048.781,1062.427,224714
20110202,1090,1062.427,1046.831,1047.026,54768
20110203,1074.2,1042.932,994.1974,1003.944,92270
20110204,1030,1015.641,994.1974,1013.691,220402
20110207,1040,1014.666,1012.717,1013.691,40034
20110208,1040,1018.565,1003.944,1018.565,11981
20110209,1045,1018.565,999.0709,999.0709,121206
20110210,1025,1008.818,964.8588,1008.818,249919
20110211,1035,1052.68,1013.691,1052.68,43638
20110214,1080,1062.427,1052.68,1057.553,51262
20110215,1085,1077.047,1057.553,1067.3,93915
20110216,1095,1091.668,1062.427,1077.047,61356
20110217,1105,1077.047,1057.553,1057.553,23243
20110218,1085,1052.68,1042.932,1042.932,73932
20110221,1070,1033.088,1003.944,1003.944,32417
20110222,1030,993.2227,984.4503,984.4503,42641
20110223,1010,965.931,916.2211,950.8231,58677
20110224,975.5,960.0827,945.4622,960.0827,495715
20110225,985,999.0709,970.8045,974.7033,95844
20110228,1000,999.0709,971.7792,971.7792,390230
20110301,997,971.7792,925.9681,946.4369,68720
20110302,971,947.4116,939.614,943.4153,94559
20110303,967.9,994.1974,944.4875,993.8075,592274
20110304,1019.6,994.1974,984.4503,988.2517,11376
20110307,1013.9,994.1974,974.7033,974.7033,27475
20110308,1000,974.7033,951.3104,956.3106,29326
20110309,981.13,960.0827,946.4369,950.3455,723005
20110310,975.01,945.4622,940.5887,943.5128,85676
20110311,968,925.9779,925.9681,925.9681,38214
20110314,950,925.9681,901.6005,901.7955,33227
20110315,925.2,945.4622,891.8535,945.1211,95686
20110316,969.65,955.2092,925.9681,929.8669,281645
20110317,954,945.4622,925.9681,925.9681,34437
20110318,950,916.2211,915.2464,915.2464,3488
20110321,939,955.2092,916.2211,937.6743,192658
20110322,962.01,993.2227,963.0069,974.7033,463009
20110323,1000,1033.186,976.6527,984.4503,78461
20110324,1010,1003.944,984.4503,1003.944,38147
20110325,1030,1022.464,1019.54,1019.54,5216
20110328,1046,1028.312,1018.565,1018.565,57159
20110329,1045,1018.565,984.4503,984.4503,38524
20110330,1010,995.1721,989.3238,989.3238,48720
20110331,1015,1023.438,976.6527,983.4756,60259
20110401,1009,1004.919,994.1974,1003.944,95213
20110404,1030,1023.438,1013.691,1021.002,132829
20110405,1047.5,1003.944,999.0709,999.0709,215831
20110406,1025,999.1683,974.7033,975.5805,748242
20110407,1000.9,984.4503,974.7033,974.7033,245772
20110408,1000,969.8298,967.8804,969.7323,50165
20110411,994.9,963.9816,951.3104,951.3104,28379
20110412,976,951.3104,944.4875,944.4875,23635
20110413,969,955.2092,945.4622,950.3357,49909
20110414,975,945.4622,945.4622,945.4622,21743
20110415,970,964.9563,945.4622,955.2092,580736
20110418,980,969.8298,955.1118,962.2076,40820
20110419,987.18,964.9563,957.1586,964.9563,246639
20110420,990,992.248,970.8045,974.7033,160106
20110421,1000,974.7033,969.8298,970.8045,60206
20110425,996,974.7033,969.8298,974.7033,89148
20110426,1000,999.0709,974.7033,974.7033,109550
20110427,1000,994.1974,964.9563,964.9563,103908
20110428,990,984.4503,972.7539,974.7033,278865
20110429,1000,983.4756,972.7539,974.7033,180945
20110502,1000,986.3997,984.4503,986.3997,50394
20110503,1012,986.3997,971.7792,971.7792,1587536
20110504,997,971.7792,945.4622,946.4369,193081
20110505,971,964.9563,946.4369,964.9563,490879
20110506,990,984.4503,969.8298,974.7033,97616
20110509,1000,974.7033,974.6058,974.7033,12740
20110510,1000,974.7033,974.7033,974.7033,2192
20110511,1000,974.7033,964.9563,964.9563,84078
20110512,990,969.8298,955.2092,969.8298,115660
20110513,995,974.7033,969.8298,974.177,51442
20110516,999.46,983.4756,971.7792,974.5863,88009
20110517,999.88,994.1974,960.0827,964.2252,68558
20110518,989.25,964.9563,955.2092,955.2092,193358
20110519,980,974.7033,960.0827,969.8298,117187
20110520,995,974.7033,968.8551,974.7033,292233
20110523,1000,974.7033,955.2092,955.3067,12304
20110524,980.1,964.9563,955.1118,964.9563,63968
20110525,990,973.6311,964.9563,969.8298,91755
20110526,995,974.7033,969.8298,974.7033,67760
20110527,1000,979.5768,969.8298,974.8008,82194
20110530,1000.1,969.8298,964.9563,964.9563,44847
20110531,990,989.3238,960.0827,989.3238,436636
20110601,1015,999.0709,989.3238,989.3238,71149
20110602,1015,999.0709,974.7033,975.0932,88695
20110603,1000.4,979.5768,964.9563,964.9563,3377513
20110606,990,964.9563,955.2092,955.2092,18060
20110607,980,974.7033,955.2092,974.7033,63098
20110608,1000,955.2092,950.3357,950.3357,10383
20110609,975,958.2308,950.3357,957.1586,92193
20110610,982,964.9563,950.3162,950.3357,277969
20110613,975,955.2092,925.9681,927.4789,102963
20110614,951.55,949.361,916.2211,926.9428,298885
20110615,951,945.4622,906.4741,912.5075,190275
20110616,936.19,916.2211,905.4994,909.5541,700599
20110617,933.16,945.4622,910.3729,925.9681,2020033
20110620,950,945.4622,921.0946,926.9818,1041972
20110621,951.04,945.4622,926.9428,926.9428,54710
20110622,951,935.7152,927.9175,927.9175,70441
20110623,952,924.9934,924.7498,924.9057,172585
20110624,948.91,924.896,906.4741,914.6128,222050
20110628,938.35,925.9681,915.2464,925.9681,72052
20110629,950,911.3476,906.4741,906.4741,1609492
20110630,930,918.268,901.6005,915.2464,103271
20110701,939,935.7152,915.2464,918.1705,97635
20110704,942,918.1705,918.1608,918.1705,55270
20110705,942,930.8416,918.1705,930.8416,14256
20110706,955,911.4451,911.3476,911.3476,3743
20110707,935,906.4741,877.233,906.4741,31290
20110708,930,916.2211,906.4741,916.2211,4203
20110711,940,906.4741,906.4741,906.4741,24895
20110712,930,905.9867,901.6005,901.6005,9577
20110713,925,901.6005,891.8535,896.727,124515
20110714,920,894.7776,887.4674,890.9275,47563
20110715,914.05,896.727,891.8535,894.7776,61971
20110718,918,886.98,886.98,886.98,13006
20110719,910,886.98,877.233,885.0306,168362
20110720,908,878.2077,862.6124,867.4859,306787
20110721,890,869.4353,867.4859,867.4859,162778
20110722,890,867.4859,867.4859,867.4859,26173
20110725,890,877.233,872.3595,876.2583,1201776
20110726,899,868.4606,867.4859,867.4859,220649
20110727,890,857.7389,838.2448,838.2448,2134
20110728,860,838.2448,828.4978,828.4978,79225
20110729,850,827.5231,826.7433,826.7433,9758
20110801,848,847.9919,826.4509,838.2448,41386
20110802,860,845.0678,828.5953,838.5178,11552
20110803,860.28,833.3713,809.0037,809.0037,74806
20110804,830,779.7626,750.5215,760.2101,104594
20110805,779.94,760.2686,743.6986,744.6733,24957
20110808,764,677.4188,635.5065,665.7711,32260
20110809,655,696.9129,638.4307,678.5787,2422554
20110810,696.19,696.9129,682.2923,693.9887,1653233
20110811,712,731.0275,693.9887,711.5334,1676812
20110812,730,732.0022,730.0528,731.0275,224073
20110816,750,764.2649,755.3951,755.7947,130545
20110817,775.41,847.9919,763.68,847.9919,73099
20110818,870,847.9919,785.6109,794.6756,150390
20110819,822.99,802.1711,765.1421,779.9576,213916
20110822,800.2,804.1302,794.3832,795.3481,2918924
20110823,815.99,867.4859,809.0037,863.5871,1554706
20110824,895,906.4741,872.3595,893.0232,3443155
20110825,916.2,887.9547,862.6124,862.6319,137782
20110826,885.02,866.5112,857.7389,857.7389,2168763
20110829,880,877.233,867.4859,876.2875,60247
20110830,899.03,877.2232,867.4859,870.41,2369429
20110831,893,880.1571,877.233,877.233,111254
20110901,900,877.233,877.233,877.233,88076
20110902,900,872.3595,867.4859,867.4859,272161
20110905,890,862.6124,839.2195,839.2195,54170
20110906,861,847.9919,839.2195,841.6563,276373
20110907,863.5,867.4859,837.2701,842.1436,37456
20110908,864,838.2448,838.2448,838.2448,20298
20110909,860,838.2448,823.6243,823.6243,74968
20110912,845,813.8773,804.1302,804.1302,71150
20110913,825,809.0037,804.1302,808.029,1168130
20110914,829,828.4978,794.3832,794.3832,456358
20110915,815,794.3832,770.0156,779.7626,212926
20110916,800,779.7626,770.0156,779.7626,192033
20110920,800,779.7626,779.6652,779.7626,411640
20110921,800,776.8385,765.1421,770.0156,735893
20110922,790,755.3853,721.2804,730.4329,2101383
20110923,749.39,752.4709,731.0275,746.1354,1775612
20110926,765.5,760.2686,731.0275,731.0957,87963
20110927,755,745.648,731.0275,732.9769,95176
20110928,752,730.0528,720.1888,721.0855,3853962
20110929,739.8,721.0855,719.331,719.331,15639
20110930,738,711.5334,692.0393,706.1336,4347746
20111003,724.46,704.7105,701.7864,701.7864,1872849
20111004,720,683.267,682.2923,682.2923,8143
20111005,700,683.267,677.4188,678.3935,45511
20111006,696,701.7864,687.1658,701.7864,2287379
20111007,720,711.5334,703.7358,709.584,126935
20111011,728,735.9205,712.5081,735.901,2345399
20111012,755,741.7492,721.2804,721.2902,3436611
20111013,740.01,722.2551,711.5334,712.3132,115366
20111014,730.8,727.1287,723.2298,726.154,332556
20111017,745,734.9263,730.0528,734.1465,154425
20111018,753.2,745.648,722.2551,722.2551,1182239
20111019,741,745.648,735.901,742.7239,3416980
20111020,762,760.2686,754.2254,755.1221,2144825
20111021,774.72,770.0156,755.4925,757.1008,589228
20111024,776.75,799.2567,755.3951,799.2567,591211
20111025,820,801.2061,779.7626,801.1769,431994
20111026,821.97,838.2546,801.2061,838.2448,625673
20111027,860,872.3595,843.2158,858.2263,674611
20111028,880.5,867.4859,852.9629,853.2455,257068
20111102,875.39,857.7389,847.9919,852.8654,403244
20111103,875,867.4859,855.7895,858.7136,71029
20111104,881,858.7136,857.7389,857.7389,1057539
20111107,880,867.4859,857.7389,867.4859,1553851
20111108,890,912.3223,867.3885,896.3177,1233181
20111109,919.58,891.8535,878.2077,879.1824,136269
20111110,902,912.3223,891.8535,906.2889,137831
20111111,929.81,931.8164,908.4235,921.0946,124489
20111114,945,925.9681,924.9934,925.8707,6452
20111115,949.9,931.8164,898.6764,901.6005,100344
20111116,925,915.2464,901.6005,911.3476,122937
20111117,935,896.727,896.727,896.727,94180
20111118,920,906.4741,906.3766,906.3766,199298
20111121,929.9,888.9294,886.98,887.0775,186837
20111122,910.1,887.0775,886.8825,886.98,36511
20111123,910,883.0227,872.3595,872.3595,67713
20111124,895,872.3595,867.4859,867.4859,33189
20111125,890,886.0053,847.9919,883.0617,33485
20111128,905.98,896.727,886.98,886.9897,73583
20111129,910.01,882.1065,882.1065,882.1065,111198
20111130,905,901.6005,882.204,900.6258,665897
20111201,924,901.6005,888.8319,888.9294,633888
20111202,912,894.7776,891.8535,894.7679,162072
20111205,917.99,893.8029,893.8029,893.8029,1105
20111206,917,894.7776,893.8029,893.8029,123505
20111207,917,891.8633,891.8438,891.8535,52747
20111209,915,891.8535,891.8535,891.8535,436
20111212,915,891.8535,886.98,891.8535,1534
20111213,915,891.6488,882.1065,885.0306,1642633
20111214,908,887.9547,884.0559,886.98,1798136
20111215,886.98,915,899,912.5,2002306
20111216,912.5,905.1,901,901,766165
20111219,901,910,905,905,491571
20111220,905,905,880,880.01,1340845
20111221,880.01,870,870,870,25895
20111222,870,871.01,868.9,870,1133223
20111223,870,880,851,869,30465900
20111226,869,890,865,867,1882551
20111227,867,905,860,860.76,391497
20111228,860.76,860.89,855,856.73,2228996
20111229,856.73,889.9,852,854.09,2388040
20111230,854.09,874,855,870.11,11092420
20120102,870.11,874,861,865,3901043
20120103,865,865,860,860,83282
20120104,860,860,849.99,850,329123
20120105,850,850,845,850,15018290
20120106,850,850,849.9,849.9,366117
20120109,849.9,848,848,848,27878
20120110,848,855,840,842,449819
20120111,842,850,845,845,312133
20120112,845,849.9,840,840,1005332
20120113,840,850,840,845.04,352666
20120116,845.04,855,840,847.5,1364241
20120117,847.5,869.9,850.01,865,3659250
20120118,865,874,860,870.06,9932410
20120119,870.06,905,870.01,904.99,2894451
20120120,904.99,940,905,933.01,1613476
20120123,933.01,950,915,921.84,1298740
20120124,921.84,930,921,930,323780
20120125,930,930,915,920,299098
20120126,920,930,920,930,560212
20120127,930,930,930,930,78766
20120130,930,940.01,930.05,930.05,249115
20120131,930.05,945,939,940.01,617300
20120201,940.01,960,940,958.1,4049798
20120202,958.1,974.99,960,960,502386
20120203,960,975,965,970,495932
20120206,970,990,975,982,372351
20120207,982,1000,980,1000,589184
20120208,1000,1050,1000,1049.5,978387
20120209,1049.5,1069.9,1045,1060,1268187
20120210,1060,1065,1046,1049.8,284950
20120213,1049.8,1070,1051,1059.9,1685593
20120214,1060,1060,1020,1035,316842
20120215,1035,1075,1030,1039.4,806794
20120216,1039.4,1060,1039,1060,310917
20120217,1060,1075,1060,1061,1289565
20120220,1061,1061.1,1049,1049.5,455625
20120221,1049.5,1059,1049,1059,1664407
20120222,1059,1069,1050,1060,753307
20120223,1060,1070,1050,1051.6,566924
20120224,1051.6,1055,1049.9,1049.9,317769
20120227,1049.9,1050,1049,1049.5,183020
20120228,1049.5,1050,1045,1049.3,207347
20120229,1049.3,1069.9,1049,1068,611404
20120301,1068,1068,1059.9,1060.1,1450089
20120302,1060.1,1065,1059.9,1060,460367
20120305,1060,1070,1041,1059.7,72520
20120306,1059.7,1060,1040,1045.7,313394
20120307,1045.7,1050,1036,1040,159920
20120308,1040,1059,1054.9,1059,538017
20120309,1059,1089.5,1070,1079.9,1038762
20120312,1076,1076,1063,1069,1177116
20120313,1069,1095,1065,1066,1395731
20120314,1066,1080,1067,1069.9,483282
20120315,1069.9,1070,1060,1062.8,713450
20120316,1062.8,1070,1067,1068.1,415214
20120319,1068.1,1070,1055,1069.7,857634
20120320,1069.7,1070,1065,1065,498442
20120321,1065,1077.9,1066,1077.9,601762
20120322,1077.9,1077,1060,1070,305744
20120323,1070,1080,1070,1080,323017
20120326,1080,1101,1086,1099.9,830604
20120327,1099.9,1105,1087.8,1103,639589
20120328,1103,1120,1095,1102.4,447968
20120329,1102.4,1110,1100,1104.5,449435
20120330,1104.5,1128,1110,1125,1127705
20120402,1125,1160,1127,1157,1268788
20120403,1160,1160,1144.9,1147,1154402
20120404,1147,1140,1120,1139.2,817423
20120405,1139.2,1150,1135,1144,175107
20120409,1144,1146,1134,1134.8,386394
20120410,1134.8,1140,1131,1135,700007
20120411,1135,1150,1140,1145,386209
20120412,1145,1154.9,1145,1150.1,103455
20120413,1150.1,1165,1149,1160,226358
20120416,1160,1190.1,1151,1186.8,590862
20120417,1186.8,1200,1170,1193.5,464590
20120418,1193.5,1194,1178,1179.8,329618
20120419,1179.8,1180,1175,1178.1,250729
20120420,1178.1,1180,1175,1179.8,1814473
20120423,1179.8,1177,1168.9,1173.5,263415
20120424,1173.5,1175,1160,1160,136510
20120425,1160,1170,1156,1159.9,461708
20120426,1159.9,1160,1144,1150,1764809
20120427,1150,1167,1145.1,1145.1,665961
20120430,1145.1,1164,1145,1164,197436
20120502,1164,1164,1158.1,1160,195285
20120503,1160,1160,1145,1148.8,607376
20120504,1148.8,1167,1142,1165,199562
20120507,1165,1160,1140,1145,541340
20120508,1145,1140,1129,1129.5,151130
20120509,1129.5,1135,1115,1125.2,157890
20120510,1125.2,1138,1123.9,1124,138373
20120511,1124,1141.1,1124,1131,909373
20120514,1131,1130,1117.7,1119.9,824513
20120515,1119.9,1117.7,1081,1085,27104
20120516,1085,1085,1065,1079.8,122928
20120517,1079.8,1080,1060,1067.5,395742
20120518,1067.5,1090,1067,1079.9,568354
20120522,1079.9,1095,1084.9,1084.9,506813
20120523,1084.9,1083,1070,1080,291768
20120524,1080,1081,1069.9,1074.9,413750
20120525,1074.9,1095,1075,1080,1178505
20120528,1080,1095,1080,1080,65367
20120529,1080,1092,1080,1090.9,909936
20120530,1090.9,1095,1085,1086.9,301823
20120531,1086.9,1100,1085,1098.4,211328
20120601,1098.4,1110,1090,1094.9,181710
20120604,1094.9,1100,1071,1077.7,124034
20120605,1077.7,1090,1073,1080,54125
20120606,1080,1085,1070,1084,4147742
20120607,1084,1110,1084,1100,546148
20120608,1100,1100,1089,1093.7,1204221
20120611,1093.7,1105.1,1092.9,1093,273007
20120612,1100,1111,1090,1098.8,2293300
20120613,1098.8,1108,1094.9,1100,2537279
20120614,1100,1140,1098,1117.4,4600467
20120615,1117.4,1170,1130,1168.5,1384748
20120618,1168.5,1185,1162,1174,607445
20120619,1174,1180,1174,1180,210246
20120620,1180,1210,1180,1199.8,700525
20120621,1199.8,1200,1184.1,1185,376948
20120622,1185,1185,1150,1174.8,807567
20120625,1174.8,1175,1169,1172.6,688274
20120626,1172.6,1200,1175,1189,578064
20120627,1189,1220,1195,1198,995519
20120628,1198,1215,1197.8,1200,470024
20120629,1220,1230,1208.9,1220,584278
20120703,1220,1245,1230,1238.9,396760
20120704,1238.9,1240,1235,1238.8,69233
20120705,1238.8,1240,1230,1238.2,388016
20120706,1238.2,1230,1200,1209.2,355110
20120709,1209.2,1230,1203,1203.9,100226
20120710,1203.9,1210,1180,1189,230730
20120711,1189,1186,1160.1,1161.5,351055
20120712,1160,1160,1135,1145.6,808537
20120713,1145.6,1180,1155.1,1180,460951
20120717,1180,1195,1180,1190.2,135672
20120718,1190.2,1200.1,1170,1175.5,457117
20120719,1175.5,1205,1175,1175,130608
20120720,1175,1197,1180,1180,73500
20120723,1180,1180,1160,1171,644377
20120724,1171,1171,1160,1160,79067
20120725,1160,1200,1151,1156.1,178283
20120726,1156.1,1170,1151,1160,136416
20120727,1160,1163,1159.9,1160,746651
20120730,1160,1160,1148.1,1150,181385
20120731,1150,1180,1155,1161,670462
20120801,1161,1165,1160,1164.6,178434
20120802,1164.6,1165,1150,1150,287320
20120803,1150,1165,1149.9,1165,252758
20120806,1165,1200,1159.9,1163.9,909073
20120807,1163.9,1170,1159.9,1160,1023347
20120808,1160,1160,1150,1151.9,188339
20120809,1151.9,1154,1148.9,1148.9,149032
20120810,1148.9,1158,1148,1156.3,270830
20120813,1156.3,1165,1140,1148.4,1228726
20120814,1148.4,1170,1150,1167.2,359198
20120816,1167.2,1170,1163,1163,1211137
20120817,1163,1170,1155,1170,225187
20120820,1170,1171.2,1156,1157,962344
20120821,1157,1170,1160,1168.2,332622
20120822,1168.2,1167,1150,1153,165047
20120823,1153,1170,1150,1165,163310
20120824,1165,1167,1160,1162.9,52676
20120827,1162.9,1164,1140,1155.6,332638
20120828,1159,1170,1150,1162.7,476601
20120829,1162.7,1160,1134,1144.2,249624
20120830,1144.2,1150,1133,1133,126718
20120831,1133,1135,1125,1129.4,82253
20120903,1129.4,1140,1120,1120,605841
20120904,1130,1130,1120,1128.1,804074
20120905,1128.1,1150,1130,1134.5,471074
20120906,1134.5,1150,1140,1145,97011
20120907,1145,1170,1150,1165,235510
20120910,1165,1165,1160,1160,198458
20120911,1160,1167,1155,1167,79928
20120912,1167,1180,1160,1164,562951
20120913,1164,1180,1165,1167,798985
20120914,1167,1180,1170,1170,1289600
20120920,1170,1180,1168,1180,2697696
20120921,1180,1180,1169.9,1170,159110
20120924,1170,1190,1140,1157,255680
20120925,1157,1160,1150,1156.2,942188
20120926,1156.2,1151,1140,1141.3,668753
20120927,1141.3,1160,1140,1157,124915
20120928,1157,1154,1150,1154,89846
20121001,1154,1160,1140,1149.9,299645
20121002,1149.9,1148,1135,1140,461929
20121003,1140,1149.9,1135,1135,272412
20121004,1135,1145,1137.2,1138.3,878132
20121005,1138.3,1145,1138.1,1139.4,374973
20121008,1139.4,1142,1135,1135,182655
20121009,1135,1150,1130,1135,888550
20121010,1135,1135.1,1100,1125,759359
20121011,1125,1130,1115,1118,346665
20121012,1118,1125,1116,1120,401545
20121016,1120,1135,1100,1102.7,571492
20121017,1102.7,1121,1110,1118.9,572789
20121018,1118.9,1130,1119.5,1125.9,202649
20121019,1125.9,1121,1105,1105,189675
20121022,1105,1110,1100,1101,178490
20121023,1101,1111,1101,1107,220507
20121024,1107,1125,1105,1122,794494
20121025,1122,1140,1130,1134.7,3394975
20121026,1135.1,1145,1134,1135,548632
20121029,1135,1147,1130,1145,1523143
20121030,1145,1150,1149.9,1150,340792
20121031,1150,1155,1145,1155,371369
20121105,1155,1170,1150,1151.9,3110417
20121106,1150,1150,1135.5,1140,287182
20121107,1140,1135,1125.5,1125.5,263446
20121108,1125.5,1135,1120,1135,755396
20121109,1135,1135,1125,1125.6,245274
20121112,1125.6,1130,1120,1130,486665
20121113,1130,1130,1120,1120.1,466189
20121114,1120.1,1125,1118,1118,340589
20121115,1118,1123.4,1118.1,1121.9,388001
20121116,1121.9,1130,1120.1,1130,379455
20121119,1130,1135.1,1130,1135.1,1687247
20121120,1135.1,1144,1133,1144,498398
20121121,1144,1155,1140,1145,620543
20121122,1145,1150,1140,1140,706990
20121123,1140,1144,1130,1134,1047135
20121126,1134,1135.1,1130,1133.9,213098
20121127,1133.9,1130,1120,1121.9,1453378
20121128,1121.9,1122.1,1120,1120,309492
20121129,1120,1126.2,1119,1120,156644
20121130,1120,1121,1110,1115,409853
20121203,1115,1150,1110.2,1113.8,191474
20121204,1113.8,1115,1101,1110,139518
20121205,1110,1110,1099.9,1099.9,198699
20121206,1099.9,1105,1090,1096,263348
20121207,1096,1099,1079,1079,196902
20121210,1079,1070,1050,1060,1042496
20121211,1060,1070,1049,1070,1242048
20121212,1070,1100,1070,1099,1243784
20121213,1099,1108,1095,1108,269717
20121214,1108,1114.9,1100,1105.3,256148
20121217,1105.3,1117,1100,1107,889178
20121218,1107,1135,1115,1124.5,1466912
20121219,1124.5,1140,1124,1134.5,1618987
20121220,1134.5,1140,1128,1140,248164
20121221,1140,1140,1130,1130,3090346
20121224,1130,1150,1130,1140.3,1635978
20121226,1140.3,1145,1136,1145,1903591
20121227,1145,1155,1145,1154.3,1222670
20121228,1154.3,1160,1149.9,1154.2,453914
20130102,1154.2,1170,1153,1167.8,432226
20130103,1167.8,1175,1168,1175,136144
20130104,1175,1191,1170,1191,398913
20130107,1191,1195,1180.1,1185,830707
20130108,1185,1190,1185,1186.3,1231540
20130109,1186.3,1181.2,1141,1146.3,588395
20130110,1146.3,1158,1148.9,1155.3,736080
20130111,1155.3,1160,1153,1159.5,545873
20130114,1159.5,1165,1159,1159,359157
20130115,1159,1165,1150,1155,207343
20130116,1155,1164,1150,1163.9,237976
20130117,1163.9,1176,1164.5,1176,801255
20130118,1176,1210,1177,1201.2,568166
20130121,1201.2,1200,1190,1198,843910
20130122,1198,1206,1195,1200,673770
20130123,1200,1200,1190,1190.1,306956
20130124,1190.1,1205,1186.9,1204.9,411505
20130125,1204.9,1221.6,1190,1210,386383
20130128,1210,1200,1195,1200,855217
20130129,1200,1230,1200,1225,396140
20130130,1225,1225,1205,1217,191433
20130131,1217,1221,1215,1215,488416
20130201,1215,1224,1216,1224,516821
20130204,1224,1240,1223.9,1240,834508
20130205,1240,1236.1,1235,1235.5,215292
20130206,1235.5,1250,1234,1247,708067
20130207,1247,1280,1260,1266.4,613394
20130208,1266.4,1285,1265,1265,345149
20130211,1265,1299,1258.4,1281.3,1424070
20130212,1281.3,1299,1281.3,1297,1464992
20130213,1297,1295,1275,1285,1170973
20130214,1285,1300,1285,1300,746780
20130215,1300,1320,1300,1310.6,592239
20130218,1310.6,1310,1295,1295,787881
20130219,1295,1340,1285,1339.9,554154
20130220,1339.9,1350,1310,1311,371138
20130221,1311,1308.9,1270,1277.8,1317001
20130222,1251,1300,1251,1290,536953
20130225,1290,1302,1292.2,1295,566654
20130226,1295,1300,1284.2,1299.4,741553
20130227,1300,1300,1300,1300,130084
20130228,1300,1330,1290.1,1319.5,1165088
20130301,1319.5,1329.9,1310,1320,46633
20130304,1320,1339,1315,1337.7,248593
20130305,1337.7,1349,1338,1347.8,443202
20130306,1347.8,1349,1327,1343.3,79652
20130307,1343.3,1345,1335,1339.9,859837
20130308,1339.9,1375,1310,1326.1,567301
20130311,1326.1,1339.5,1327,1327,1303677
20130312,1327,1340,1313.9,1314.9,921438
20130313,1314.9,1314.9,1296,1310,797212
20130314,1310,1335,1312,1335,406026
20130315,1335,1344.8,1319,1338.2,603399
20130318,1338.2,1335,1325,1330,1147962
20130319,1330,1328.9,1305,1320,244101
20130320,1320,1325,1315,1320,997119
20130321,1320,1319,1300,1310,338588
20130322,1310,1310,1303,1305,1385510
20130325,1305,1301,1299.9,1299.9,402474
20130326,1299.9,1299.5,1282,1284.8,901798
20130327,1284.8,1280,1270,1279,260010
20130328,1279,1300,1280,1297,34713
20130401,1297,1297,1290,1295,917869
20130402,1295,1300,1290,1290,352881
20130403,1290,1284,1250,1280,40899
20130404,1280,1270,1249,1250,255510
20130405,1250,1240,1215,1219,132991
20130408,1219,1230,1209,1214.8,118529
20130409,1214.8,1239.9,1201,1239.3,1132593
20130410,1239.3,1295,1228,1265.1,420610
20130411,1265.1,1289.9,1265,1276.5,476339
20130412,1276.5,1285,1260,1272.7,574022
20130415,1272.7,1270,1250,1251.8,295329
20130416,1251.8,1265,1252,1256,805205
20130417,1256,1253,1245,1245,806262
20130418,1245,1245,1238,1245,870272
20130419,1245,1245,1235,1236,144045
20130422,1236,1240,1220,1228,235623
20130423,1228,1270,1228,1269.7,320150
20130424,1269.7,1278,1268,1270,987840
20130425,1270,1275,1220,1270,337761
20130426,1270,1248,1240,1248,679642
20130429,1248,1245,1230,1239.9,332664
20130430,1239.9,1239,1200,1239,1334952
20130502,1239,1230,1200,1209.1,455956
20130503,1209.1,1235,1205,1208,566551
20130506,1208,1240,1200,1238,650082
20130507,1238,1239.9,1210,1229.4,393738
20130508,1229.4,1240,1219,1232,256654
20130509,1232,1238,1210,1236.9,1298934
20130510,1236.9,1250,1235,1250,815268
20130513,1250,1260,1239.9,1255,123890
20130514,1255,1260,1249.9,1250,523392
20130515,1250,1250,1240,1240,195512
20130516,1240,1237,1210,1220,209104
20130517,1220,1230,1205,1215.1,502405
20130520,1215.1,1225,1220,1225,102331
20130522,1225,1225,1220,1220,233676
20130523,1220,1200,1181,1191,308741
20130524,1191,1220,1150,1161.5,56771
20130527,1161.5,1160,1148,1150,233479
20130528,1150,1156,1130,1130,91202
20130529,1130,1154,1110,1121.7,149718
20130530,1121.7,1136,1125,1130.2,755109
20130531,1130.2,1130,1110,1123.4,380238
20130603,1123.4,1124,1120,1120,649516
20130604,1120,1130,1119.8,1120,349694
20130605,1120,1125,1120,1120.1,493779
20130606,1120.1,1122,1100,1101.1,40437
20130607,1101.1,1100,1080,1080.2,121370
20130610,1080.2,1080,1050,1062.2,334315
20130611,1062.2,1061,1049,1055,299447
20130612,1055,1080.1,1039.5,1080.1,1358564
20130613,1080.1,1110,1090,1101.5,424196
20130614,1101.5,1101.6,1090,1090,1404164
20130617,1090,1090.1,1080,1080.1,122544
20130618,1080.1,1082,1079.8,1080,1475186
20130619,1080,1075,1050,1050,89535
20130620,1050,1020,1015,1016,143528
20130621,1016,1040,1016,1033,200850
20130624,1033,1030,990,1020,858758

